{"id": 1276117421963857920, "conversation_id": "1276117421963857920", "created_at": 1593085077000, "date": "2020-06-25", "time": "07:37:57", "timezone": "-04", "user_id": 337770496, "username": "ricardoaglra", "name": "ricardo aguilar a.", "place": "", "tweet": " https://www.paginasiete.bo/nacional/2020/6/24/pese-al-fraude-el-mas-recibira-del-oep-60-de-los-recursos-destinados-propaganda-259348.html … text=Pese al fraude, el MAS recibirá del OEP 60% de los recursos destinados a propaganda - Diario Pagina Siete", "mentions": [], "urls": ["https://www.paginasiete.bo/nacional/2020/6/24/pese-al-fraude-el-mas-recibira-del-oep-60-de-los-recursos-destinados-propaganda-259348.html"], "photos": [], "replies_count": 5, "retweets_count": 0, "likes_count": 2, "hashtags": [], "cashtags": [], "link": "https://twitter.com/RicardoAglrA/status/1276117421963857920", "retweet": false, "quote_url": "", "video": 0, "near": "", "geo": "", "source": "", "user_rt_id": "", "user_rt": "", "retweet_id": "", "reply_to": [{"user_id": "337770496", "username": "RicardoAglrA"}], "retweet_date": "", "translate": "", "trans_src": "", "trans_dest": ""}
{"id": 1275919885974061065, "conversation_id": "1275919885974061065", "created_at": 1593037980000, "date": "2020-06-24", "time": "18:33:00", "timezone": "-04", "user_id": 337770496, "username": "ricardoaglra", "name": "ricardo aguilar a.", "place": "", "tweet": "Empresario denuncia que ministro de Energías canceló importación de China para evitar verse envuelto en un escándalo de corrupción  https://brujuladigital.net/politica/empresario-denuncia-que-ministro-de-energias-cancelo-importacion-de-china-para-evitar-verse-envuelto-en-un-escandalo-de-corrupcion … vía @BrujulaNoticias", "mentions": ["brujulanoticias"], "urls": ["https://brujuladigital.net/politica/empresario-denuncia-que-ministro-de-energias-cancelo-importacion-de-china-para-evitar-verse-envuelto-en-un-escandalo-de-corrupcion"], "photos": [], "replies_count": 0, "retweets_count": 3, "likes_count": 6, "hashtags": [], "cashtags": [], "link": "https://twitter.com/RicardoAglrA/status/1275919885974061065", "retweet": false, "quote_url": "", "video": 0, "near": "", "geo": "", "source": "", "user_rt_id": "", "user_rt": "", "retweet_id": "", "reply_to": [{"user_id": "337770496", "username": "RicardoAglrA"}, {"user_id": "1034953664618745856", "username": "BrujulaNoticias"}], "retweet_date": "", "translate": "", "trans_src": "", "trans_dest": ""}
{"id": 1275760597729259520, "conversation_id": "1275760597729259520", "created_at": 1593000003000, "date": "2020-06-24", "time": "08:00:03", "timezone": "-04", "user_id": 337770496, "username": "ricardoaglra", "name": "ricardo aguilar a.", "place": "", "tweet": " https://www.paginasiete.bo/sociedad/2020/6/24/el-virus-ingresa-asilos-de-tres-ciudades-deja-nueve-muertos-259301.html … text=El virus ingresa a asilos de tres ciudades y deja nueve muertos - Diario Pagina Siete", "mentions": [], "urls": ["https://www.paginasiete.bo/sociedad/2020/6/24/el-virus-ingresa-asilos-de-tres-ciudades-deja-nueve-muertos-259301.html"], "photos": [], "replies_count": 1, "retweets_count": 0, "likes_count": 1, "hashtags": [], "cashtags": [], "link": "https://twitter.com/RicardoAglrA/status/1275760597729259520", "retweet": false, "quote_url": "", "video": 0, "near": "", "geo": "", "source": "", "user_rt_id": "", "user_rt": "", "retweet_id": "", "reply_to": [{"user_id": "337770496", "username": "RicardoAglrA"}], "retweet_date": "", "translate": "", "trans_src": "", "trans_dest": ""}
{"id": 1275067361926606855, "conversation_id": "1275067361926606855", "created_at": 1592834723000, "date": "2020-06-22", "time": "10:05:23", "timezone": "-04", "user_id": 337770496, "username": "ricardoaglra", "name": "ricardo aguilar a.", "place": "", "tweet": "La campaña primero https://twitter.com/correodelsurcom/status/1274807730264371200 …", "mentions": [], "urls": ["https://twitter.com/correodelsurcom/status/1274807730264371200"], "photos": [], "replies_count": 2, "retweets_count": 2, "likes_count": 12, "hashtags": [], "cashtags": [], "link": "https://twitter.com/RicardoAglrA/status/1275067361926606855", "retweet": false, "quote_url": "https://twitter.com/correodelsurcom/status/1274807730264371200", "video": 0, "near": "", "geo": "", "source": "", "user_rt_id": "", "user_rt": "", "retweet_id": "", "reply_to": [{"user_id": "337770496", "username": "RicardoAglrA"}], "retweet_date": "", "translate": "", "trans_src": "", "trans_dest": ""}
{"id": 1275055040093458432, "conversation_id": "1275055040093458432", "created_at": 1592831785000, "date": "2020-06-22", "time": "09:16:25", "timezone": "-04", "user_id": 337770496, "username": "ricardoaglra", "name": "ricardo aguilar a.", "place": "", "tweet": "El cementerio abre una segunda fosa ante el aumento de fallecidos | Los Tiempos  https://shar.es/abmv6w  vía @LosTiemposBol", "mentions": ["lostiemposbol"], "urls": ["https://shar.es/abmv6w"], "photos": [], "replies_count": 0, "retweets_count": 0, "likes_count": 2, "hashtags": [], "cashtags": [], "link": "https://twitter.com/RicardoAglrA/status/1275055040093458432", "retweet": false, "quote_url": "", "video": 0, "near": "", "geo": "", "source": "", "user_rt_id": "", "user_rt": "", "retweet_id": "", "reply_to": [{"user_id": "337770496", "username": "RicardoAglrA"}, {"user_id": "94438031", "username": "LosTiemposBol"}], "retweet_date": "", "translate": "", "trans_src": "", "trans_dest": ""}
