{"id": 1264685133006876675, "conversation_id": "1264685133006876675", "created_at": 1590359407000, "date": "2020-05-24", "time": "18:30:07", "timezone": "-04", "user_id": 2963400699, "username": "ccorderc", "name": "Carlos Hugo Cordero Carraffa", "place": "", "tweet": "¿Hablando d lucha contra corrupción, tú q usas y abusas del poder para campaña?¿Tú q alquilas empresas para colocar propaganda de JA y tuya, durante cuarentena, fuera d horario y con permisos de circulación?\nYo saqué la foto\nCuando quieras debatimos sobre equidad y democracia. https://twitter.com/CCorderC/status/1257728843969855488 …", "mentions": [], "urls": ["https://twitter.com/CCorderC/status/1257728843969855488"], "photos": [], "replies_count": 14, "retweets_count": 35, "likes_count": 79, "hashtags": [], "cashtags": [], "link": "https://twitter.com/CCorderC/status/1264685133006876675", "retweet": false, "quote_url": "https://twitter.com/CCorderC/status/1257728843969855488", "video": 0, "near": "", "geo": "", "source": "", "user_rt_id": "", "user_rt": "", "retweet_id": "", "reply_to": [{"user_id": "2963400699", "username": "CCorderC"}], "retweet_date": "", "translate": "", "trans_src": "", "trans_dest": ""}
{"id": 1263832422598217740, "conversation_id": "1263832422598217740", "created_at": 1590156105000, "date": "2020-05-22", "time": "10:01:45", "timezone": "-04", "user_id": 2963400699, "username": "ccorderc", "name": "Carlos Hugo Cordero Carraffa", "place": "", "tweet": "@SDoriaMedina Gracias x invitación d 9-12 con Mario Espinoza Escucharemos atentos\n https://twitter.com/SDoriaMedina/status/1263671846408531974?s=20 …\n@AlvaroRuizGarc9  te escribió un tw \"decir que..Pacheco sólo fue un trabajador de tú empresa, muestra..la clase de persona que eres...\"\nQ quiso decir? https://twitter.com/AlvaroRuizGarc9/status/1263637487425069056?s=20 …", "mentions": ["sdoriamedina", "alvaroruizgarc9"], "urls": ["https://twitter.com/SDoriaMedina/status/1263671846408531974?s=20", "https://twitter.com/AlvaroRuizGarc9/status/1263637487425069056?s=20"], "photos": [], "replies_count": 0, "retweets_count": 0, "likes_count": 1, "hashtags": [], "cashtags": [], "link": "https://twitter.com/CCorderC/status/1263832422598217740", "retweet": false, "quote_url": "https://twitter.com/AlvaroRuizGarc9/status/1263637487425069056", "video": 0, "near": "", "geo": "", "source": "", "user_rt_id": "", "user_rt": "", "retweet_id": "", "reply_to": [{"user_id": "2963400699", "username": "CCorderC"}, {"user_id": "140648703", "username": "SDoriaMedina"}, {"user_id": "818342697161424896", "username": "AlvaroRuizGarc9"}], "retweet_date": "", "translate": "", "trans_src": "", "trans_dest": ""}
{"id": 1263211112478248963, "conversation_id": "1263211112478248963", "created_at": 1590007973000, "date": "2020-05-20", "time": "16:52:53", "timezone": "-04", "user_id": 2963400699, "username": "ccorderc", "name": "Carlos Hugo Cordero Carraffa", "place": "", "tweet": "@JeanineAnez Presidenta, es momento d renunciar a CANDIDATURA IMPUESTA por intereses partidarios y cumplir compromiso original d pacificar país \nConvoque a elecciones cuando emergencia sanitaria sea superada\nTrabaje 24/7 y renuncie a Cd, antes d q crisis y país sean inmanejables", "mentions": ["jeanineanez"], "urls": [], "photos": [], "replies_count": 16, "retweets_count": 9, "likes_count": 33, "hashtags": [], "cashtags": [], "link": "https://twitter.com/CCorderC/status/1263211112478248963", "retweet": false, "quote_url": "", "video": 0, "near": "", "geo": "", "source": "", "user_rt_id": "", "user_rt": "", "retweet_id": "", "reply_to": [{"user_id": "2963400699", "username": "CCorderC"}, {"user_id": "465570594", "username": "JeanineAnez"}], "retweet_date": "", "translate": "", "trans_src": "", "trans_dest": ""}
{"id": 1263071470823104512, "conversation_id": "1263071470823104512", "created_at": 1589974680000, "date": "2020-05-20", "time": "07:38:00", "timezone": "-04", "user_id": 2963400699, "username": "ccorderc", "name": "Carlos Hugo Cordero Carraffa", "place": "", "tweet": "Entendiste mal @SDoriaMedina, el guerrymandering no es una técnica d manipulación electoral, es una forma d delimitación de las circunscripciones. Son como los respiradores pueden salvar vidas pero también pueder ser objeto de corrupción https://www.paginasiete.bo/sociedad/2020/5/20/se-activa-una-pulseta-por-la-revision-de-circunscripciones-256022.html …", "mentions": ["sdoriamedina"], "urls": ["https://www.paginasiete.bo/sociedad/2020/5/20/se-activa-una-pulseta-por-la-revision-de-circunscripciones-256022.html"], "photos": [], "replies_count": 2, "retweets_count": 3, "likes_count": 16, "hashtags": [], "cashtags": [], "link": "https://twitter.com/CCorderC/status/1263071470823104512", "retweet": false, "quote_url": "", "video": 0, "near": "", "geo": "", "source": "", "user_rt_id": "", "user_rt": "", "retweet_id": "", "reply_to": [{"user_id": "2963400699", "username": "CCorderC"}, {"user_id": "140648703", "username": "SDoriaMedina"}], "retweet_date": "", "translate": "", "trans_src": "", "trans_dest": ""}
{"id": 1263070879292014592, "conversation_id": "1263070879292014592", "created_at": 1589974539000, "date": "2020-05-20", "time": "07:35:39", "timezone": "-04", "user_id": 2963400699, "username": "ccorderc", "name": "Carlos Hugo Cordero Carraffa", "place": "", "tweet": "@SDoriaMedina @pagina_siete \nEntendiste mal Samuel, el guerrymandering no es una técnica de manipulación electoral, es forma d delimitación d circunscripciones. Son como los respiradores pueden salvar vidas pero también pueden ser motivo d corrupción Cuando quieras te explico", "mentions": ["sdoriamedina", "pagina_siete"], "urls": [], "photos": [], "replies_count": 0, "retweets_count": 0, "likes_count": 0, "hashtags": [], "cashtags": [], "link": "https://twitter.com/CCorderC/status/1263070879292014592", "retweet": false, "quote_url": "", "video": 0, "near": "", "geo": "", "source": "", "user_rt_id": "", "user_rt": "", "retweet_id": "", "reply_to": [{"user_id": "2963400699", "username": "CCorderC"}, {"user_id": "140648703", "username": "SDoriaMedina"}, {"user_id": "132681657", "username": "pagina_siete"}], "retweet_date": "", "translate": "", "trans_src": "", "trans_dest": ""}
{"id": 1262866330379829248, "conversation_id": "1262866330379829248", "created_at": 1589925770000, "date": "2020-05-19", "time": "18:02:50", "timezone": "-04", "user_id": 2963400699, "username": "ccorderc", "name": "Carlos Hugo Cordero Carraffa", "place": "", "tweet": "Algunos tuiteros preguntan si existe campaña q busca postergar indefinidamente E2020. 2 Ejem: LF Camacho y diputado oficialista Barral. Las circ especiales indígenas se crearon x RCPE 2009; las circ uninominales se usan desde E1997. ¿Recién ahora reclaman supuesta desigualdad? https://twitter.com/LuisFerCamachoV/status/1262775023137255424 …", "mentions": [], "urls": ["https://twitter.com/LuisFerCamachoV/status/1262775023137255424"], "photos": [], "replies_count": 15, "retweets_count": 19, "likes_count": 36, "hashtags": [], "cashtags": [], "link": "https://twitter.com/CCorderC/status/1262866330379829248", "retweet": false, "quote_url": "https://twitter.com/LuisFerCamachoV/status/1262775023137255424", "video": 0, "near": "", "geo": "", "source": "", "user_rt_id": "", "user_rt": "", "retweet_id": "", "reply_to": [{"user_id": "2963400699", "username": "CCorderC"}], "retweet_date": "", "translate": "", "trans_src": "", "trans_dest": ""}
{"id": 1262502386473603080, "conversation_id": "1261834074144018432", "created_at": 1589838999000, "date": "2020-05-18", "time": "17:56:39", "timezone": "-04", "user_id": 2963400699, "username": "ccorderc", "name": "Carlos Hugo Cordero Carraffa", "place": "", "tweet": "Estimados: circunscripciones uninom se crearon x Reforma CPE1994; Circ Esp Indígenas x Reforma CPE2009\nEsc x dpto se modifican x Ley. Alguien gana y otro pierde\nEn 1993, Psi, tenía 19 esc y ahora 13; SCZ 17, ahora 28. \n¿A quién quitar escaños para dar a quién?\nHagan apuestas", "mentions": ["monolargavista", "rcalasich"], "urls": [], "photos": [], "replies_count": 0, "retweets_count": 0, "likes_count": 0, "hashtags": [], "cashtags": [], "link": "https://twitter.com/CCorderC/status/1262502386473603080", "retweet": false, "quote_url": "", "video": 0, "near": "", "geo": "", "source": "", "user_rt_id": "", "user_rt": "", "retweet_id": "", "reply_to": [{"user_id": "2963400699", "username": "CCorderC"}, {"user_id": "36924647", "username": "MonoLargaVista"}, {"user_id": "372075713", "username": "RCalasich"}], "retweet_date": "", "translate": "", "trans_src": "", "trans_dest": ""}
{"id": 1262492668719923200, "conversation_id": "1262492668719923200", "created_at": 1589836682000, "date": "2020-05-18", "time": "17:18:02", "timezone": "-04", "user_id": 2963400699, "username": "ccorderc", "name": "Carlos Hugo Cordero Carraffa", "place": "", "tweet": "TV 7, sólo afines al gobierno\nSamuel, en todos los canales de TV, radios, privadas y estatales\nÓscar, Senador y Jefe de Campaña, ahora Ministro\nJeanine, Presidente y Candidata\nAntes elecciones SÍ; y ahora NO\n¿Cómo se llama la película?", "mentions": [], "urls": [], "photos": [], "replies_count": 80, "retweets_count": 40, "likes_count": 99, "hashtags": [], "cashtags": [], "link": "https://twitter.com/CCorderC/status/1262492668719923200", "retweet": false, "quote_url": "", "video": 0, "near": "", "geo": "", "source": "", "user_rt_id": "", "user_rt": "", "retweet_id": "", "reply_to": [{"user_id": "2963400699", "username": "CCorderC"}], "retweet_date": "", "translate": "", "trans_src": "", "trans_dest": ""}
{"id": 1261658991832240131, "conversation_id": "1261658991832240131", "created_at": 1589637918000, "date": "2020-05-16", "time": "10:05:18", "timezone": "-04", "user_id": 2963400699, "username": "ccorderc", "name": "Carlos Hugo Cordero Carraffa", "place": "", "tweet": "A los q piden postergar E2020, indefinidamente: para modificar N° escaños x Dpto se necesita ley; p eliminar o crear Circ Esp Indígenas, también. Quién elabora Ley? Asamblea Legislativa, con mayoría MAS.\nDefinir fecha E2020, bajará la presión social. Agto, Sept, Oct. Dá lo mismo.", "mentions": [], "urls": [], "photos": [], "replies_count": 19, "retweets_count": 17, "likes_count": 43, "hashtags": [], "cashtags": [], "link": "https://twitter.com/CCorderC/status/1261658991832240131", "retweet": false, "quote_url": "", "video": 0, "near": "", "geo": "", "source": "", "user_rt_id": "", "user_rt": "", "retweet_id": "", "reply_to": [{"user_id": "2963400699", "username": "CCorderC"}], "retweet_date": "", "translate": "", "trans_src": "", "trans_dest": ""}
{"id": 1261652246816792576, "conversation_id": "1261647530670129154", "created_at": 1589636310000, "date": "2020-05-16", "time": "09:38:30", "timezone": "-04", "user_id": 2963400699, "username": "ccorderc", "name": "Carlos Hugo Cordero Carraffa", "place": "", "tweet": "Hola TC, quiero comprar Sangre en el diván, pero vivo en Bolivia. Me mandas el video de manera digital? Me habilitas el acceso? Pago con tarjeta y después me habilias un drive?", "mentions": ["trasnochocult", "manriquehector"], "urls": [], "photos": [], "replies_count": 1, "retweets_count": 0, "likes_count": 1, "hashtags": [], "cashtags": [], "link": "https://twitter.com/CCorderC/status/1261652246816792576", "retweet": false, "quote_url": "", "video": 0, "near": "", "geo": "", "source": "", "user_rt_id": "", "user_rt": "", "retweet_id": "", "reply_to": [{"user_id": "2963400699", "username": "CCorderC"}, {"user_id": "66736384", "username": "trasnochocult"}, {"user_id": "87586196", "username": "manriquehector"}], "retweet_date": "", "translate": "", "trans_src": "", "trans_dest": ""}
{"id": 1261648760712593410, "conversation_id": "1261647530670129154", "created_at": 1589635479000, "date": "2020-05-16", "time": "09:24:39", "timezone": "-04", "user_id": 2963400699, "username": "ccorderc", "name": "Carlos Hugo Cordero Carraffa", "place": "", "tweet": "Querido Héctor, me hubiera gustado mucho verte, pero la invitación me llegó recién hoy. Qué posibilidades para que fuera de Vzla, la podamos ver?", "mentions": ["manriquehector", "trasnochocult"], "urls": [], "photos": [], "replies_count": 3, "retweets_count": 0, "likes_count": 3, "hashtags": [], "cashtags": [], "link": "https://twitter.com/CCorderC/status/1261648760712593410", "retweet": false, "quote_url": "", "video": 0, "near": "", "geo": "", "source": "", "user_rt_id": "", "user_rt": "", "retweet_id": "", "reply_to": [{"user_id": "2963400699", "username": "CCorderC"}, {"user_id": "87586196", "username": "manriquehector"}, {"user_id": "66736384", "username": "trasnochocult"}], "retweet_date": "", "translate": "", "trans_src": "", "trans_dest": ""}
{"id": 1261429794090213387, "conversation_id": "1261429794090213387", "created_at": 1589583273000, "date": "2020-05-15", "time": "18:54:33", "timezone": "-04", "user_id": 2963400699, "username": "ccorderc", "name": "Carlos Hugo Cordero Carraffa", "place": "", "tweet": "Un sacerdote boliviano causa furor en Tik Tok por su sentido del humor  https://youtu.be/TCD6bZLhKIU  vía @YouTube", "mentions": ["youtube"], "urls": ["https://youtu.be/TCD6bZLhKIU"], "photos": [], "replies_count": 0, "retweets_count": 0, "likes_count": 1, "hashtags": [], "cashtags": [], "link": "https://twitter.com/CCorderC/status/1261429794090213387", "retweet": false, "quote_url": "", "video": 0, "near": "", "geo": "", "source": "", "user_rt_id": "", "user_rt": "", "retweet_id": "", "reply_to": [{"user_id": "2963400699", "username": "CCorderC"}, {"user_id": "10228272", "username": "YouTube"}], "retweet_date": "", "translate": "", "trans_src": "", "trans_dest": ""}
{"id": 1261294369098936320, "conversation_id": "1261294369098936320", "created_at": 1589550985000, "date": "2020-05-15", "time": "09:56:25", "timezone": "-04", "user_id": 2963400699, "username": "ccorderc", "name": "Carlos Hugo Cordero Carraffa", "place": "", "tweet": "Circula x redes vigorosa campaña con información adulterada, inventada, ignorante y sin fundamento histórico, sobre Sistema Electoral. Dicha campaña promueve: postergación indefinida elecciones, prorroguismo y autoritarismo.\nE2020. Libres y transparentes. Sin ventajas para nadie", "mentions": [], "urls": [], "photos": [], "replies_count": 27, "retweets_count": 51, "likes_count": 141, "hashtags": [], "cashtags": [], "link": "https://twitter.com/CCorderC/status/1261294369098936320", "retweet": false, "quote_url": "", "video": 0, "near": "", "geo": "", "source": "", "user_rt_id": "", "user_rt": "", "retweet_id": "", "reply_to": [{"user_id": "2963400699", "username": "CCorderC"}], "retweet_date": "", "translate": "", "trans_src": "", "trans_dest": ""}
{"id": 1260705977755750400, "conversation_id": "1260705977755750400", "created_at": 1589410702000, "date": "2020-05-13", "time": "18:58:22", "timezone": "-04", "user_id": 2963400699, "username": "ccorderc", "name": "Carlos Hugo Cordero Carraffa", "place": "", "tweet": "En minutos desmontaremos los argumentos de la campaña que promueve la suspensión indefinida de las elecciones, el retorno del autoritarismo y la continuidad de un gobierno que día a día pierde legitimidad. Por face, agrégate. pic.twitter.com/cIIxK42Qal", "mentions": [], "urls": [], "photos": ["https://pbs.twimg.com/media/EX7s3M8WoAAI5eI.jpg"], "replies_count": 38, "retweets_count": 15, "likes_count": 64, "hashtags": [], "cashtags": [], "link": "https://twitter.com/CCorderC/status/1260705977755750400", "retweet": false, "quote_url": "", "video": 0, "near": "", "geo": "", "source": "", "user_rt_id": "", "user_rt": "", "retweet_id": "", "reply_to": [{"user_id": "2963400699", "username": "CCorderC"}], "retweet_date": "", "translate": "", "trans_src": "", "trans_dest": ""}
{"id": 1260554944517726214, "conversation_id": "1260554944517726214", "created_at": 1589374693000, "date": "2020-05-13", "time": "08:58:13", "timezone": "-04", "user_id": 2963400699, "username": "ccorderc", "name": "Carlos Hugo Cordero Carraffa", "place": "", "tweet": "Óscar, con tu renuncia jefatura d campaña has enmendado 1 de 2 errores q perjudican a Pdta Añez Son ejem d uso y abuso d recursos del Edo en campaña. Senador y Jefe Cpña. Presidenta y candidata.\nElecciones sin ventajas para nadie. https://twitter.com/OscarOrtizA/status/1259889775034527744 …", "mentions": [], "urls": ["https://twitter.com/OscarOrtizA/status/1259889775034527744"], "photos": [], "replies_count": 4, "retweets_count": 9, "likes_count": 21, "hashtags": [], "cashtags": [], "link": "https://twitter.com/CCorderC/status/1260554944517726214", "retweet": false, "quote_url": "https://twitter.com/OscarOrtizA/status/1259889775034527744", "video": 0, "near": "", "geo": "", "source": "", "user_rt_id": "", "user_rt": "", "retweet_id": "", "reply_to": [{"user_id": "2963400699", "username": "CCorderC"}], "retweet_date": "", "translate": "", "trans_src": "", "trans_dest": ""}
{"id": 1260332654538436608, "conversation_id": "1260332654538436608", "created_at": 1589321695000, "date": "2020-05-12", "time": "18:14:55", "timezone": "-04", "user_id": 2963400699, "username": "ccorderc", "name": "Carlos Hugo Cordero Carraffa", "place": "", "tweet": "Un necesario debate sobre la campaña: un ciudadano un voto, la representación urbana/rural y modificaciones a la Ley Electoral\nLos argumentos de dicha campaña, están equivocados\nMiércoles a las 19.00 por Face, You Tube\nvirginio lema pic.twitter.com/wVIh2xFKFu", "mentions": [], "urls": [], "photos": ["https://pbs.twimg.com/media/EX2YqWLXQAIuu8M.jpg"], "replies_count": 9, "retweets_count": 16, "likes_count": 44, "hashtags": [], "cashtags": [], "link": "https://twitter.com/CCorderC/status/1260332654538436608", "retweet": false, "quote_url": "", "video": 0, "near": "", "geo": "", "source": "", "user_rt_id": "", "user_rt": "", "retweet_id": "", "reply_to": [{"user_id": "2963400699", "username": "CCorderC"}], "retweet_date": "", "translate": "", "trans_src": "", "trans_dest": ""}
{"id": 1260220029523701761, "conversation_id": "1260220029523701761", "created_at": 1589294843000, "date": "2020-05-12", "time": "10:47:23", "timezone": "-04", "user_id": 2963400699, "username": "ccorderc", "name": "Carlos Hugo Cordero Carraffa", "place": "", "tweet": "Es lo más inteligente que has hecho en mucho tiempo. No fuiste un buen candidato no haces buenos análisis. Eres un bien intencionado, pero dicen que el camino del infierno está sembrado de buenas intenciones. Ahora sí te felicito, suerte, ministro. https://twitter.com/OscarOrtizA/status/1259889775034527744 …", "mentions": [], "urls": ["https://twitter.com/OscarOrtizA/status/1259889775034527744"], "photos": [], "replies_count": 16, "retweets_count": 7, "likes_count": 37, "hashtags": [], "cashtags": [], "link": "https://twitter.com/CCorderC/status/1260220029523701761", "retweet": false, "quote_url": "https://twitter.com/OscarOrtizA/status/1259889775034527744", "video": 0, "near": "", "geo": "", "source": "", "user_rt_id": "", "user_rt": "", "retweet_id": "", "reply_to": [{"user_id": "2963400699", "username": "CCorderC"}], "retweet_date": "", "translate": "", "trans_src": "", "trans_dest": ""}
{"id": 1258885706618994694, "conversation_id": "1258885706618994694", "created_at": 1588976716000, "date": "2020-05-08", "time": "18:25:16", "timezone": "-04", "user_id": 2963400699, "username": "ccorderc", "name": "Carlos Hugo Cordero Carraffa", "place": "", "tweet": "Sr Óscar Ortiz\nUd fue candidato a la presidencia E2019 en el fracasado proyecto político BDN 21F\nUd fue senador durante 3 gestiones de gobierno, desde 2005 a 2020\nUd fue Jefe de campaña de JUNTOS para la campaña E2020\nAhora es ministro\nNo voy a felicitarlo https://twitter.com/ejutv/status/1258877458658582534 …", "mentions": [], "urls": ["https://twitter.com/ejutv/status/1258877458658582534"], "photos": [], "replies_count": 45, "retweets_count": 47, "likes_count": 152, "hashtags": [], "cashtags": [], "link": "https://twitter.com/CCorderC/status/1258885706618994694", "retweet": false, "quote_url": "https://twitter.com/ejutv/status/1258877458658582534", "video": 0, "near": "", "geo": "", "source": "", "user_rt_id": "", "user_rt": "", "retweet_id": "", "reply_to": [{"user_id": "2963400699", "username": "CCorderC"}], "retweet_date": "", "translate": "", "trans_src": "", "trans_dest": ""}
{"id": 1258455416612274176, "conversation_id": "1258455416612274176", "created_at": 1588874126000, "date": "2020-05-07", "time": "13:55:26", "timezone": "-04", "user_id": 2963400699, "username": "ccorderc", "name": "Carlos Hugo Cordero Carraffa", "place": "", "tweet": "Sra Añez, presidenta y candidata, solicito autorización para circular y 20 litros de gasolina, para todo el mes, para ir a los medios que solicitan mi participación, pero que no puedo atender pq estamos en cuarentena. Ud me conoce, soy analista político y profesor universitario. https://twitter.com/pato_andre/status/1258367853402689536 …", "mentions": [], "urls": ["https://twitter.com/pato_andre/status/1258367853402689536"], "photos": [], "replies_count": 75, "retweets_count": 78, "likes_count": 209, "hashtags": [], "cashtags": [], "link": "https://twitter.com/CCorderC/status/1258455416612274176", "retweet": false, "quote_url": "https://twitter.com/pato_andre/status/1258367853402689536", "video": 0, "near": "", "geo": "", "source": "", "user_rt_id": "", "user_rt": "", "retweet_id": "", "reply_to": [{"user_id": "2963400699", "username": "CCorderC"}], "retweet_date": "", "translate": "", "trans_src": "", "trans_dest": ""}
{"id": 1258419837593886720, "conversation_id": "1258419837593886720", "created_at": 1588865644000, "date": "2020-05-07", "time": "11:34:04", "timezone": "-04", "user_id": 2963400699, "username": "ccorderc", "name": "Carlos Hugo Cordero Carraffa", "place": "", "tweet": "Bellísimas, felicidades. https://twitter.com/LaPazonFoot/status/1258353817491562496 …", "mentions": [], "urls": ["https://twitter.com/LaPazonFoot/status/1258353817491562496"], "photos": [], "replies_count": 0, "retweets_count": 2, "likes_count": 7, "hashtags": [], "cashtags": [], "link": "https://twitter.com/CCorderC/status/1258419837593886720", "retweet": false, "quote_url": "https://twitter.com/LaPazonFoot/status/1258353817491562496", "video": 0, "near": "", "geo": "", "source": "", "user_rt_id": "", "user_rt": "", "retweet_id": "", "reply_to": [{"user_id": "2963400699", "username": "CCorderC"}], "retweet_date": "", "translate": "", "trans_src": "", "trans_dest": ""}
{"id": 1258407620852973570, "conversation_id": "1258407620852973570", "created_at": 1588862731000, "date": "2020-05-07", "time": "10:45:31", "timezone": "-04", "user_id": 2963400699, "username": "ccorderc", "name": "Carlos Hugo Cordero Carraffa", "place": "", "tweet": "Pq NO estamos en campaña\nMientras tu tienes los privilegios del poder, otros bolivianos estamos en cuarentena, trabajando desde nuestras casas y tratando d llegar a fin d mes. Lo q haces, no es ético ni moral ni valiente\nCuando quieras te reto a debatir sobre equidad y democracia https://twitter.com/SDoriaMedina/status/1258215709005484032 …", "mentions": [], "urls": ["https://twitter.com/SDoriaMedina/status/1258215709005484032"], "photos": [], "replies_count": 36, "retweets_count": 49, "likes_count": 220, "hashtags": [], "cashtags": [], "link": "https://twitter.com/CCorderC/status/1258407620852973570", "retweet": false, "quote_url": "https://twitter.com/SDoriaMedina/status/1258215709005484032", "video": 0, "near": "", "geo": "", "source": "", "user_rt_id": "", "user_rt": "", "retweet_id": "", "reply_to": [{"user_id": "2963400699", "username": "CCorderC"}], "retweet_date": "", "translate": "", "trans_src": "", "trans_dest": ""}
{"id": 1257728843969855488, "conversation_id": "1257728843969855488", "created_at": 1588700898000, "date": "2020-05-05", "time": "13:48:18", "timezone": "-04", "user_id": 2963400699, "username": "ccorderc", "name": "Carlos Hugo Cordero Carraffa", "place": "", "tweet": "Hoy, 05, 05, 2020. Durante la cuarentena, a las 12.30, Achumani, a 1 cuadra de tu casa, Samuel. Obreros arriegando sus vidas pq Añez y tu, deben hacer campaña.\nNo es ético ni moral ni valiente. Es uso y abuso del poder. Lo mismo que criticamos al MAS. pic.twitter.com/RVZfqKjTuR", "mentions": [], "urls": [], "photos": ["https://pbs.twimg.com/media/EXRYNzlWAAQMrag.jpg"], "replies_count": 277, "retweets_count": 405, "likes_count": 1015, "hashtags": [], "cashtags": [], "link": "https://twitter.com/CCorderC/status/1257728843969855488", "retweet": false, "quote_url": "", "video": 0, "near": "", "geo": "", "source": "", "user_rt_id": "", "user_rt": "", "retweet_id": "", "reply_to": [{"user_id": "2963400699", "username": "CCorderC"}], "retweet_date": "", "translate": "", "trans_src": "", "trans_dest": ""}
{"id": 1257124187661111296, "conversation_id": "1256961040358739974", "created_at": 1588556737000, "date": "2020-05-03", "time": "21:45:37", "timezone": "-04", "user_id": 2963400699, "username": "ccorderc", "name": "Carlos Hugo Cordero Carraffa", "place": "", "tweet": "Le escribe Carlos Cordero, soy profesor de Sistemas Electorales en la UMSA y UCB. ccordero@estudiosdemocraticos.org\nEstoy muy interesado en conocer sus observaciones. \nEn qué consiste la discriminación: una persona un voto ¿?", "mentions": ["vanessabolivia", "tsebolivia", "mindegobierno", "denismir3", "caro_bolivia", "landovx", "julioce05556035", "pierolamarcelo", "patriciaosuna07", "frankfm76", "semdlpz", "alexdrojass"], "urls": [], "photos": [], "replies_count": 8, "retweets_count": 0, "likes_count": 9, "hashtags": [], "cashtags": [], "link": "https://twitter.com/CCorderC/status/1257124187661111296", "retweet": false, "quote_url": "", "video": 0, "near": "", "geo": "", "source": "", "user_rt_id": "", "user_rt": "", "retweet_id": "", "reply_to": [{"user_id": "2963400699", "username": "CCorderC"}, {"user_id": "1193740943603699713", "username": "VanessaBolivia"}, {"user_id": "2375636744", "username": "TSEBolivia"}, {"user_id": "2427864037", "username": "MindeGobierno"}, {"user_id": "1087376824257122304", "username": "DenisMir3"}, {"user_id": "1633717682", "username": "caro_bolivia"}, {"user_id": "614560495", "username": "Landovx"}, {"user_id": "1250159967719567366", "username": "JulioCe05556035"}, {"user_id": "922777587700633602", "username": "PierolaMarcelo"}, {"user_id": "1232031022465703941", "username": "PatriciaOsuna07"}, {"user_id": "1197293261590876160", "username": "FrankFm76"}, {"user_id": "962050147411664896", "username": "Semdlpz"}, {"user_id": "1194058644054302725", "username": "AlexDRojasS"}], "retweet_date": "", "translate": "", "trans_src": "", "trans_dest": ""}
{"id": 1257103901180022784, "conversation_id": "1257103901180022784", "created_at": 1588551900000, "date": "2020-05-03", "time": "20:25:00", "timezone": "-04", "user_id": 2963400699, "username": "ccorderc", "name": "Carlos Hugo Cordero Carraffa", "place": "", "tweet": " https://brujuladigital.net/opinion/la-incapacidad-al-servicio-del-mas …\n\nLo mejor del articulo de Juan Cristóbal Soruco es leerlo completo. Y lo mejor que puede hacer el entorno, que impuso la candidatura de JA, es renunciar. https://twitter.com/AnaMarRey/status/1256930637812043778 …", "mentions": [], "urls": ["https://brujuladigital.net/opinion/la-incapacidad-al-servicio-del-mas", "https://twitter.com/AnaMarRey/status/1256930637812043778"], "photos": [], "replies_count": 5, "retweets_count": 4, "likes_count": 18, "hashtags": [], "cashtags": [], "link": "https://twitter.com/CCorderC/status/1257103901180022784", "retweet": false, "quote_url": "https://twitter.com/AnaMarRey/status/1256930637812043778", "video": 0, "near": "", "geo": "", "source": "", "user_rt_id": "", "user_rt": "", "retweet_id": "", "reply_to": [{"user_id": "2963400699", "username": "CCorderC"}], "retweet_date": "", "translate": "", "trans_src": "", "trans_dest": ""}
{"id": 1256551549234536450, "conversation_id": "1256551549234536450", "created_at": 1588420209000, "date": "2020-05-02", "time": "07:50:09", "timezone": "-04", "user_id": 2963400699, "username": "ccorderc", "name": "Carlos Hugo Cordero Carraffa", "place": "", "tweet": "MAS salió d shock, retomó iniciativa política, quiere E2020 pues día q pasa pierde votos\nSAMUEL quiere E2020, pues dia que pasa pierde dinero\nNegros creen q haciendo gestión y ofertando empleos irán a 2da Vuelta \n\nAñez no renunciará y perderá\n\nPdta JA le sugiero leer LUCAS 16: 13", "mentions": [], "urls": [], "photos": [], "replies_count": 118, "retweets_count": 41, "likes_count": 192, "hashtags": [], "cashtags": [], "link": "https://twitter.com/CCorderC/status/1256551549234536450", "retweet": false, "quote_url": "", "video": 0, "near": "", "geo": "", "source": "", "user_rt_id": "", "user_rt": "", "retweet_id": "", "reply_to": [{"user_id": "2963400699", "username": "CCorderC"}], "retweet_date": "", "translate": "", "trans_src": "", "trans_dest": ""}
{"id": 1254910308893720576, "conversation_id": "1254910308893720576", "created_at": 1588028907000, "date": "2020-04-27", "time": "19:08:27", "timezone": "-04", "user_id": 2963400699, "username": "ccorderc", "name": "Carlos Hugo Cordero Carraffa", "place": "", "tweet": "Sra. @JeanineAnez yo le pido equidad y me otorgue las autorizaciones del caso para desplazarme a distintos medios de comunicación, como lo hace Samuel. Ud., me conoce, soy analista político, profesor universitario y cumplo mi cuarentena de manera disciplinada. https://twitter.com/BsqDante/status/1254618387570987008 …", "mentions": ["jeanineanez"], "urls": ["https://twitter.com/BsqDante/status/1254618387570987008"], "photos": [], "replies_count": 69, "retweets_count": 47, "likes_count": 228, "hashtags": [], "cashtags": [], "link": "https://twitter.com/CCorderC/status/1254910308893720576", "retweet": false, "quote_url": "https://twitter.com/BsqDante/status/1254618387570987008", "video": 0, "near": "", "geo": "", "source": "", "user_rt_id": "", "user_rt": "", "retweet_id": "", "reply_to": [{"user_id": "2963400699", "username": "CCorderC"}, {"user_id": "465570594", "username": "JeanineAnez"}], "retweet_date": "", "translate": "", "trans_src": "", "trans_dest": ""}
{"id": 1254027823087566848, "conversation_id": "1254027823087566848", "created_at": 1587818506000, "date": "2020-04-25", "time": "08:41:46", "timezone": "-04", "user_id": 2963400699, "username": "ccorderc", "name": "Carlos Hugo Cordero Carraffa", "place": "", "tweet": "El poder embriaga y quien lo alcanza debe conservarlo, ampliarlo y reproducirlo x cualquier medio. Recomendaba un viejo del s 16, que hacía teoría política autoritaria\nEn democracia:\nParticipación ciudadana\nElecciones\nRendición de cuentas\nDemocracia si, NO MAS autoritarismo.", "mentions": [], "urls": [], "photos": [], "replies_count": 49, "retweets_count": 21, "likes_count": 93, "hashtags": [], "cashtags": [], "link": "https://twitter.com/CCorderC/status/1254027823087566848", "retweet": false, "quote_url": "", "video": 0, "near": "", "geo": "", "source": "", "user_rt_id": "", "user_rt": "", "retweet_id": "", "reply_to": [{"user_id": "2963400699", "username": "CCorderC"}], "retweet_date": "", "translate": "", "trans_src": "", "trans_dest": ""}
{"id": 1253521262791589889, "conversation_id": "1253521262791589889", "created_at": 1587697733000, "date": "2020-04-23", "time": "23:08:53", "timezone": "-04", "user_id": 2963400699, "username": "ccorderc", "name": "Carlos Hugo Cordero Carraffa", "place": "", "tweet": "El virus y el temor a la muerte no pueden controlar la vida ni el futuro ni matar la esperanza. Debemos elegir a nuestros gobernantes en elecciones libres, transparentes, equitativas y sin ventajas para nadie. El virus puede matar a varios, pero, al final la vida continúa.", "mentions": [], "urls": [], "photos": [], "replies_count": 229, "retweets_count": 44, "likes_count": 190, "hashtags": [], "cashtags": [], "link": "https://twitter.com/CCorderC/status/1253521262791589889", "retweet": false, "quote_url": "", "video": 0, "near": "", "geo": "", "source": "", "user_rt_id": "", "user_rt": "", "retweet_id": "", "reply_to": [{"user_id": "2963400699", "username": "CCorderC"}], "retweet_date": "", "translate": "", "trans_src": "", "trans_dest": ""}
{"id": 1253484059201855488, "conversation_id": "1253484059201855488", "created_at": 1587688862000, "date": "2020-04-23", "time": "20:41:02", "timezone": "-04", "user_id": 2963400699, "username": "ccorderc", "name": "Carlos Hugo Cordero Carraffa", "place": "", "tweet": "Al final la crisis pasará\nEl gob d Añez debe convocar a E2020\nEl país debe volver a la legalidad y legitimidad a través d elecciones libres, transparentes, equitativas. También debe exigir rendición d cuentas al MAS\nDemocracia es: elecciones y rendición de cuentas", "mentions": [], "urls": [], "photos": [], "replies_count": 92, "retweets_count": 27, "likes_count": 178, "hashtags": [], "cashtags": [], "link": "https://twitter.com/CCorderC/status/1253484059201855488", "retweet": false, "quote_url": "", "video": 0, "near": "", "geo": "", "source": "", "user_rt_id": "", "user_rt": "", "retweet_id": "", "reply_to": [{"user_id": "2963400699", "username": "CCorderC"}], "retweet_date": "", "translate": "", "trans_src": "", "trans_dest": ""}
{"id": 1252944553834885122, "conversation_id": "1252944553834885122", "created_at": 1587560234000, "date": "2020-04-22", "time": "08:57:14", "timezone": "-04", "user_id": 2963400699, "username": "ccorderc", "name": "Carlos Hugo Cordero Carraffa", "place": "", "tweet": "Estado debe atender crisis sanitaria, económica y social\nConvocar a elecciones 2020\nGobierno legítimo en elecciones libres, equitativas, justas, transparentes\nNunca MAS uso y abuso de poder, ni de bienes y recursos humanos del Edo en campaña\n\n¡¡Democracia si, autoritarismo, NO!!!", "mentions": [], "urls": [], "photos": [], "replies_count": 41, "retweets_count": 20, "likes_count": 74, "hashtags": [], "cashtags": [], "link": "https://twitter.com/CCorderC/status/1252944553834885122", "retweet": false, "quote_url": "", "video": 0, "near": "", "geo": "", "source": "", "user_rt_id": "", "user_rt": "", "retweet_id": "", "reply_to": [{"user_id": "2963400699", "username": "CCorderC"}], "retweet_date": "", "translate": "", "trans_src": "", "trans_dest": ""}
{"id": 1251848884613234688, "conversation_id": "1251848884613234688", "created_at": 1587299006000, "date": "2020-04-19", "time": "08:23:26", "timezone": "-04", "user_id": 2963400699, "username": "ccorderc", "name": "Carlos Hugo Cordero Carraffa", "place": "", "tweet": "@RCalasich No está en discusión si Añez es Pdta legal. Partido d Añez utiliza recursos del EDO p/ campaña política, humanos, materiales y comunicacionales. Corrompe las E2020. \nEl MAS HACÍA LO MISMO. Añez, ¿es lo mismo?\n¡Elecciones equitativas, sin ventajas para nadie!", "mentions": ["rcalasich"], "urls": [], "photos": [], "replies_count": 1, "retweets_count": 0, "likes_count": 4, "hashtags": [], "cashtags": [], "link": "https://twitter.com/CCorderC/status/1251848884613234688", "retweet": false, "quote_url": "", "video": 0, "near": "", "geo": "", "source": "", "user_rt_id": "", "user_rt": "", "retweet_id": "", "reply_to": [{"user_id": "2963400699", "username": "CCorderC"}, {"user_id": "372075713", "username": "RCalasich"}], "retweet_date": "", "translate": "", "trans_src": "", "trans_dest": ""}
{"id": 1250465162567585792, "conversation_id": "1250465162567585792", "created_at": 1586969101000, "date": "2020-04-15", "time": "12:45:01", "timezone": "-04", "user_id": 2963400699, "username": "ccorderc", "name": "Carlos Hugo Cordero Carraffa", "place": "", "tweet": " https://www.tvperu.gob.pe/noticias/nacionales/presidente-martin-vizcarra-ratifico-que-no-sera-candidato-en-las-elecciones-del-2021 …\n\n\"Yo cumplo...mi palabra siempre, por eso es que todas las decisiones que tomo como presidente y Gobierno nunca son pensando en qué ventaja podría tener en una futura elección que no voy a participar\".\n\nPalabras de Martín Vizcarra, Presidente del Perú.", "mentions": [], "urls": ["https://www.tvperu.gob.pe/noticias/nacionales/presidente-martin-vizcarra-ratifico-que-no-sera-candidato-en-las-elecciones-del-2021"], "photos": [], "replies_count": 14, "retweets_count": 14, "likes_count": 52, "hashtags": [], "cashtags": [], "link": "https://twitter.com/CCorderC/status/1250465162567585792", "retweet": false, "quote_url": "", "video": 0, "near": "", "geo": "", "source": "", "user_rt_id": "", "user_rt": "", "retweet_id": "", "reply_to": [{"user_id": "2963400699", "username": "CCorderC"}], "retweet_date": "", "translate": "", "trans_src": "", "trans_dest": ""}
{"id": 1249842260423958529, "conversation_id": "1249842260423958529", "created_at": 1586820590000, "date": "2020-04-13", "time": "19:29:50", "timezone": "-04", "user_id": 2963400699, "username": "ccorderc", "name": "Carlos Hugo Cordero Carraffa", "place": "", "tweet": "Min Murillo, en:\n77 tenía 19 y caí preso b/ dictadura Banzer \n80s c/ García y Arce en Vzla\ns. XXI 14 años opositor a dictadura MAS-García L. \n¿Callarme? ¿Amedrentado? \nAñez debe RENUNCIAR a candidatura x el bien de Democracia\nElecciones 2020 equitativas, transparentes y limpias", "mentions": [], "urls": [], "photos": [], "replies_count": 224, "retweets_count": 108, "likes_count": 548, "hashtags": [], "cashtags": [], "link": "https://twitter.com/CCorderC/status/1249842260423958529", "retweet": false, "quote_url": "", "video": 0, "near": "", "geo": "", "source": "", "user_rt_id": "", "user_rt": "", "retweet_id": "", "reply_to": [{"user_id": "2963400699", "username": "CCorderC"}], "retweet_date": "", "translate": "", "trans_src": "", "trans_dest": ""}
{"id": 1247255828064874496, "conversation_id": "1247255828064874496", "created_at": 1586203936000, "date": "2020-04-06", "time": "16:12:16", "timezone": "-04", "user_id": 2963400699, "username": "ccorderc", "name": "Carlos Hugo Cordero Carraffa", "place": "", "tweet": "Ministro @yerko_nunez Sería gran señal de inteligencia política que sra presidenta renuncie a candidatura de partido que fracasó en E2019. Emergencia sanitaria, postergación de E2020, desgasta gestión e imagen y no se traducirá en votos. https://twitter.com/luciaquerejazu/status/1247203969421774858 …", "mentions": ["yerko_nunez"], "urls": ["https://twitter.com/luciaquerejazu/status/1247203969421774858"], "photos": [], "replies_count": 228, "retweets_count": 65, "likes_count": 341, "hashtags": [], "cashtags": [], "link": "https://twitter.com/CCorderC/status/1247255828064874496", "retweet": false, "quote_url": "https://twitter.com/luciaquerejazu/status/1247203969421774858", "video": 0, "near": "", "geo": "", "source": "", "user_rt_id": "", "user_rt": "", "retweet_id": "", "reply_to": [{"user_id": "2963400699", "username": "CCorderC"}, {"user_id": "3026528997", "username": "yerko_nunez"}], "retweet_date": "", "translate": "", "trans_src": "", "trans_dest": ""}
{"id": 1242081906637799425, "conversation_id": "1242081906637799425", "created_at": 1584970377000, "date": "2020-03-23", "time": "09:32:57", "timezone": "-04", "user_id": 2963400699, "username": "ccorderc", "name": "Carlos Hugo Cordero Carraffa", "place": "", "tweet": "Víctor Codina sj: \"¿Por qué Dios permite la pandemia y calla? ¿Es un castigo? ¿Hay que pedirle milagros? ¿Dónde está Dios?\"  https://www.religiondigital.org/_840f0b46  vía @ReligionDigit", "mentions": ["religiondigit"], "urls": ["https://www.religiondigital.org/_840f0b46"], "photos": [], "replies_count": 1, "retweets_count": 0, "likes_count": 3, "hashtags": [], "cashtags": [], "link": "https://twitter.com/CCorderC/status/1242081906637799425", "retweet": false, "quote_url": "", "video": 0, "near": "", "geo": "", "source": "", "user_rt_id": "", "user_rt": "", "retweet_id": "", "reply_to": [{"user_id": "2963400699", "username": "CCorderC"}, {"user_id": "148445725", "username": "ReligionDigit"}], "retweet_date": "", "translate": "", "trans_src": "", "trans_dest": ""}
{"id": 1241503362941685762, "conversation_id": "1241503362941685762", "created_at": 1584832442000, "date": "2020-03-21", "time": "19:14:02", "timezone": "-04", "user_id": 2963400699, "username": "ccorderc", "name": "Carlos Hugo Cordero Carraffa", "place": "", "tweet": "Sra Añez: Ud y colaboradores suyos fueron críticos con ex gob Morales x utilizar recursos del Edo para beneficiarse políticamente \n\nCandidato x JUNTOS del Chaco hace propaganda con la tragedia del coronavirus. ¡Ahora ésto!\n\nPor decoro, renuncie a candidatura, la están dañando https://twitter.com/Andy12248370/status/1241118950005583872 …", "mentions": [], "urls": ["https://twitter.com/Andy12248370/status/1241118950005583872"], "photos": [], "replies_count": 9, "retweets_count": 5, "likes_count": 19, "hashtags": [], "cashtags": [], "link": "https://twitter.com/CCorderC/status/1241503362941685762", "retweet": false, "quote_url": "https://twitter.com/Andy12248370/status/1241118950005583872", "video": 0, "near": "", "geo": "", "source": "", "user_rt_id": "", "user_rt": "", "retweet_id": "", "reply_to": [{"user_id": "2963400699", "username": "CCorderC"}], "retweet_date": "", "translate": "", "trans_src": "", "trans_dest": ""}
{"id": 1241116850542587904, "conversation_id": "1241116850542587904", "created_at": 1584740290000, "date": "2020-03-20", "time": "17:38:10", "timezone": "-04", "user_id": 2963400699, "username": "ccorderc", "name": "Carlos Hugo Cordero Carraffa", "place": "", "tweet": "Severa emergencia sanitaria que vive Bolivia demanda:\n-Dedicación exclusiva de Presidenta Añez a problemas de Estado\n-Postergación E2020\n-Renuncia a candidatura presidencial\n\nInsistir en dualidad de funciones, deriva en pérdida de credibilidad, ingobernabilidad y mal gobierno", "mentions": [], "urls": [], "photos": [], "replies_count": 69, "retweets_count": 72, "likes_count": 367, "hashtags": [], "cashtags": [], "link": "https://twitter.com/CCorderC/status/1241116850542587904", "retweet": false, "quote_url": "", "video": 0, "near": "", "geo": "", "source": "", "user_rt_id": "", "user_rt": "", "retweet_id": "", "reply_to": [{"user_id": "2963400699", "username": "CCorderC"}], "retweet_date": "", "translate": "", "trans_src": "", "trans_dest": ""}
{"id": 1240412280107433987, "conversation_id": "1240412280107433987", "created_at": 1584572307000, "date": "2020-03-18", "time": "18:58:27", "timezone": "-04", "user_id": 2963400699, "username": "ccorderc", "name": "Carlos Hugo Cordero Carraffa", "place": "", "tweet": "Presidenta Añez, el país espera de Ud, una dedicación exclusiva a los problemas del Estado. \nPolíticos que fracasaron en las E19, la llevan de candidata y al fracaso en las E2020.\nLe pedimos que conduzca unas elecciones equitativas, transparentes y sin ventajas para nadie.", "mentions": [], "urls": [], "photos": [], "replies_count": 5, "retweets_count": 12, "likes_count": 44, "hashtags": [], "cashtags": [], "link": "https://twitter.com/CCorderC/status/1240412280107433987", "retweet": false, "quote_url": "", "video": 0, "near": "", "geo": "", "source": "", "user_rt_id": "", "user_rt": "", "retweet_id": "", "reply_to": [{"user_id": "2963400699", "username": "CCorderC"}], "retweet_date": "", "translate": "", "trans_src": "", "trans_dest": ""}
{"id": 1240067083871846400, "conversation_id": "1240067083871846400", "created_at": 1584490006000, "date": "2020-03-17", "time": "20:06:46", "timezone": "-04", "user_id": 2963400699, "username": "ccorderc", "name": "Carlos Hugo Cordero Carraffa", "place": "", "tweet": "Las medidas extraordinarias para enfrentar la crisis sanitaria son necesarias, así como la postergación del 3M, la dedicación exclusiva a éste problema humanitario y la renuncia a su candidatura para garantizar unas elecciones transparentes, equitativas y sin ventajas para nadie. https://twitter.com/abi_bolivia/status/1240011982096531458 …", "mentions": [], "urls": ["https://twitter.com/abi_bolivia/status/1240011982096531458"], "photos": [], "replies_count": 4, "retweets_count": 1, "likes_count": 17, "hashtags": [], "cashtags": [], "link": "https://twitter.com/CCorderC/status/1240067083871846400", "retweet": false, "quote_url": "https://twitter.com/abi_bolivia/status/1240011982096531458", "video": 0, "near": "", "geo": "", "source": "", "user_rt_id": "", "user_rt": "", "retweet_id": "", "reply_to": [{"user_id": "2963400699", "username": "CCorderC"}], "retweet_date": "", "translate": "", "trans_src": "", "trans_dest": ""}
{"id": 1239675316249014272, "conversation_id": "1239675316249014272", "created_at": 1584396602000, "date": "2020-03-16", "time": "18:10:02", "timezone": "-04", "user_id": 2963400699, "username": "ccorderc", "name": "Carlos Hugo Cordero Carraffa", "place": "", "tweet": "Sra Presidenta Añez, la convocatoria a una minicumbre y su pedido de dejar intereses políticos, la dignifica.\n\nDé el ejemplo, conduzca unas elecciones imparciales, equitativas y transparentes, sin ventajas para nadie. https://twitter.com/LosTiemposBol/status/1239672270496436226 …", "mentions": [], "urls": ["https://twitter.com/LosTiemposBol/status/1239672270496436226"], "photos": [], "replies_count": 4, "retweets_count": 1, "likes_count": 8, "hashtags": [], "cashtags": [], "link": "https://twitter.com/CCorderC/status/1239675316249014272", "retweet": false, "quote_url": "https://twitter.com/LosTiemposBol/status/1239672270496436226", "video": 0, "near": "", "geo": "", "source": "", "user_rt_id": "", "user_rt": "", "retweet_id": "", "reply_to": [{"user_id": "2963400699", "username": "CCorderC"}], "retweet_date": "", "translate": "", "trans_src": "", "trans_dest": ""}
{"id": 1239673642344230913, "conversation_id": "1239673642344230913", "created_at": 1584396203000, "date": "2020-03-16", "time": "18:03:23", "timezone": "-04", "user_id": 2963400699, "username": "ccorderc", "name": "Carlos Hugo Cordero Carraffa", "place": "", "tweet": "Alianza estratégica TU VOTO CUENTA posterga realización de primera encuesta. La salud de las personas es el tema más importante.\nPostergar las elecciones 3M, es imperativo.\n¡Elecciones competitivas, equitativas y transparentes! https://twitter.com/abi_bolivia/status/1239670009321918464 …", "mentions": [], "urls": ["https://twitter.com/abi_bolivia/status/1239670009321918464"], "photos": [], "replies_count": 0, "retweets_count": 2, "likes_count": 5, "hashtags": [], "cashtags": [], "link": "https://twitter.com/CCorderC/status/1239673642344230913", "retweet": false, "quote_url": "https://twitter.com/abi_bolivia/status/1239670009321918464", "video": 0, "near": "", "geo": "", "source": "", "user_rt_id": "", "user_rt": "", "retweet_id": "", "reply_to": [{"user_id": "2963400699", "username": "CCorderC"}], "retweet_date": "", "translate": "", "trans_src": "", "trans_dest": ""}
{"id": 1239668301254602752, "conversation_id": "1239668301254602752", "created_at": 1584394929000, "date": "2020-03-16", "time": "17:42:09", "timezone": "-04", "user_id": 2963400699, "username": "ccorderc", "name": "Carlos Hugo Cordero Carraffa", "place": "", "tweet": "Alianza estratégica: TU VOTO CUENTA, ha postergado la realización de la primera encuesta. \nDeben postergarse las elecciones 3M, por un tiempo igual al estado de emergencia.\nLa Sra Presidenta Añez debe renunciar a su candidatura para garantizar elecciones equitativas, imparciales.", "mentions": [], "urls": [], "photos": [], "replies_count": 2, "retweets_count": 4, "likes_count": 6, "hashtags": [], "cashtags": [], "link": "https://twitter.com/CCorderC/status/1239668301254602752", "retweet": false, "quote_url": "", "video": 0, "near": "", "geo": "", "source": "", "user_rt_id": "", "user_rt": "", "retweet_id": "", "reply_to": [{"user_id": "2963400699", "username": "CCorderC"}], "retweet_date": "", "translate": "", "trans_src": "", "trans_dest": ""}
{"id": 1239354587448053762, "conversation_id": "1239354587448053762", "created_at": 1584320134000, "date": "2020-03-15", "time": "20:55:34", "timezone": "-04", "user_id": 2963400699, "username": "ccorderc", "name": "Carlos Hugo Cordero Carraffa", "place": "", "tweet": "Si la sra presidenta Añez dictara un estado de excepción en el país para enfrentar la crisis sanitaria, la medida debe estar acompañada de la postergación de las elecciones 3M, la renuncia a su candidatura y el retorno a una elección competitiva y sin ventajas para nadie.", "mentions": [], "urls": [], "photos": [], "replies_count": 12, "retweets_count": 14, "likes_count": 44, "hashtags": [], "cashtags": [], "link": "https://twitter.com/CCorderC/status/1239354587448053762", "retweet": false, "quote_url": "", "video": 0, "near": "", "geo": "", "source": "", "user_rt_id": "", "user_rt": "", "retweet_id": "", "reply_to": [{"user_id": "2963400699", "username": "CCorderC"}], "retweet_date": "", "translate": "", "trans_src": "", "trans_dest": ""}
{"id": 1238854181143941120, "conversation_id": "1238840081433141249", "created_at": 1584200828000, "date": "2020-03-14", "time": "11:47:08", "timezone": "-04", "user_id": 2963400699, "username": "ccorderc", "name": "Carlos Hugo Cordero Carraffa", "place": "", "tweet": "La Sra Añez podría dar un revés a los políticos tradicionales y mezquinos de su partido, si regresa las cosas a su lugar. Dejando su vergonzosa candidatura y ejerciendo la Presidencia para conducir las elecciones 2020 de manera imparcial. Todos votaríamos por ella el 2025.", "mentions": ["jptipnis", "calvimontesj"], "urls": [], "photos": [], "replies_count": 3, "retweets_count": 2, "likes_count": 9, "hashtags": [], "cashtags": [], "link": "https://twitter.com/CCorderC/status/1238854181143941120", "retweet": false, "quote_url": "", "video": 0, "near": "", "geo": "", "source": "", "user_rt_id": "", "user_rt": "", "retweet_id": "", "reply_to": [{"user_id": "2963400699", "username": "CCorderC"}, {"user_id": "537602958", "username": "jptipnis"}, {"user_id": "1363015080", "username": "CalvimontesJ"}], "retweet_date": "", "translate": "", "trans_src": "", "trans_dest": ""}
{"id": 1238840081433141249, "conversation_id": "1238840081433141249", "created_at": 1584197466000, "date": "2020-03-14", "time": "10:51:06", "timezone": "-04", "user_id": 2963400699, "username": "ccorderc", "name": "Carlos Hugo Cordero Carraffa", "place": "", "tweet": "Sra Añez, felicitaciones por los resultados de su trabajo Esto es lo que debe hacer, trabajar como Presidenta, 24/7. Lo reprochable es que hizo caso a políticos fracasados de su partido y se hizo candidata. La miopía y la mezquindad de ellos le hizo tomar una decisión equivocada. https://twitter.com/correodelsurcom/status/1238580310385795072 …", "mentions": [], "urls": ["https://twitter.com/correodelsurcom/status/1238580310385795072"], "photos": [], "replies_count": 18, "retweets_count": 31, "likes_count": 131, "hashtags": [], "cashtags": [], "link": "https://twitter.com/CCorderC/status/1238840081433141249", "retweet": false, "quote_url": "https://twitter.com/correodelsurcom/status/1238580310385795072", "video": 0, "near": "", "geo": "", "source": "", "user_rt_id": "", "user_rt": "", "retweet_id": "", "reply_to": [{"user_id": "2963400699", "username": "CCorderC"}], "retweet_date": "", "translate": "", "trans_src": "", "trans_dest": ""}
{"id": 1238507203709067264, "conversation_id": "1238507203709067264", "created_at": 1584118102000, "date": "2020-03-13", "time": "12:48:22", "timezone": "-04", "user_id": 2963400699, "username": "ccorderc", "name": "Carlos Hugo Cordero Carraffa", "place": "", "tweet": "Apareciste Sacha ¿para preguntar por un cuadro? \n\nEn Bolivia estamos en cuarentena por el coronavirus. Las canchitas de fútbol que construyó Evo no sirven, tampoco el SUS. No hay hospitales, se farrearon la plata, hicieron fraude y tu preguntas x un cuadro. \n\n¡Que idiota! https://twitter.com/SachaLlorenti/status/1238446138065408000 …", "mentions": [], "urls": ["https://twitter.com/SachaLlorenti/status/1238446138065408000"], "photos": [], "replies_count": 2, "retweets_count": 9, "likes_count": 29, "hashtags": [], "cashtags": [], "link": "https://twitter.com/CCorderC/status/1238507203709067264", "retweet": false, "quote_url": "https://twitter.com/SachaLlorenti/status/1238446138065408000", "video": 0, "near": "", "geo": "", "source": "", "user_rt_id": "", "user_rt": "", "retweet_id": "", "reply_to": [{"user_id": "2963400699", "username": "CCorderC"}], "retweet_date": "", "translate": "", "trans_src": "", "trans_dest": ""}
{"id": 1237725286139117569, "conversation_id": "1237725286139117569", "created_at": 1583931678000, "date": "2020-03-11", "time": "09:01:18", "timezone": "-04", "user_id": 2963400699, "username": "ccorderc", "name": "Carlos Hugo Cordero Carraffa", "place": "", "tweet": "El jueves por la mañana, 12 02 2020, 10 a.m., en el salón  de honor de la UMSA, se dará una conferencia de prensa para dar detalles de la organización del DEBATE  POR BOLIVIA. Debate presidencial. pic.twitter.com/AFR1KSPHdk", "mentions": [], "urls": [], "photos": ["https://pbs.twimg.com/media/ES1IY0NXYAc7gUg.jpg"], "replies_count": 2, "retweets_count": 0, "likes_count": 4, "hashtags": [], "cashtags": [], "link": "https://twitter.com/CCorderC/status/1237725286139117569", "retweet": false, "quote_url": "", "video": 0, "near": "", "geo": "", "source": "", "user_rt_id": "", "user_rt": "", "retweet_id": "", "reply_to": [{"user_id": "2963400699", "username": "CCorderC"}], "retweet_date": "", "translate": "", "trans_src": "", "trans_dest": ""}
{"id": 1236632741854285824, "conversation_id": "1236632741854285824", "created_at": 1583671195000, "date": "2020-03-08", "time": "08:39:55", "timezone": "-04", "user_id": 2963400699, "username": "ccorderc", "name": "Carlos Hugo Cordero Carraffa", "place": "", "tweet": "\"..el  Celag, dirigido por Alfredo Serrano, asesor de Maduro e ideólogo de su política económica, y que cuenta en su consejo consultivo con Rafael Correa, Álvaro García L, Atilio Borón y Juan Carlos Monedero (fundador de Podemos en España). El Celag..\"\n\nHace encuestas\n\n🤣🤣🤣", "mentions": [], "urls": [], "photos": [], "replies_count": 3, "retweets_count": 12, "likes_count": 24, "hashtags": [], "cashtags": [], "link": "https://twitter.com/CCorderC/status/1236632741854285824", "retweet": false, "quote_url": "", "video": 0, "near": "", "geo": "", "source": "", "user_rt_id": "", "user_rt": "", "retweet_id": "", "reply_to": [{"user_id": "2963400699", "username": "CCorderC"}], "retweet_date": "", "translate": "", "trans_src": "", "trans_dest": ""}
{"id": 1236116046467260416, "conversation_id": "1236116046467260416", "created_at": 1583548006000, "date": "2020-03-06", "time": "22:26:46", "timezone": "-04", "user_id": 2963400699, "username": "ccorderc", "name": "Carlos Hugo Cordero Carraffa", "place": "", "tweet": "Encuesta CELAG, octubre 2019\nMAS-Morales 38,8% \nCC- Mesa        25,4%\nBDN-Ortiz       11,3%\n\nResultados, elecciones octubre 2019, anuladas por fraude.\nMAS  47,1%\nCC     36,5%\nBND   4,2%\n\nCELAG = 🤣🤣🤣\n\nPor favor, desmientanme.", "mentions": [], "urls": [], "photos": [], "replies_count": 21, "retweets_count": 89, "likes_count": 134, "hashtags": [], "cashtags": [], "link": "https://twitter.com/CCorderC/status/1236116046467260416", "retweet": false, "quote_url": "", "video": 0, "near": "", "geo": "", "source": "", "user_rt_id": "", "user_rt": "", "retweet_id": "", "reply_to": [{"user_id": "2963400699", "username": "CCorderC"}], "retweet_date": "", "translate": "", "trans_src": "", "trans_dest": ""}
{"id": 1235957284137832448, "conversation_id": "1235957284137832448", "created_at": 1583510154000, "date": "2020-03-06", "time": "11:55:54", "timezone": "-04", "user_id": 2963400699, "username": "ccorderc", "name": "Carlos Hugo Cordero Carraffa", "place": "", "tweet": "Este graffiti cierra el debate sobre si en Bolivia hubo un golpe de Estado, la mentira del MIT, WP. Genial. Av Camacho y Loayza, LP. pic.twitter.com/Frudc2g3kH", "mentions": [], "urls": [], "photos": ["https://pbs.twimg.com/media/ESb_UzMX0AIdMVn.jpg"], "replies_count": 0, "retweets_count": 2, "likes_count": 7, "hashtags": [], "cashtags": [], "link": "https://twitter.com/CCorderC/status/1235957284137832448", "retweet": false, "quote_url": "", "video": 0, "near": "", "geo": "", "source": "", "user_rt_id": "", "user_rt": "", "retweet_id": "", "reply_to": [{"user_id": "2963400699", "username": "CCorderC"}], "retweet_date": "", "translate": "", "trans_src": "", "trans_dest": ""}
{"id": 1235937007341314054, "conversation_id": "1235937003528687616", "created_at": 1583505319000, "date": "2020-03-06", "time": "10:35:19", "timezone": "-04", "user_id": 2963400699, "username": "ccorderc", "name": "Carlos Hugo Cordero Carraffa", "place": "", "tweet": "Calle Camacho y Loayza. Genial.", "mentions": [], "urls": [], "photos": [], "replies_count": 0, "retweets_count": 0, "likes_count": 0, "hashtags": [], "cashtags": [], "link": "https://twitter.com/CCorderC/status/1235937007341314054", "retweet": false, "quote_url": "", "video": 0, "near": "", "geo": "", "source": "", "user_rt_id": "", "user_rt": "", "retweet_id": "", "reply_to": [{"user_id": "2963400699", "username": "CCorderC"}], "retweet_date": "", "translate": "", "trans_src": "", "trans_dest": ""}
{"id": 1235937003528687616, "conversation_id": "1235937003528687616", "created_at": 1583505318000, "date": "2020-03-06", "time": "10:35:18", "timezone": "-04", "user_id": 2963400699, "username": "ccorderc", "name": "Carlos Hugo Cordero Carraffa", "place": "", "tweet": "Este graffiti cierra el debate acerca de si en Bolivia hubo golpe de Estado, la mentira del MIT, WP y la campaña internacional para lavar la cara a la dictadura de Morales pic.twitter.com/1tcNZoiZTJ", "mentions": [], "urls": [], "photos": ["https://pbs.twimg.com/media/ESbtv11XQAElseT.jpg"], "replies_count": 1, "retweets_count": 2, "likes_count": 8, "hashtags": [], "cashtags": [], "link": "https://twitter.com/CCorderC/status/1235937003528687616", "retweet": false, "quote_url": "", "video": 0, "near": "", "geo": "", "source": "", "user_rt_id": "", "user_rt": "", "retweet_id": "", "reply_to": [{"user_id": "2963400699", "username": "CCorderC"}], "retweet_date": "", "translate": "", "trans_src": "", "trans_dest": ""}
{"id": 1234648405512683522, "conversation_id": "1234648405512683522", "created_at": 1583198093000, "date": "2020-03-02", "time": "21:14:53", "timezone": "-04", "user_id": 2963400699, "username": "ccorderc", "name": "Carlos Hugo Cordero Carraffa", "place": "", "tweet": "Así es Andrés, eso se llama transferencia de votos. Si Chi no estuviera presente una encuesta reciente calculó que el 30% iría al MAS y 22 a Mesa, 18 a ninguno y 12 a Tuto. \n\nEsta noche en ATB a las 22.00, más detalles. https://twitter.com/AndrsGomezV/status/1234611720548646916 …", "mentions": [], "urls": ["https://twitter.com/AndrsGomezV/status/1234611720548646916"], "photos": [], "replies_count": 3, "retweets_count": 1, "likes_count": 4, "hashtags": [], "cashtags": [], "link": "https://twitter.com/CCorderC/status/1234648405512683522", "retweet": false, "quote_url": "https://twitter.com/AndrsGomezV/status/1234611720548646916", "video": 0, "near": "", "geo": "", "source": "", "user_rt_id": "", "user_rt": "", "retweet_id": "", "reply_to": [{"user_id": "2963400699", "username": "CCorderC"}], "retweet_date": "", "translate": "", "trans_src": "", "trans_dest": ""}
{"id": 1234434101073108994, "conversation_id": "1234434101073108994", "created_at": 1583146999000, "date": "2020-03-02", "time": "07:03:19", "timezone": "-04", "user_id": 2963400699, "username": "ccorderc", "name": "Carlos Hugo Cordero Carraffa", "place": "", "tweet": "El túnel de seguencoma, de subida y bajada,  ya está habilitado para la circulación. Una buena noticia para empezar la semana y para quienes se desplazan hacia y desde la zona sur de LP. 02 03 2020", "mentions": [], "urls": [], "photos": [], "replies_count": 1, "retweets_count": 0, "likes_count": 6, "hashtags": [], "cashtags": [], "link": "https://twitter.com/CCorderC/status/1234434101073108994", "retweet": false, "quote_url": "", "video": 0, "near": "", "geo": "", "source": "", "user_rt_id": "", "user_rt": "", "retweet_id": "", "reply_to": [{"user_id": "2963400699", "username": "CCorderC"}], "retweet_date": "", "translate": "", "trans_src": "", "trans_dest": ""}
{"id": 1233369612525473793, "conversation_id": "1233369612525473793", "created_at": 1582893205000, "date": "2020-02-28", "time": "08:33:25", "timezone": "-04", "user_id": 2963400699, "username": "ccorderc", "name": "Carlos Hugo Cordero Carraffa", "place": "", "tweet": "Gabinete ministerial aprueba decreto que prohíbe uso de bienes del Estado en campaña electoral\n\nEl problema también es de los servidores públicos, ministros y representantes nacionales. Hacen campaña en horario de trabajo y con recursos públicos. \n\n¿Nombres? \n\nOscar Ortíz..\n ....", "mentions": [], "urls": [], "photos": [], "replies_count": 5, "retweets_count": 2, "likes_count": 15, "hashtags": [], "cashtags": [], "link": "https://twitter.com/CCorderC/status/1233369612525473793", "retweet": false, "quote_url": "", "video": 0, "near": "", "geo": "", "source": "", "user_rt_id": "", "user_rt": "", "retweet_id": "", "reply_to": [{"user_id": "2963400699", "username": "CCorderC"}], "retweet_date": "", "translate": "", "trans_src": "", "trans_dest": ""}
{"id": 1233260014447538176, "conversation_id": "1233260014447538176", "created_at": 1582867074000, "date": "2020-02-28", "time": "01:17:54", "timezone": "-04", "user_id": 2963400699, "username": "ccorderc", "name": "Carlos Hugo Cordero Carraffa", "place": "", "tweet": "Decreto: Añez  no  usará bienes del Estado  en campaña  https://www.paginasiete.bo/nacional/2020/2/28/decreto-anez-no-usara-bienes-del-estado-en-campana-248021.html …\nNo es solamente el uso de los bienes materiales del Edo en campaña.También los servidores públicos intervienen de manera no ética. Es el caso del ex candidato presidencial y senador Óscar Ortiz", "mentions": [], "urls": ["https://www.paginasiete.bo/nacional/2020/2/28/decreto-anez-no-usara-bienes-del-estado-en-campana-248021.html"], "photos": [], "replies_count": 2, "retweets_count": 1, "likes_count": 12, "hashtags": [], "cashtags": [], "link": "https://twitter.com/CCorderC/status/1233260014447538176", "retweet": false, "quote_url": "", "video": 0, "near": "", "geo": "", "source": "", "user_rt_id": "", "user_rt": "", "retweet_id": "", "reply_to": [{"user_id": "2963400699", "username": "CCorderC"}], "retweet_date": "", "translate": "", "trans_src": "", "trans_dest": ""}
{"id": 1233134892856356875, "conversation_id": "1232751156897681408", "created_at": 1582837243000, "date": "2020-02-27", "time": "17:00:43", "timezone": "-04", "user_id": 2963400699, "username": "ccorderc", "name": "Carlos Hugo Cordero Carraffa", "place": "", "tweet": "Claro que sí. Mi telefono: 715 47935", "mentions": ["marielrod"], "urls": [], "photos": [], "replies_count": 0, "retweets_count": 0, "likes_count": 0, "hashtags": [], "cashtags": [], "link": "https://twitter.com/CCorderC/status/1233134892856356875", "retweet": false, "quote_url": "", "video": 0, "near": "", "geo": "", "source": "", "user_rt_id": "", "user_rt": "", "retweet_id": "", "reply_to": [{"user_id": "2963400699", "username": "CCorderC"}, {"user_id": "68125065", "username": "MARIELROD"}], "retweet_date": "", "translate": "", "trans_src": "", "trans_dest": ""}
{"id": 1231000950178971650, "conversation_id": "1231000950178971650", "created_at": 1582328472000, "date": "2020-02-21", "time": "19:41:12", "timezone": "-04", "user_id": 2963400699, "username": "ccorderc", "name": "Carlos Hugo Cordero Carraffa", "place": "", "tweet": "Es inaceptable e intolerable la soberbia del dictador Maduro quien ha envilecido a Venezuela. Por comentarios similares E. Morales fue expulsado del gobierno. Solidaridad con el pueblo venezolano. Fuera la dictadura chavista y elecciones libres YA!!! https://twitter.com/CNNEE/status/1230827021531598848 …", "mentions": [], "urls": ["https://twitter.com/CNNEE/status/1230827021531598848"], "photos": [], "replies_count": 0, "retweets_count": 0, "likes_count": 4, "hashtags": [], "cashtags": [], "link": "https://twitter.com/CCorderC/status/1231000950178971650", "retweet": false, "quote_url": "https://twitter.com/CNNEE/status/1230827021531598848", "video": 0, "near": "", "geo": "", "source": "", "user_rt_id": "", "user_rt": "", "retweet_id": "", "reply_to": [{"user_id": "2963400699", "username": "CCorderC"}], "retweet_date": "", "translate": "", "trans_src": "", "trans_dest": ""}
{"id": 1223026442654699520, "conversation_id": "1223026442654699520", "created_at": 1580427201000, "date": "2020-01-30", "time": "19:33:21", "timezone": "-04", "user_id": 2963400699, "username": "ccorderc", "name": "Carlos Hugo Cordero Carraffa", "place": "", "tweet": "Cierto fue reelecto en 1964, fue presidente y candidato gracias a la REFORMA de la CPE 1961. Asumió en agosto y un golpe de Estado en noviembre del 64 lo exilió en Lima. El vice de la época, Gral. René Barrientos, sostuvo que Paz y el MNR habían corrompido la democracia. https://twitter.com/asaoyvino/status/1222680749868048384 …", "mentions": [], "urls": ["https://twitter.com/asaoyvino/status/1222680749868048384"], "photos": [], "replies_count": 1, "retweets_count": 0, "likes_count": 4, "hashtags": [], "cashtags": [], "link": "https://twitter.com/CCorderC/status/1223026442654699520", "retweet": false, "quote_url": "https://twitter.com/asaoyvino/status/1222680749868048384", "video": 0, "near": "", "geo": "", "source": "", "user_rt_id": "", "user_rt": "", "retweet_id": "", "reply_to": [{"user_id": "2963400699", "username": "CCorderC"}], "retweet_date": "", "translate": "", "trans_src": "", "trans_dest": ""}
{"id": 1217420767442493440, "conversation_id": "1217420767442493440", "created_at": 1579090704000, "date": "2020-01-15", "time": "08:18:24", "timezone": "-04", "user_id": 2963400699, "username": "ccorderc", "name": "Carlos Hugo Cordero Carraffa", "place": "", "tweet": "Conocí la obra de Miguel Alandia Pantoja desde la creación del Museo en 1994, en la Plaza Villarroel. También acoge los restos del Gral JJ Tórres, Juan Lechín y la obra de VH Barrenechea. Museo de la Revolución acogerá los restos de Alandia Pantoja https://www.paginasiete.bo/cultura/2020/1/15/museo-de-la-revolucion-acogera-los-restos-de-alandia-pantoja-243472.html …", "mentions": [], "urls": ["https://www.paginasiete.bo/cultura/2020/1/15/museo-de-la-revolucion-acogera-los-restos-de-alandia-pantoja-243472.html"], "photos": [], "replies_count": 0, "retweets_count": 0, "likes_count": 2, "hashtags": [], "cashtags": [], "link": "https://twitter.com/CCorderC/status/1217420767442493440", "retweet": false, "quote_url": "", "video": 0, "near": "", "geo": "", "source": "", "user_rt_id": "", "user_rt": "", "retweet_id": "", "reply_to": [{"user_id": "2963400699", "username": "CCorderC"}], "retweet_date": "", "translate": "", "trans_src": "", "trans_dest": ""}
{"id": 1205577206967218177, "conversation_id": "1205577206967218177", "created_at": 1576266979000, "date": "2019-12-13", "time": "15:56:19", "timezone": "-04", "user_id": 2963400699, "username": "ccorderc", "name": "Carlos Hugo Cordero Carraffa", "place": "", "tweet": "Eva Copa, joven alteña, presidenta de la Cámara de Senadores le dice a Morales, García Linera, Andrónico, Salvatierra, MAS, etc:\n\n- Entiendan, la presidenta soy yo. Déjenme gobernar por el bien de Bolivia. \n\nPor favor, entiendan, estamos viviendo un nuevo tiempo político", "mentions": [], "urls": [], "photos": [], "replies_count": 9, "retweets_count": 24, "likes_count": 110, "hashtags": [], "cashtags": [], "link": "https://twitter.com/CCorderC/status/1205577206967218177", "retweet": false, "quote_url": "", "video": 0, "near": "", "geo": "", "source": "", "user_rt_id": "", "user_rt": "", "retweet_id": "", "reply_to": [{"user_id": "2963400699", "username": "CCorderC"}], "retweet_date": "", "translate": "", "trans_src": "", "trans_dest": ""}
{"id": 1202358052315418624, "conversation_id": "1202358052315418624", "created_at": 1575499473000, "date": "2019-12-04", "time": "18:44:33", "timezone": "-04", "user_id": 2963400699, "username": "ccorderc", "name": "Carlos Hugo Cordero Carraffa", "place": "", "tweet": "Pocos resistieron al MAS y Morales desde el 2005; el desencanto comenzó con la reforma constitucional del 2009; la ilusión se hizo trizas con el Referéndum 2016. Finalmente, la rebeldía triunfó el 2019. Es tan pacífica la rebeldía boliviana que el dictador está sólo en el exilio. https://twitter.com/TonySempertegui/status/1201781386895605760 …", "mentions": [], "urls": ["https://twitter.com/TonySempertegui/status/1201781386895605760"], "photos": [], "replies_count": 0, "retweets_count": 10, "likes_count": 47, "hashtags": [], "cashtags": [], "link": "https://twitter.com/CCorderC/status/1202358052315418624", "retweet": false, "quote_url": "https://twitter.com/TonySempertegui/status/1201781386895605760", "video": 0, "near": "", "geo": "", "source": "", "user_rt_id": "", "user_rt": "", "retweet_id": "", "reply_to": [{"user_id": "2963400699", "username": "CCorderC"}], "retweet_date": "", "translate": "", "trans_src": "", "trans_dest": ""}
{"id": 1201684310799142912, "conversation_id": "1201684310799142912", "created_at": 1575338840000, "date": "2019-12-02", "time": "22:07:20", "timezone": "-04", "user_id": 2963400699, "username": "ccorderc", "name": "Carlos Hugo Cordero Carraffa", "place": "", "tweet": "M. Sivak, desprolijidad de contenidos, abundancia de mentiras y propaganda del Jefazo en el exilio, en entrevista con el exmandatario Morales. Ignorante. Es Comunidad Ciudadana, no Conciencia Ciudadana; ¿qué es harina de coca con piel?; ¿qué es la AFIP? https://www.pagina12.com.ar/234159-evo-morales-si-sirvo-mas-encarcelado-regreso-a-bolivia …", "mentions": [], "urls": ["https://www.pagina12.com.ar/234159-evo-morales-si-sirvo-mas-encarcelado-regreso-a-bolivia"], "photos": [], "replies_count": 1, "retweets_count": 4, "likes_count": 7, "hashtags": [], "cashtags": [], "link": "https://twitter.com/CCorderC/status/1201684310799142912", "retweet": false, "quote_url": "", "video": 0, "near": "", "geo": "", "source": "", "user_rt_id": "", "user_rt": "", "retweet_id": "", "reply_to": [{"user_id": "2963400699", "username": "CCorderC"}], "retweet_date": "", "translate": "", "trans_src": "", "trans_dest": ""}
{"id": 1200008077145231360, "conversation_id": "1200008077145231360", "created_at": 1574939195000, "date": "2019-11-28", "time": "07:06:35", "timezone": "-04", "user_id": 2963400699, "username": "ccorderc", "name": "Carlos Hugo Cordero Carraffa", "place": "", "tweet": "Ministro Jerjes, Ud, puede promover cualquier candidatura, desde el llano, en igualdad de condiciones con el resto de ciudadanos. La recomendación vale para el gob de la Presidenta Añez. Elecciones transparentes y sin utilizar los recursos del Estado para beneficiar candidaturas.", "mentions": [], "urls": [], "photos": [], "replies_count": 3, "retweets_count": 20, "likes_count": 92, "hashtags": [], "cashtags": [], "link": "https://twitter.com/CCorderC/status/1200008077145231360", "retweet": false, "quote_url": "", "video": 0, "near": "", "geo": "", "source": "", "user_rt_id": "", "user_rt": "", "retweet_id": "", "reply_to": [{"user_id": "2963400699", "username": "CCorderC"}], "retweet_date": "", "translate": "", "trans_src": "", "trans_dest": ""}
{"id": 1199870152696909824, "conversation_id": "1199870152696909824", "created_at": 1574906311000, "date": "2019-11-27", "time": "21:58:31", "timezone": "-04", "user_id": 2963400699, "username": "ccorderc", "name": "Carlos Hugo Cordero Carraffa", "place": "", "tweet": "Ministro Jerjes, no haga lo que criticamos tanto, no utilice los recursos del Estado para favorecer la candidatura de su amigo Camacho. Imparcialidad. Ud., es ministro de todos los bolivianos. https://www.paginasiete.bo/nacional/2019/11/27/justiniano-reconoce-que-llego-al-gabinete-como-aporte-civico-que-camacho-debe-ser-candidato-238694.html …", "mentions": [], "urls": ["https://www.paginasiete.bo/nacional/2019/11/27/justiniano-reconoce-que-llego-al-gabinete-como-aporte-civico-que-camacho-debe-ser-candidato-238694.html"], "photos": [], "replies_count": 8, "retweets_count": 10, "likes_count": 29, "hashtags": [], "cashtags": [], "link": "https://twitter.com/CCorderC/status/1199870152696909824", "retweet": false, "quote_url": "", "video": 0, "near": "", "geo": "", "source": "", "user_rt_id": "", "user_rt": "", "retweet_id": "", "reply_to": [{"user_id": "2963400699", "username": "CCorderC"}], "retweet_date": "", "translate": "", "trans_src": "", "trans_dest": ""}
{"id": 1199455324538847232, "conversation_id": "1199455324538847232", "created_at": 1574807408000, "date": "2019-11-26", "time": "18:30:08", "timezone": "-04", "user_id": 2963400699, "username": "ccorderc", "name": "Carlos Hugo Cordero Carraffa", "place": "", "tweet": "A todos los ciudadanos bolivianos : ANULACIÓN SENTENCIA 0084-2017 TCP BOLIVIA QUE HABILITÓ A EVO MORALES Y AGL  A LAS E 20 OCT - ¡Firma la petición!  http://chng.it/H2WSxbYQ  vía @ChangeFrance", "mentions": ["changefrance"], "urls": ["http://chng.it/H2WSxbYQ"], "photos": [], "replies_count": 0, "retweets_count": 0, "likes_count": 7, "hashtags": [], "cashtags": [], "link": "https://twitter.com/CCorderC/status/1199455324538847232", "retweet": false, "quote_url": "", "video": 0, "near": "", "geo": "", "source": "", "user_rt_id": "", "user_rt": "", "retweet_id": "", "reply_to": [{"user_id": "2963400699", "username": "CCorderC"}, {"user_id": "603139314", "username": "ChangeFrance"}], "retweet_date": "", "translate": "", "trans_src": "", "trans_dest": ""}
{"id": 1196490210072289280, "conversation_id": "1193996563057692672", "created_at": 1574100470000, "date": "2019-11-18", "time": "14:07:50", "timezone": "-04", "user_id": 2963400699, "username": "ccorderc", "name": "Carlos Hugo Cordero Carraffa", "place": "", "tweet": "Claro, mi n° 591 715 47935", "mentions": ["hagarciav"], "urls": [], "photos": [], "replies_count": 0, "retweets_count": 0, "likes_count": 0, "hashtags": [], "cashtags": [], "link": "https://twitter.com/CCorderC/status/1196490210072289280", "retweet": false, "quote_url": "", "video": 0, "near": "", "geo": "", "source": "", "user_rt_id": "", "user_rt": "", "retweet_id": "", "reply_to": [{"user_id": "2963400699", "username": "CCorderC"}, {"user_id": "96276851", "username": "hagarciav"}], "retweet_date": "", "translate": "", "trans_src": "", "trans_dest": ""}
{"id": 1194465223182303232, "conversation_id": "1193996563057692672", "created_at": 1573617675000, "date": "2019-11-13", "time": "00:01:15", "timezone": "-04", "user_id": 2963400699, "username": "ccorderc", "name": "Carlos Hugo Cordero Carraffa", "place": "", "tweet": "Con gusto", "mentions": ["hagarciav"], "urls": [], "photos": [], "replies_count": 0, "retweets_count": 0, "likes_count": 0, "hashtags": [], "cashtags": [], "link": "https://twitter.com/CCorderC/status/1194465223182303232", "retweet": false, "quote_url": "", "video": 0, "near": "", "geo": "", "source": "", "user_rt_id": "", "user_rt": "", "retweet_id": "", "reply_to": [{"user_id": "2963400699", "username": "CCorderC"}, {"user_id": "96276851", "username": "hagarciav"}], "retweet_date": "", "translate": "", "trans_src": "", "trans_dest": ""}
{"id": 1193673431205761025, "conversation_id": "1193673431205761025", "created_at": 1573428898000, "date": "2019-11-10", "time": "19:34:58", "timezone": "-04", "user_id": 2963400699, "username": "ccorderc", "name": "Carlos Hugo Cordero Carraffa", "place": "", "tweet": "Han comenzado las detenciones. Virginia Choque y Costas. ¿Quien sigue? ¿Los cívicos? ¿La oposición política? Antes de tirar la puerta Morales proclamó que hay un golpe de Estado en curso. El presidente electo de la Argentina repite que hay golpe. Estamos viviendo una patraña!!!!", "mentions": [], "urls": [], "photos": [], "replies_count": 5, "retweets_count": 7, "likes_count": 20, "hashtags": [], "cashtags": [], "link": "https://twitter.com/CCorderC/status/1193673431205761025", "retweet": false, "quote_url": "", "video": 0, "near": "", "geo": "", "source": "", "user_rt_id": "", "user_rt": "", "retweet_id": "", "reply_to": [{"user_id": "2963400699", "username": "CCorderC"}], "retweet_date": "", "translate": "", "trans_src": "", "trans_dest": ""}
{"id": 1193672422492389376, "conversation_id": "1193672422492389376", "created_at": 1573428657000, "date": "2019-11-10", "time": "19:30:57", "timezone": "-04", "user_id": 2963400699, "username": "ccorderc", "name": "Carlos Hugo Cordero Carraffa", "place": "", "tweet": "Hay saqueos, Morales ha proclamado que en Bolivia hay un golpe de Estado, la comunidad internacional le cree, la línea de sucesión se ha roto. La tormenta perfecta. ¿Nos gobierna el Gral Kaliman? Y encima llueve a cántaros. Mierda! https://twitter.com/almadetigre/status/1193671461506039809 …", "mentions": [], "urls": ["https://twitter.com/almadetigre/status/1193671461506039809"], "photos": [], "replies_count": 3, "retweets_count": 8, "likes_count": 12, "hashtags": [], "cashtags": [], "link": "https://twitter.com/CCorderC/status/1193672422492389376", "retweet": false, "quote_url": "https://twitter.com/almadetigre/status/1193671461506039809", "video": 0, "near": "", "geo": "", "source": "", "user_rt_id": "", "user_rt": "", "retweet_id": "", "reply_to": [{"user_id": "2963400699", "username": "CCorderC"}], "retweet_date": "", "translate": "", "trans_src": "", "trans_dest": ""}
{"id": 1193671842659209216, "conversation_id": "1193671842659209216", "created_at": 1573428519000, "date": "2019-11-10", "time": "19:28:39", "timezone": "-04", "user_id": 2963400699, "username": "ccorderc", "name": "Carlos Hugo Cordero Carraffa", "place": "", "tweet": "¿Exacto! Hay un vacío de poder. La línea de sucesión constitucional está en el limbo y hay una operación militar en curso. En los hechos, gobierna el Gral. Kaliman ¿Dónde está la renuncia de JR Quintana? https://twitter.com/m_ebrard/status/1193661335524925441 …", "mentions": [], "urls": ["https://twitter.com/m_ebrard/status/1193661335524925441"], "photos": [], "replies_count": 2, "retweets_count": 4, "likes_count": 8, "hashtags": [], "cashtags": [], "link": "https://twitter.com/CCorderC/status/1193671842659209216", "retweet": false, "quote_url": "https://twitter.com/m_ebrard/status/1193661335524925441", "video": 0, "near": "", "geo": "", "source": "", "user_rt_id": "", "user_rt": "", "retweet_id": "", "reply_to": [{"user_id": "2963400699", "username": "CCorderC"}], "retweet_date": "", "translate": "", "trans_src": "", "trans_dest": ""}
{"id": 1193669896275673094, "conversation_id": "1193669896275673094", "created_at": 1573428055000, "date": "2019-11-10", "time": "19:20:55", "timezone": "-04", "user_id": 2963400699, "username": "ccorderc", "name": "Carlos Hugo Cordero Carraffa", "place": "", "tweet": "¿Quien gobierna Bolivia? Renunció Morales-Linera-Salvatierra-Borda. Hemos escuchado a los renunciantes pero no hemos visto un sólo papel firmado. Hay vacío de poder. El Gral Kaliman es el único con autoridad legal ¡Cuidado! La línea de sucesión constitucional está en el limbo", "mentions": [], "urls": [], "photos": [], "replies_count": 3, "retweets_count": 15, "likes_count": 20, "hashtags": [], "cashtags": [], "link": "https://twitter.com/CCorderC/status/1193669896275673094", "retweet": false, "quote_url": "", "video": 0, "near": "", "geo": "", "source": "", "user_rt_id": "", "user_rt": "", "retweet_id": "", "reply_to": [{"user_id": "2963400699", "username": "CCorderC"}], "retweet_date": "", "translate": "", "trans_src": "", "trans_dest": ""}
{"id": 1192971440393465856, "conversation_id": "1192971436182425600", "created_at": 1573261530000, "date": "2019-11-08", "time": "21:05:30", "timezone": "-04", "user_id": 2963400699, "username": "ccorderc", "name": "Carlos Hugo Cordero Carraffa", "place": "", "tweet": "3. Convoque a un gran acuerdo para organizar un gobierno de transición a partir del 22/01/2020\n4. Que la Asamblea Legislativa designe un nuevo Órgano Electoral, nal y dptal\n5. Entregue el mando del Estado al gobierno transitorio, el 22 de enero.\n6. Bolivia, se lo agradecerá.", "mentions": [], "urls": [], "photos": [], "replies_count": 0, "retweets_count": 9, "likes_count": 27, "hashtags": [], "cashtags": [], "link": "https://twitter.com/CCorderC/status/1192971440393465856", "retweet": false, "quote_url": "", "video": 0, "near": "", "geo": "", "source": "", "user_rt_id": "", "user_rt": "", "retweet_id": "", "reply_to": [{"user_id": "2963400699", "username": "CCorderC"}], "retweet_date": "", "translate": "", "trans_src": "", "trans_dest": ""}
{"id": 1192971436182425600, "conversation_id": "1192971436182425600", "created_at": 1573261529000, "date": "2019-11-08", "time": "21:05:29", "timezone": "-04", "user_id": 2963400699, "username": "ccorderc", "name": "Carlos Hugo Cordero Carraffa", "place": "", "tweet": "Sr Morales y García L., tienen una última oportunidad para pacificar al país y evitar un baño de sangre:\n1. Ya no queda tiempo para el Informe de la OEA ni la ciudadanía aceptará una 2da vuelta electoral\n2. Convoque a elecciones generales y subnacionales para el próximo año", "mentions": [], "urls": [], "photos": [], "replies_count": 3, "retweets_count": 19, "likes_count": 59, "hashtags": [], "cashtags": [], "link": "https://twitter.com/CCorderC/status/1192971436182425600", "retweet": false, "quote_url": "", "video": 0, "near": "", "geo": "", "source": "", "user_rt_id": "", "user_rt": "", "retweet_id": "", "reply_to": [{"user_id": "2963400699", "username": "CCorderC"}], "retweet_date": "", "translate": "", "trans_src": "", "trans_dest": ""}
{"id": 1192616688136675328, "conversation_id": "1192616688136675328", "created_at": 1573176950000, "date": "2019-11-07", "time": "21:35:50", "timezone": "-04", "user_id": 2963400699, "username": "ccorderc", "name": "Carlos Hugo Cordero Carraffa", "place": "", "tweet": "TV UMSA, en Jaque Mate, conducido x Ximena Galarza, presentará las pruebas del fraude escandaloso en las elecciones octubre 2019. 21.30, 7 de nov. Profesores e investigadores UMSA socializan el informe que será entregado a OEA.", "mentions": [], "urls": [], "photos": [], "replies_count": 5, "retweets_count": 29, "likes_count": 86, "hashtags": [], "cashtags": [], "link": "https://twitter.com/CCorderC/status/1192616688136675328", "retweet": false, "quote_url": "", "video": 0, "near": "", "geo": "", "source": "", "user_rt_id": "", "user_rt": "", "retweet_id": "", "reply_to": [{"user_id": "2963400699", "username": "CCorderC"}], "retweet_date": "", "translate": "", "trans_src": "", "trans_dest": ""}
{"id": 1192430728904138752, "conversation_id": "1192430728904138752", "created_at": 1573132614000, "date": "2019-11-07", "time": "09:16:54", "timezone": "-04", "user_id": 2963400699, "username": "ccorderc", "name": "Carlos Hugo Cordero Carraffa", "place": "", "tweet": "Sr Morales y García Linera: convoquen de manera inmediata a una cumbre política, Bolivia está acercándose peligrosamente a un enfrentamiento destructivo. Un mediador imparcial, garantizará confianza, diálogo, plazos y características de los acuerdos para pacificar el país.", "mentions": [], "urls": [], "photos": [], "replies_count": 7, "retweets_count": 27, "likes_count": 59, "hashtags": [], "cashtags": [], "link": "https://twitter.com/CCorderC/status/1192430728904138752", "retweet": false, "quote_url": "", "video": 0, "near": "", "geo": "", "source": "", "user_rt_id": "", "user_rt": "", "retweet_id": "", "reply_to": [{"user_id": "2963400699", "username": "CCorderC"}], "retweet_date": "", "translate": "", "trans_src": "", "trans_dest": ""}
{"id": 1191783815401943041, "conversation_id": "1191354792385372161", "created_at": 1572978378000, "date": "2019-11-05", "time": "14:26:18", "timezone": "-04", "user_id": 2963400699, "username": "ccorderc", "name": "Carlos Hugo Cordero Carraffa", "place": "", "tweet": "Con gusto. 715 47935", "mentions": ["otorricelli"], "urls": [], "photos": [], "replies_count": 0, "retweets_count": 0, "likes_count": 0, "hashtags": [], "cashtags": [], "link": "https://twitter.com/CCorderC/status/1191783815401943041", "retweet": false, "quote_url": "", "video": 0, "near": "", "geo": "", "source": "", "user_rt_id": "", "user_rt": "", "retweet_id": "", "reply_to": [{"user_id": "2963400699", "username": "CCorderC"}, {"user_id": "121501701", "username": "otorricelli"}], "retweet_date": "", "translate": "", "trans_src": "", "trans_dest": ""}
{"id": 1191513335298187264, "conversation_id": "1191354792385372161", "created_at": 1572913891000, "date": "2019-11-04", "time": "20:31:31", "timezone": "-04", "user_id": 2963400699, "username": "ccorderc", "name": "Carlos Hugo Cordero Carraffa", "place": "", "tweet": "Claro, 71547935", "mentions": ["otorricelli"], "urls": [], "photos": [], "replies_count": 0, "retweets_count": 0, "likes_count": 0, "hashtags": [], "cashtags": [], "link": "https://twitter.com/CCorderC/status/1191513335298187264", "retweet": false, "quote_url": "", "video": 0, "near": "", "geo": "", "source": "", "user_rt_id": "", "user_rt": "", "retweet_id": "", "reply_to": [{"user_id": "2963400699", "username": "CCorderC"}, {"user_id": "121501701", "username": "otorricelli"}], "retweet_date": "", "translate": "", "trans_src": "", "trans_dest": ""}
{"id": 1190689602463514626, "conversation_id": "1190689602463514626", "created_at": 1572717497000, "date": "2019-11-02", "time": "13:58:17", "timezone": "-04", "user_id": 2963400699, "username": "ccorderc", "name": "Carlos Hugo Cordero Carraffa", "place": "", "tweet": "Sr Morales y Garcia L: Bolivia está convulsionada y la responsabilidad penal, política e histórica es de Uds. Convoque a una cumbre política para pactar ELECCIONES generales transparentes, con un nuevo OEP.\nEl tiempo se le acaba.", "mentions": [], "urls": [], "photos": [], "replies_count": 5, "retweets_count": 36, "likes_count": 127, "hashtags": [], "cashtags": [], "link": "https://twitter.com/CCorderC/status/1190689602463514626", "retweet": false, "quote_url": "", "video": 0, "near": "", "geo": "", "source": "", "user_rt_id": "", "user_rt": "", "retweet_id": "", "reply_to": [{"user_id": "2963400699", "username": "CCorderC"}], "retweet_date": "", "translate": "", "trans_src": "", "trans_dest": ""}
{"id": 1190058436618313728, "conversation_id": "1190058436618313728", "created_at": 1572567016000, "date": "2019-10-31", "time": "20:10:16", "timezone": "-04", "user_id": 2963400699, "username": "ccorderc", "name": "Carlos Hugo Cordero Carraffa", "place": "", "tweet": "Sr Morales y Garcia Linera: el tiempo se les escapa y el poder, también. Convoquen a nuevas elecciones, ya!!! El pueblo ya no quiere 2da Vuelta ni auditoría, demanda DEMOCRACIA!!!!", "mentions": [], "urls": [], "photos": [], "replies_count": 5, "retweets_count": 62, "likes_count": 172, "hashtags": [], "cashtags": [], "link": "https://twitter.com/CCorderC/status/1190058436618313728", "retweet": false, "quote_url": "", "video": 0, "near": "", "geo": "", "source": "", "user_rt_id": "", "user_rt": "", "retweet_id": "", "reply_to": [{"user_id": "2963400699", "username": "CCorderC"}], "retweet_date": "", "translate": "", "trans_src": "", "trans_dest": ""}
{"id": 1189514288454668288, "conversation_id": "1189514288454668288", "created_at": 1572437281000, "date": "2019-10-30", "time": "08:08:01", "timezone": "-04", "user_id": 2963400699, "username": "ccorderc", "name": "Carlos Hugo Cordero Carraffa", "place": "", "tweet": "La posibilidad de una 2da Vuelta Electoral, ya caducó. La auditoría, es sólo oxígeno a una descarada dictadura, que desconoció el R21F, violó la CPE e hizo fraude en octubre 2019. Lo único que se puede negociar son las reglas y candidaturas de las próximas elecciones generales.", "mentions": [], "urls": [], "photos": [], "replies_count": 19, "retweets_count": 112, "likes_count": 328, "hashtags": [], "cashtags": [], "link": "https://twitter.com/CCorderC/status/1189514288454668288", "retweet": false, "quote_url": "", "video": 0, "near": "", "geo": "", "source": "", "user_rt_id": "", "user_rt": "", "retweet_id": "", "reply_to": [{"user_id": "2963400699", "username": "CCorderC"}], "retweet_date": "", "translate": "", "trans_src": "", "trans_dest": ""}
{"id": 1188942904179548161, "conversation_id": "1188942904179548161", "created_at": 1572301052000, "date": "2019-10-28", "time": "18:17:32", "timezone": "-04", "user_id": 2963400699, "username": "ccorderc", "name": "Carlos Hugo Cordero Carraffa", "place": "", "tweet": "Ni por nota ni por plata, por la patria y contra la dictadura de Morales y Garcia. Mesa le habla a la multitud y le dice que están haciendo historia. https://twitter.com/pagina_siete/status/1188940273105199105 …", "mentions": [], "urls": ["https://twitter.com/pagina_siete/status/1188940273105199105"], "photos": [], "replies_count": 0, "retweets_count": 3, "likes_count": 14, "hashtags": [], "cashtags": [], "link": "https://twitter.com/CCorderC/status/1188942904179548161", "retweet": false, "quote_url": "https://twitter.com/pagina_siete/status/1188940273105199105", "video": 0, "near": "", "geo": "", "source": "", "user_rt_id": "", "user_rt": "", "retweet_id": "", "reply_to": [{"user_id": "2963400699", "username": "CCorderC"}], "retweet_date": "", "translate": "", "trans_src": "", "trans_dest": ""}
{"id": 1188869701100888065, "conversation_id": "1188869701100888065", "created_at": 1572283599000, "date": "2019-10-28", "time": "13:26:39", "timezone": "-04", "user_id": 2963400699, "username": "ccorderc", "name": "Carlos Hugo Cordero Carraffa", "place": "", "tweet": "Srs Morales y Garcia: la oferta de 2da vuelta electoral ya caducó; ahora la salida al fraude electoral es: Elecciones generales YA !!!\nNo demoren mucho, pues también va a caducar, el pueblo está emputado.", "mentions": [], "urls": [], "photos": [], "replies_count": 21, "retweets_count": 137, "likes_count": 424, "hashtags": [], "cashtags": [], "link": "https://twitter.com/CCorderC/status/1188869701100888065", "retweet": false, "quote_url": "", "video": 0, "near": "", "geo": "", "source": "", "user_rt_id": "", "user_rt": "", "retweet_id": "", "reply_to": [{"user_id": "2963400699", "username": "CCorderC"}], "retweet_date": "", "translate": "", "trans_src": "", "trans_dest": ""}
{"id": 1187898993885483008, "conversation_id": "1187898993885483008", "created_at": 1572052164000, "date": "2019-10-25", "time": "21:09:24", "timezone": "-04", "user_id": 2963400699, "username": "ccorderc", "name": "Carlos Hugo Cordero Carraffa", "place": "", "tweet": "Miles de paceños, desde casa, acompañan la movilización nacional en defensa de la democracia, con un sonoro cacerolazo, desde sus ventanas y balcones. \nDice: Bolivia se respeta.", "mentions": [], "urls": [], "photos": [], "replies_count": 7, "retweets_count": 34, "likes_count": 106, "hashtags": [], "cashtags": [], "link": "https://twitter.com/CCorderC/status/1187898993885483008", "retweet": false, "quote_url": "", "video": 0, "near": "", "geo": "", "source": "", "user_rt_id": "", "user_rt": "", "retweet_id": "", "reply_to": [{"user_id": "2963400699", "username": "CCorderC"}], "retweet_date": "", "translate": "", "trans_src": "", "trans_dest": ""}
{"id": 1187797821124165632, "conversation_id": "1187797821124165632", "created_at": 1572028043000, "date": "2019-10-25", "time": "14:27:23", "timezone": "-04", "user_id": 2963400699, "username": "ccorderc", "name": "Carlos Hugo Cordero Carraffa", "place": "", "tweet": "Ruta crítica, Sr Morales y García L:\n1. Acepta 2da Vuelta, salva mayoría legislativa y pierde la presidencia\n2. Rechaza 2V y el Pueblo le impondrá anulación de E Oct, pierde mayoría y presidencia\n3. Rechaza elecciones generales, pierde todo y serán echados a patadas del poder", "mentions": [], "urls": [], "photos": [], "replies_count": 11, "retweets_count": 32, "likes_count": 55, "hashtags": [], "cashtags": [], "link": "https://twitter.com/CCorderC/status/1187797821124165632", "retweet": false, "quote_url": "", "video": 0, "near": "", "geo": "", "source": "", "user_rt_id": "", "user_rt": "", "retweet_id": "", "reply_to": [{"user_id": "2963400699", "username": "CCorderC"}], "retweet_date": "", "translate": "", "trans_src": "", "trans_dest": ""}
{"id": 1187431197808431105, "conversation_id": "1187431197808431105", "created_at": 1571940633000, "date": "2019-10-24", "time": "14:10:33", "timezone": "-04", "user_id": 2963400699, "username": "ccorderc", "name": "Carlos Hugo Cordero Carraffa", "place": "", "tweet": "Esta es la prueba del voto sindical, voto comunitario o v. abierto. La violación del secreto del voto. Esto ocurre en las zonas rurales donde se impone la ley del sindicato o el autoritarismo del partido. 2da vuelta y elecciones transparentes, ya!!!! https://twitter.com/RadioLider97/status/1187092567428648960 …", "mentions": [], "urls": ["https://twitter.com/RadioLider97/status/1187092567428648960"], "photos": [], "replies_count": 3, "retweets_count": 10, "likes_count": 12, "hashtags": [], "cashtags": [], "link": "https://twitter.com/CCorderC/status/1187431197808431105", "retweet": false, "quote_url": "https://twitter.com/RadioLider97/status/1187092567428648960", "video": 0, "near": "", "geo": "", "source": "", "user_rt_id": "", "user_rt": "", "retweet_id": "", "reply_to": [{"user_id": "2963400699", "username": "CCorderC"}], "retweet_date": "", "translate": "", "trans_src": "", "trans_dest": ""}
{"id": 1186707052317609984, "conversation_id": "1186707052317609984", "created_at": 1571767983000, "date": "2019-10-22", "time": "14:13:03", "timezone": "-04", "user_id": 2963400699, "username": "ccorderc", "name": "Carlos Hugo Cordero Carraffa", "place": "", "tweet": "Sr Evo Morales y García Linera, el pueblo boliviano les dio la oportunidad de resolver ésta controversia mediante elecciones y de manera pacífica, pero Uds persisten en burlarse de la voluntad popular. Perdieron el 21F, el 20 Oct y la confianza del pueblo.", "mentions": [], "urls": [], "photos": [], "replies_count": 6, "retweets_count": 37, "likes_count": 125, "hashtags": [], "cashtags": [], "link": "https://twitter.com/CCorderC/status/1186707052317609984", "retweet": false, "quote_url": "", "video": 0, "near": "", "geo": "", "source": "", "user_rt_id": "", "user_rt": "", "retweet_id": "", "reply_to": [{"user_id": "2963400699", "username": "CCorderC"}], "retweet_date": "", "translate": "", "trans_src": "", "trans_dest": ""}
{"id": 1186385371938066432, "conversation_id": "1186385371938066432", "created_at": 1571691289000, "date": "2019-10-21", "time": "16:54:49", "timezone": "-04", "user_id": 2963400699, "username": "ccorderc", "name": "Carlos Hugo Cordero Carraffa", "place": "", "tweet": "Sr. Evo Morales y García Linera, perdieron la elección del 20 de  octubre. Les queda claro? No permitiremos que nuevamente viole la CPE y se burle del pueblo boliviano. Exigimos la realización de la 2da vuelta electoral el 15 de dic, 2019. ¡Respeto a la voluntad popular, carajo! pic.twitter.com/npjxRnkgx4", "mentions": [], "urls": [], "photos": ["https://pbs.twimg.com/media/EHbjM5gXYAAkfk1.jpg"], "replies_count": 2, "retweets_count": 16, "likes_count": 21, "hashtags": [], "cashtags": [], "link": "https://twitter.com/CCorderC/status/1186385371938066432", "retweet": false, "quote_url": "", "video": 0, "near": "", "geo": "", "source": "", "user_rt_id": "", "user_rt": "", "retweet_id": "", "reply_to": [{"user_id": "2963400699", "username": "CCorderC"}], "retweet_date": "", "translate": "", "trans_src": "", "trans_dest": ""}
