{"id": 1274739958385868809, "conversation_id": "1274739958385868809", "created_at": 1592756664000, "date": "2020-06-21", "time": "12:24:24", "timezone": "-04", "user_id": 2963400699, "username": "ccorderc", "name": "Carlos Hugo Cordero Carraffa", "place": "", "tweet": "Es cierto, es fácil ingresar y descargar los 6 tomos. Altamente recomendable. Ojalá podamos dialogar, debatir y compartir contenidos con los autores y trascender la levedad y banalidad de algunos chats y tuits. Pensar y estudiar nuestro país con cabeza propia https://twitter.com/joseperescajias/status/1274735627125342208 …", "mentions": [], "urls": ["https://twitter.com/joseperescajias/status/1274735627125342208"], "photos": [], "replies_count": 2, "retweets_count": 3, "likes_count": 5, "hashtags": [], "cashtags": [], "link": "https://twitter.com/CCorderC/status/1274739958385868809", "retweet": false, "quote_url": "https://twitter.com/joseperescajias/status/1274735627125342208", "video": 0, "near": "", "geo": "", "source": "", "user_rt_id": "", "user_rt": "", "retweet_id": "", "reply_to": [{"user_id": "2963400699", "username": "CCorderC"}], "retweet_date": "", "translate": "", "trans_src": "", "trans_dest": ""}
{"id": 1270373352213970947, "conversation_id": "1270373352213970947", "created_at": 1591715584000, "date": "2020-06-09", "time": "11:13:04", "timezone": "-04", "user_id": 2963400699, "username": "ccorderc", "name": "Carlos Hugo Cordero Carraffa", "place": "", "tweet": "Todo comenzó pq denuncié a @SDoriaMedina, con pruebas q hacía campaña electoral para él y @JeanineAnez durante la CUARENTENA. Uso y abuso del poder del dinero y d los recursos del Estado. Luego difamación, calumnias, amenazas. ¿Que sigue? ¿Golpes?", "mentions": ["sdoriamedina", "jeanineanez"], "urls": [], "photos": [], "replies_count": 67, "retweets_count": 70, "likes_count": 268, "hashtags": [], "cashtags": [], "link": "https://twitter.com/CCorderC/status/1270373352213970947", "retweet": false, "quote_url": "", "video": 0, "near": "", "geo": "", "source": "", "user_rt_id": "", "user_rt": "", "retweet_id": "", "reply_to": [{"user_id": "2963400699", "username": "CCorderC"}, {"user_id": "140648703", "username": "SDoriaMedina"}, {"user_id": "465570594", "username": "JeanineAnez"}], "retweet_date": "", "translate": "", "trans_src": "", "trans_dest": ""}
{"id": 1269271154264616960, "conversation_id": "1269271154264616960", "created_at": 1591452799000, "date": "2020-06-06", "time": "10:13:19", "timezone": "-04", "user_id": 2963400699, "username": "ccorderc", "name": "Carlos Hugo Cordero Carraffa", "place": "", "tweet": "@Jaimenavarrot cierto hice antesala @SDoriaMedina para q comentara mi libro sobre cautiverio Pdte A. Santa Cruz en Chile y no sabes el ridículo, NO leyó ni la ayuda memoria q le hice\nEscritores y artistas en toda época hacemos cultura y politicos que no leen cierran ministerios https://twitter.com/Jaimenavarrot/status/1268996576460124161 …", "mentions": ["jaimenavarrot", "sdoriamedina"], "urls": ["https://twitter.com/Jaimenavarrot/status/1268996576460124161"], "photos": [], "replies_count": 7, "retweets_count": 3, "likes_count": 13, "hashtags": [], "cashtags": [], "link": "https://twitter.com/CCorderC/status/1269271154264616960", "retweet": false, "quote_url": "https://twitter.com/Jaimenavarrot/status/1268996576460124161", "video": 0, "near": "", "geo": "", "source": "", "user_rt_id": "", "user_rt": "", "retweet_id": "", "reply_to": [{"user_id": "2963400699", "username": "CCorderC"}, {"user_id": "1195221150", "username": "Jaimenavarrot"}, {"user_id": "140648703", "username": "SDoriaMedina"}], "retweet_date": "", "translate": "", "trans_src": "", "trans_dest": ""}
{"id": 1268728060066619395, "conversation_id": "1268728060066619395", "created_at": 1591323316000, "date": "2020-06-04", "time": "22:15:16", "timezone": "-04", "user_id": 2963400699, "username": "ccorderc", "name": "Carlos Hugo Cordero Carraffa", "place": "", "tweet": "Ni duda cabe q prioridad de @OscarOrtizA @SDoriaMedina es la salud de sus empresas y el rendimiento de sus inversiones\nTemo q la próxima decisión d @JeanineAnez será cerrar bibliotecas para construir estacionamientos o vender hamburguesas\nEntre los 3 ¿leyeron 1 libro?", "mentions": ["oscarortiza", "sdoriamedina", "jeanineanez"], "urls": [], "photos": [], "replies_count": 137, "retweets_count": 122, "likes_count": 432, "hashtags": [], "cashtags": [], "link": "https://twitter.com/CCorderC/status/1268728060066619395", "retweet": false, "quote_url": "", "video": 0, "near": "", "geo": "", "source": "", "user_rt_id": "", "user_rt": "", "retweet_id": "", "reply_to": [{"user_id": "2963400699", "username": "CCorderC"}, {"user_id": "233929559", "username": "OscarOrtizA"}, {"user_id": "140648703", "username": "SDoriaMedina"}, {"user_id": "465570594", "username": "JeanineAnez"}], "retweet_date": "", "translate": "", "trans_src": "", "trans_dest": ""}
{"id": 1267608388952825857, "conversation_id": "1267608388952825857", "created_at": 1591056365000, "date": "2020-06-01", "time": "20:06:05", "timezone": "-04", "user_id": 2963400699, "username": "ccorderc", "name": "Carlos Hugo Cordero Carraffa", "place": "", "tweet": "Presidenta @JeanineAnez, es una vergüenza y falta de tino político que Ud., siendo Presidenta de todos los bolivianos, difunda propaganda electoral, de un partido político. Partido del cual Ud., es candidata. Es la muestra del uso y abuso del poder. https://twitter.com/JeanineAnez/status/1267601573368213505 …", "mentions": ["jeanineanez"], "urls": ["https://twitter.com/JeanineAnez/status/1267601573368213505"], "photos": [], "replies_count": 79, "retweets_count": 96, "likes_count": 401, "hashtags": [], "cashtags": [], "link": "https://twitter.com/CCorderC/status/1267608388952825857", "retweet": false, "quote_url": "https://twitter.com/JeanineAnez/status/1267601573368213505", "video": 0, "near": "", "geo": "", "source": "", "user_rt_id": "", "user_rt": "", "retweet_id": "", "reply_to": [{"user_id": "2963400699", "username": "CCorderC"}, {"user_id": "465570594", "username": "JeanineAnez"}], "retweet_date": "", "translate": "", "trans_src": "", "trans_dest": ""}
{"id": 1267586976930299905, "conversation_id": "1267586976930299905", "created_at": 1591051260000, "date": "2020-06-01", "time": "18:41:00", "timezone": "-04", "user_id": 2963400699, "username": "ccorderc", "name": "Carlos Hugo Cordero Carraffa", "place": "", "tweet": "Si acuerdo se confirma, habrá E2020 en septiembre. @JeanineAnez aún puede salvar su imagen, renuncie a candidatura y promueva E2020 transparentes, justas y sin ventajas para nadie\nBasta de uso y abuso de los recursos humanos y materiales del Estado en campaña", "mentions": ["jeanineanez"], "urls": [], "photos": [], "replies_count": 67, "retweets_count": 66, "likes_count": 389, "hashtags": [], "cashtags": [], "link": "https://twitter.com/CCorderC/status/1267586976930299905", "retweet": false, "quote_url": "", "video": 0, "near": "", "geo": "", "source": "", "user_rt_id": "", "user_rt": "", "retweet_id": "", "reply_to": [{"user_id": "2963400699", "username": "CCorderC"}, {"user_id": "465570594", "username": "JeanineAnez"}], "retweet_date": "", "translate": "", "trans_src": "", "trans_dest": ""}
{"id": 1267584906298896387, "conversation_id": "1267584906298896387", "created_at": 1591050766000, "date": "2020-06-01", "time": "18:32:46", "timezone": "-04", "user_id": 2963400699, "username": "ccorderc", "name": "Carlos Hugo Cordero Carraffa", "place": "", "tweet": "Campaña para modificar circunscripciones busca postergar E2020, maneja argumentos erróneos\nCirc uninom se definen x media poblacional dptal q resulta d dividir población dptal, Censo 2012, entre N° de circ uninom x dpto\nCirc se definen x med pob, agregan pob rural y urbana https://twitter.com/pagina_siete/status/1267441024860712960 …", "mentions": [], "urls": ["https://twitter.com/pagina_siete/status/1267441024860712960"], "photos": [], "replies_count": 6, "retweets_count": 7, "likes_count": 21, "hashtags": [], "cashtags": [], "link": "https://twitter.com/CCorderC/status/1267584906298896387", "retweet": false, "quote_url": "https://twitter.com/pagina_siete/status/1267441024860712960", "video": 0, "near": "", "geo": "", "source": "", "user_rt_id": "", "user_rt": "", "retweet_id": "", "reply_to": [{"user_id": "2963400699", "username": "CCorderC"}], "retweet_date": "", "translate": "", "trans_src": "", "trans_dest": ""}
{"id": 1266125043807006727, "conversation_id": "1266125043807006727", "created_at": 1590702708000, "date": "2020-05-28", "time": "17:51:48", "timezone": "-04", "user_id": 2963400699, "username": "ccorderc", "name": "Carlos Hugo Cordero Carraffa", "place": "", "tweet": "Con este motivo, la saludo y saludamos a Ud., cordialmente\n\nCarlos H. Cordero C.\nccordero@estudiosdemocraticos.org", "mentions": [], "urls": [], "photos": [], "replies_count": 0, "retweets_count": 1, "likes_count": 2, "hashtags": [], "cashtags": [], "link": "https://twitter.com/CCorderC/status/1266125043807006727", "retweet": false, "quote_url": "", "video": 0, "near": "", "geo": "", "source": "", "user_rt_id": "", "user_rt": "", "retweet_id": "", "reply_to": [{"user_id": "2963400699", "username": "CCorderC"}], "retweet_date": "", "translate": "", "trans_src": "", "trans_dest": ""}
{"id": 1266125023091326976, "conversation_id": "1266125023091326976", "created_at": 1590702703000, "date": "2020-05-28", "time": "17:51:43", "timezone": "-04", "user_id": 2963400699, "username": "ccorderc", "name": "Carlos Hugo Cordero Carraffa", "place": "", "tweet": "concentre su energía en pacificar el país, para enfrentar entre todos, la pandemia, generar condiciones para la reactivación económica, encarar la urgente reforma institucional. Lleve adelante unas elecciones transparentes, equitativas y justas.", "mentions": [], "urls": [], "photos": [], "replies_count": 1, "retweets_count": 6, "likes_count": 24, "hashtags": [], "cashtags": [], "link": "https://twitter.com/CCorderC/status/1266125023091326976", "retweet": false, "quote_url": "", "video": 0, "near": "", "geo": "", "source": "", "user_rt_id": "", "user_rt": "", "retweet_id": "", "reply_to": [{"user_id": "2963400699", "username": "CCorderC"}], "retweet_date": "", "translate": "", "trans_src": "", "trans_dest": ""}
{"id": 1266124946662723584, "conversation_id": "1266124946662723584", "created_at": 1590702685000, "date": "2020-05-28", "time": "17:51:25", "timezone": "-04", "user_id": 2963400699, "username": "ccorderc", "name": "Carlos Hugo Cordero Carraffa", "place": "", "tweet": "de su gobierno y de la democracia. \n\nBolivia, la democracia, los ciudadanos de bien y la historia sabrán agradecer éste gesto de valentía y desprendimiento. Usted, es Presidente de todos los bolivianos y bolivianas, no es vocera ni candidata de una parcialidad o frente político,", "mentions": [], "urls": [], "photos": [], "replies_count": 0, "retweets_count": 2, "likes_count": 5, "hashtags": [], "cashtags": [], "link": "https://twitter.com/CCorderC/status/1266124946662723584", "retweet": false, "quote_url": "", "video": 0, "near": "", "geo": "", "source": "", "user_rt_id": "", "user_rt": "", "retweet_id": "", "reply_to": [{"user_id": "2963400699", "username": "CCorderC"}], "retweet_date": "", "translate": "", "trans_src": "", "trans_dest": ""}
{"id": 1266124884205322241, "conversation_id": "1266124884205322241", "created_at": 1590702670000, "date": "2020-05-28", "time": "17:51:10", "timezone": "-04", "user_id": 2963400699, "username": "ccorderc", "name": "Carlos Hugo Cordero Carraffa", "place": "", "tweet": "transparencia y eficiencia a la crisis sanitaria hasta la celebración de las próximas elecciones. En las actuales circunstancias que vive el país, su candidatura está incentivando la conflictividad social y el resurgimiento del MAS como funesta fuerza desestabilizadora", "mentions": [], "urls": [], "photos": [], "replies_count": 0, "retweets_count": 2, "likes_count": 2, "hashtags": [], "cashtags": [], "link": "https://twitter.com/CCorderC/status/1266124884205322241", "retweet": false, "quote_url": "", "video": 0, "near": "", "geo": "", "source": "", "user_rt_id": "", "user_rt": "", "retweet_id": "", "reply_to": [{"user_id": "2963400699", "username": "CCorderC"}], "retweet_date": "", "translate": "", "trans_src": "", "trans_dest": ""}
{"id": 1266124805998366721, "conversation_id": "1266124805998366721", "created_at": 1590702651000, "date": "2020-05-28", "time": "17:50:51", "timezone": "-04", "user_id": 2963400699, "username": "ccorderc", "name": "Carlos Hugo Cordero Carraffa", "place": "", "tweet": "Así mismo, le recomendamos, respetuosamente, convoque a un diálogo que ojalá culmine con un acuerdo nacional que pacifique el país, como era su propósito antes de convertirse en candidata. Confiera con su renuncia y dedicación exclusiva a los problemas del Estado y Sociedad,", "mentions": [], "urls": [], "photos": [], "replies_count": 3, "retweets_count": 2, "likes_count": 5, "hashtags": [], "cashtags": [], "link": "https://twitter.com/CCorderC/status/1266124805998366721", "retweet": false, "quote_url": "", "video": 0, "near": "", "geo": "", "source": "", "user_rt_id": "", "user_rt": "", "retweet_id": "", "reply_to": [{"user_id": "2963400699", "username": "CCorderC"}], "retweet_date": "", "translate": "", "trans_src": "", "trans_dest": ""}
{"id": 1266124631800516608, "conversation_id": "1266124631800516608", "created_at": 1590702610000, "date": "2020-05-28", "time": "17:50:10", "timezone": "-04", "user_id": 2963400699, "username": "ccorderc", "name": "Carlos Hugo Cordero Carraffa", "place": "", "tweet": "política y la propia estabilidad democrática. Por esa razón, quien suscribe y suscribimos ésta carta pública, le pedimos que restituya la debida neutralidad del gobierno transitorio, renunciando a su candidatura presidencial en las próximas elecciones E2020.", "mentions": [], "urls": [], "photos": [], "replies_count": 0, "retweets_count": 2, "likes_count": 1, "hashtags": [], "cashtags": [], "link": "https://twitter.com/CCorderC/status/1266124631800516608", "retweet": false, "quote_url": "", "video": 0, "near": "", "geo": "", "source": "", "user_rt_id": "", "user_rt": "", "retweet_id": "", "reply_to": [{"user_id": "2963400699", "username": "CCorderC"}], "retweet_date": "", "translate": "", "trans_src": "", "trans_dest": ""}
{"id": 1266124606588555265, "conversation_id": "1266124606588555265", "created_at": 1590702604000, "date": "2020-05-28", "time": "17:50:04", "timezone": "-04", "user_id": 2963400699, "username": "ccorderc", "name": "Carlos Hugo Cordero Carraffa", "place": "", "tweet": "Decreto presidencial, variedades de cultivos transgénicos. La dirección que ha tomado su gobierno de privilegiar intereses político electorales no sólo está dañando su imagen o la legitimidad para ejercer el cargo, sino que está poniendo en riesgo todo el proceso de transición", "mentions": [], "urls": [], "photos": [], "replies_count": 0, "retweets_count": 2, "likes_count": 2, "hashtags": [], "cashtags": [], "link": "https://twitter.com/CCorderC/status/1266124606588555265", "retweet": false, "quote_url": "", "video": 0, "near": "", "geo": "", "source": "", "user_rt_id": "", "user_rt": "", "retweet_id": "", "reply_to": [{"user_id": "2963400699", "username": "CCorderC"}], "retweet_date": "", "translate": "", "trans_src": "", "trans_dest": ""}
{"id": 1266124565450809344, "conversation_id": "1266124565450809344", "created_at": 1590702594000, "date": "2020-05-28", "time": "17:49:54", "timezone": "-04", "user_id": 2963400699, "username": "ccorderc", "name": "Carlos Hugo Cordero Carraffa", "place": "", "tweet": "desorientación con la que se toman medidas, que exceden ampliamente las competencias de un gobierno transitorio, como la redefinición de la política exterior, la negociación secreta de contratos sobre recursos naturales o la cuestionada decisión de introducir por", "mentions": [], "urls": [], "photos": [], "replies_count": 0, "retweets_count": 2, "likes_count": 6, "hashtags": [], "cashtags": [], "link": "https://twitter.com/CCorderC/status/1266124565450809344", "retweet": false, "quote_url": "", "video": 0, "near": "", "geo": "", "source": "", "user_rt_id": "", "user_rt": "", "retweet_id": "", "reply_to": [{"user_id": "2963400699", "username": "CCorderC"}], "retweet_date": "", "translate": "", "trans_src": "", "trans_dest": ""}
{"id": 1266124506675974144, "conversation_id": "1266124506675974144", "created_at": 1590702580000, "date": "2020-05-28", "time": "17:49:40", "timezone": "-04", "user_id": 2963400699, "username": "ccorderc", "name": "Carlos Hugo Cordero Carraffa", "place": "", "tweet": "expresada en el Referéndum 2016, buscaron mecanismos judiciales para perpetuarse en el poder, candidatear indefinidamente y utilizar los recursos estatales en campaña. Bajo su gobierno, señora Presidente, los casos de corrupción, abuso de poder se multiplican y muestran la", "mentions": [], "urls": [], "photos": [], "replies_count": 0, "retweets_count": 2, "likes_count": 9, "hashtags": [], "cashtags": [], "link": "https://twitter.com/CCorderC/status/1266124506675974144", "retweet": false, "quote_url": "", "video": 0, "near": "", "geo": "", "source": "", "user_rt_id": "", "user_rt": "", "retweet_id": "", "reply_to": [{"user_id": "2963400699", "username": "CCorderC"}], "retweet_date": "", "translate": "", "trans_src": "", "trans_dest": ""}
{"id": 1266124329852506115, "conversation_id": "1266124329852506115", "created_at": 1590702538000, "date": "2020-05-28", "time": "17:48:58", "timezone": "-04", "user_id": 2963400699, "username": "ccorderc", "name": "Carlos Hugo Cordero Carraffa", "place": "", "tweet": "promueve su candidatura. Todos los recursos estatales y las prioridades de la gestión volvieron a subordinarse al servicio, esta vez, de su candidatura,como sucedió en el pasado reciente, con el gobierno de Morales y García Linera. Quienes desconociendo la voluntad popular", "mentions": [], "urls": [], "photos": [], "replies_count": 0, "retweets_count": 2, "likes_count": 5, "hashtags": [], "cashtags": [], "link": "https://twitter.com/CCorderC/status/1266124329852506115", "retweet": false, "quote_url": "", "video": 0, "near": "", "geo": "", "source": "", "user_rt_id": "", "user_rt": "", "retweet_id": "", "reply_to": [{"user_id": "2963400699", "username": "CCorderC"}], "retweet_date": "", "translate": "", "trans_src": "", "trans_dest": ""}
{"id": 1266124194875654151, "conversation_id": "1266124194875654151", "created_at": 1590702506000, "date": "2020-05-28", "time": "17:48:26", "timezone": "-04", "user_id": 2963400699, "username": "ccorderc", "name": "Carlos Hugo Cordero Carraffa", "place": "", "tweet": "a elecciones para el 3 de mayo de este año. Luego, sobrevino la emergencia sanitaria. En lugar de concentrarse en administrar eficientemente un gobierno de transición, usted decidió habilitarse como candidata, parcializando la gestión estatal a favor del partido político que", "mentions": [], "urls": [], "photos": [], "replies_count": 0, "retweets_count": 3, "likes_count": 8, "hashtags": [], "cashtags": [], "link": "https://twitter.com/CCorderC/status/1266124194875654151", "retweet": false, "quote_url": "", "video": 0, "near": "", "geo": "", "source": "", "user_rt_id": "", "user_rt": "", "retweet_id": "", "reply_to": [{"user_id": "2963400699", "username": "CCorderC"}], "retweet_date": "", "translate": "", "trans_src": "", "trans_dest": ""}
{"id": 1266123991292485632, "conversation_id": "1266123991292485632", "created_at": 1590702457000, "date": "2020-05-28", "time": "17:47:37", "timezone": "-04", "user_id": 2963400699, "username": "ccorderc", "name": "Carlos Hugo Cordero Carraffa", "place": "", "tweet": "fracasadas en el mundo y en Bolivia. Valoramos los esfuerzos que hizo su gobierno para desmontar la violenta resistencia que opuso el régimen depuesto y los acuerdos a los que llegó con la mayoría parlamentaria del MAS para la recomposición del Órgano Electoral y la convocatoria", "mentions": [], "urls": [], "photos": [], "replies_count": 1, "retweets_count": 3, "likes_count": 7, "hashtags": [], "cashtags": [], "link": "https://twitter.com/CCorderC/status/1266123991292485632", "retweet": false, "quote_url": "", "video": 0, "near": "", "geo": "", "source": "", "user_rt_id": "", "user_rt": "", "retweet_id": "", "reply_to": [{"user_id": "2963400699", "username": "CCorderC"}], "retweet_date": "", "translate": "", "trans_src": "", "trans_dest": ""}
{"id": 1266123785960411142, "conversation_id": "1266123785960411142", "created_at": 1590702408000, "date": "2020-05-28", "time": "17:46:48", "timezone": "-04", "user_id": 2963400699, "username": "ccorderc", "name": "Carlos Hugo Cordero Carraffa", "place": "", "tweet": "con su gobierno que debe gestionar un Estado, usted lo vive a diario, desmantelado y en crisis, manejado durante 14 años por un gobierno corrupto, que utilizó equivocadamente los recursos humanos y materiales del país para intentar instalar ideologías y políticas públicas,", "mentions": [], "urls": [], "photos": [], "replies_count": 1, "retweets_count": 2, "likes_count": 4, "hashtags": [], "cashtags": [], "link": "https://twitter.com/CCorderC/status/1266123785960411142", "retweet": false, "quote_url": "", "video": 0, "near": "", "geo": "", "source": "", "user_rt_id": "", "user_rt": "", "retweet_id": "", "reply_to": [{"user_id": "2963400699", "username": "CCorderC"}], "retweet_date": "", "translate": "", "trans_src": "", "trans_dest": ""}
{"id": 1266123729140056070, "conversation_id": "1266123729140056070", "created_at": 1590702395000, "date": "2020-05-28", "time": "17:46:35", "timezone": "-04", "user_id": 2963400699, "username": "ccorderc", "name": "Carlos Hugo Cordero Carraffa", "place": "", "tweet": "para conformar un gran Acuerdo Nacional y llevar, de manera conjunta, el proceso electoral, concertar medidas necesarias para atender la crisis institucional y económica,establecer mecanismos de coordinación entre el gobierno nacional, gobernaciones y municipios. Para colaborar", "mentions": [], "urls": [], "photos": [], "replies_count": 0, "retweets_count": 2, "likes_count": 2, "hashtags": [], "cashtags": [], "link": "https://twitter.com/CCorderC/status/1266123729140056070", "retweet": false, "quote_url": "", "video": 0, "near": "", "geo": "", "source": "", "user_rt_id": "", "user_rt": "", "retweet_id": "", "reply_to": [{"user_id": "2963400699", "username": "CCorderC"}], "retweet_date": "", "translate": "", "trans_src": "", "trans_dest": ""}
{"id": 1266123585631944705, "conversation_id": "1266123585631944705", "created_at": 1590702360000, "date": "2020-05-28", "time": "17:46:00", "timezone": "-04", "user_id": 2963400699, "username": "ccorderc", "name": "Carlos Hugo Cordero Carraffa", "place": "", "tweet": "En las difíciles circunstancias en las que usted asumió la presidencia y ante la falta de apoyo legislativo, cuya mayoría política no ha cesado de hostilizarla, hubiese sido deseable que convoque a los principales actores sociales, económicos, institucionales y políticos del país", "mentions": [], "urls": [], "photos": [], "replies_count": 11, "retweets_count": 13, "likes_count": 53, "hashtags": [], "cashtags": [], "link": "https://twitter.com/CCorderC/status/1266123585631944705", "retweet": false, "quote_url": "", "video": 0, "near": "", "geo": "", "source": "", "user_rt_id": "", "user_rt": "", "retweet_id": "", "reply_to": [{"user_id": "2963400699", "username": "CCorderC"}], "retweet_date": "", "translate": "", "trans_src": "", "trans_dest": ""}
{"id": 1266123441675087873, "conversation_id": "1266123441675087873", "created_at": 1590702326000, "date": "2020-05-28", "time": "17:45:26", "timezone": "-04", "user_id": 2963400699, "username": "ccorderc", "name": "Carlos Hugo Cordero Carraffa", "place": "", "tweet": "la conformación del gobierno transitorio que usted preside, cuyas prioridades eran pacificar el país y convocar a nuevas elecciones.", "mentions": [], "urls": [], "photos": [], "replies_count": 0, "retweets_count": 1, "likes_count": 2, "hashtags": [], "cashtags": [], "link": "https://twitter.com/CCorderC/status/1266123441675087873", "retweet": false, "quote_url": "", "video": 0, "near": "", "geo": "", "source": "", "user_rt_id": "", "user_rt": "", "retweet_id": "", "reply_to": [{"user_id": "2963400699", "username": "CCorderC"}], "retweet_date": "", "translate": "", "trans_src": "", "trans_dest": ""}
{"id": 1266123275895058432, "conversation_id": "1266123275895058432", "created_at": 1590702287000, "date": "2020-05-28", "time": "17:44:47", "timezone": "-04", "user_id": 2963400699, "username": "ccorderc", "name": "Carlos Hugo Cordero Carraffa", "place": "", "tweet": "Los ciudadanos que durante años nos opusimos al autoritarismo y la corrupción del gobierno del MAS, que en las jornadas de octubre y noviembre de 2019 nos movilizamos masivamente en rechazo al fraude electoral, consiguiendo la renuncia de Evo Morales, vimos con mucha esperanza la", "mentions": [], "urls": [], "photos": [], "replies_count": 5, "retweets_count": 2, "likes_count": 11, "hashtags": [], "cashtags": [], "link": "https://twitter.com/CCorderC/status/1266123275895058432", "retweet": false, "quote_url": "", "video": 0, "near": "", "geo": "", "source": "", "user_rt_id": "", "user_rt": "", "retweet_id": "", "reply_to": [{"user_id": "2963400699", "username": "CCorderC"}], "retweet_date": "", "translate": "", "trans_src": "", "trans_dest": ""}
{"id": 1266123196815859717, "conversation_id": "1266123196815859717", "created_at": 1590702268000, "date": "2020-05-28", "time": "17:44:28", "timezone": "-04", "user_id": 2963400699, "username": "ccorderc", "name": "Carlos Hugo Cordero Carraffa", "place": "", "tweet": "Carta pública a la Presidente Jeanine Añez.\nSeñora\nJeanine Añez\nPresidente del Estado Plurinacional de Bolivia\nPresente. -\n\nSeñora Presidente:", "mentions": [], "urls": [], "photos": [], "replies_count": 1, "retweets_count": 0, "likes_count": 1, "hashtags": [], "cashtags": [], "link": "https://twitter.com/CCorderC/status/1266123196815859717", "retweet": false, "quote_url": "", "video": 0, "near": "", "geo": "", "source": "", "user_rt_id": "", "user_rt": "", "retweet_id": "", "reply_to": [{"user_id": "2963400699", "username": "CCorderC"}], "retweet_date": "", "translate": "", "trans_src": "", "trans_dest": ""}
{"id": 1266121138012372992, "conversation_id": "1266121138012372992", "created_at": 1590701777000, "date": "2020-05-28", "time": "17:36:17", "timezone": "-04", "user_id": 2963400699, "username": "ccorderc", "name": "Carlos Hugo Cordero Carraffa", "place": "", "tweet": "La renuncia a la candidatura en las elecciones  E2020 de la Presidenta Jeanine Añez. https://secure.avaaz.org/es/community_petitions/los_ciudadanos_y_electores_en_bolivia_y_en_33_pais_la_renuncia_a_la_candidatura_en_las_elecciones_e2020_de_la_presidenta_jeanine_anez/?wxBOJqb&utm_source=sharetools&utm_medium=twitter&utm_campaign=petition-1034687-la_renuncia_a_la_candidatura_en_las_elecciones_e2020_de_la_presidenta_jeanine_anez&utm_term=xBOJqb%2Bes …", "mentions": [], "urls": ["https://secure.avaaz.org/es/community_petitions/los_ciudadanos_y_electores_en_bolivia_y_en_33_pais_la_renuncia_a_la_candidatura_en_las_elecciones_e2020_de_la_presidenta_jeanine_anez/?wxBOJqb&utm_source=sharetools&utm_medium=twitter&utm_campaign=petition-1034687-la_renuncia_a_la_candidatura_en_las_elecciones_e2020_de_la_presidenta_jeanine_anez&utm_term=xBOJqb%2Bes"], "photos": [], "replies_count": 0, "retweets_count": 0, "likes_count": 1, "hashtags": [], "cashtags": [], "link": "https://twitter.com/CCorderC/status/1266121138012372992", "retweet": false, "quote_url": "", "video": 0, "near": "", "geo": "", "source": "", "user_rt_id": "", "user_rt": "", "retweet_id": "", "reply_to": [{"user_id": "2963400699", "username": "CCorderC"}], "retweet_date": "", "translate": "", "trans_src": "", "trans_dest": ""}
