{"id": 1276651988256776199, "conversation_id": "1276651988256776199", "created_at": 1593212527000, "date": "2020-06-26", "time": "19:02:07", "timezone": "-04", "user_id": 2963400699, "username": "ccorderc", "name": "Carlos Hugo Cordero Carraffa", "place": "", "tweet": "La engañan Pdta @JeanineAnez, los mismos q la adulan serán los primeros en abandonarla, los mismos q fracasaron en E2019 le hacen creer esa patraña de los empleos. Dinero del Estado para sus empresas, negocios e inversiones. ¿Entiende? ¿Y la reactivación de la economía estatal? https://twitter.com/JeanineAnez/status/1276629336033034241 …", "mentions": ["jeanineanez"], "urls": ["https://twitter.com/JeanineAnez/status/1276629336033034241"], "photos": [], "replies_count": 18, "retweets_count": 23, "likes_count": 88, "hashtags": [], "cashtags": [], "link": "https://twitter.com/CCorderC/status/1276651988256776199", "retweet": false, "quote_url": "https://twitter.com/JeanineAnez/status/1276629336033034241", "video": 0, "near": "", "geo": "", "source": "", "user_rt_id": "", "user_rt": "", "retweet_id": "", "reply_to": [{"user_id": "2963400699", "username": "CCorderC"}, {"user_id": "465570594", "username": "JeanineAnez"}], "retweet_date": "", "translate": "", "trans_src": "", "trans_dest": ""}
{"id": 1275589572391469062, "conversation_id": "1275589572391469062", "created_at": 1592959228000, "date": "2020-06-23", "time": "20:40:28", "timezone": "-04", "user_id": 2963400699, "username": "ccorderc", "name": "Carlos Hugo Cordero Carraffa", "place": "", "tweet": "@OscarOrtizA tuviste oportunidad como candidato a presidencia E2019 y fracasaste ESTREPITOSAMENTE. No ganaste ni en Sta Cruz. Eres ministro de un gobierno de TRANSICIÓN, no electivo ¿Entiendes? Los bolivianos queremos gobierno elegido democráticamente en Elec justas y equitativas https://twitter.com/OscarOrtizA/status/1275537935434162177 …", "mentions": ["oscarortiza"], "urls": ["https://twitter.com/OscarOrtizA/status/1275537935434162177"], "photos": [], "replies_count": 0, "retweets_count": 1, "likes_count": 3, "hashtags": [], "cashtags": [], "link": "https://twitter.com/CCorderC/status/1275589572391469062", "retweet": false, "quote_url": "https://twitter.com/OscarOrtizA/status/1275537935434162177", "video": 0, "near": "", "geo": "", "source": "", "user_rt_id": "", "user_rt": "", "retweet_id": "", "reply_to": [{"user_id": "2963400699", "username": "CCorderC"}, {"user_id": "233929559", "username": "OscarOrtizA"}], "retweet_date": "", "translate": "", "trans_src": "", "trans_dest": ""}
{"id": 1274739958385868809, "conversation_id": "1274739958385868809", "created_at": 1592756664000, "date": "2020-06-21", "time": "12:24:24", "timezone": "-04", "user_id": 2963400699, "username": "ccorderc", "name": "Carlos Hugo Cordero Carraffa", "place": "", "tweet": "Es cierto, es fácil ingresar y descargar los 6 tomos. Altamente recomendable. Ojalá podamos dialogar, debatir y compartir contenidos con los autores y trascender la levedad y banalidad de algunos chats y tuits. Pensar y estudiar nuestro país con cabeza propia https://twitter.com/joseperescajias/status/1274735627125342208 …", "mentions": [], "urls": ["https://twitter.com/joseperescajias/status/1274735627125342208"], "photos": [], "replies_count": 2, "retweets_count": 4, "likes_count": 13, "hashtags": [], "cashtags": [], "link": "https://twitter.com/CCorderC/status/1274739958385868809", "retweet": false, "quote_url": "https://twitter.com/joseperescajias/status/1274735627125342208", "video": 0, "near": "", "geo": "", "source": "", "user_rt_id": "", "user_rt": "", "retweet_id": "", "reply_to": [{"user_id": "2963400699", "username": "CCorderC"}], "retweet_date": "", "translate": "", "trans_src": "", "trans_dest": ""}
