{"id": 1264668778627043329, "conversation_id": "1264668778627043329", "created_at": 1590355507000, "date": "2020-05-24", "time": "17:25:07", "timezone": "-04", "user_id": 724695687515000832, "username": "evacopa_bol", "name": "Eva Copa", "place": "", "tweet": "Desmiento categóricamente que mi persona se hubiese acercado a implicados en hechos de corrupción. Emplazo al viceministro Melgar a demostrar con pruebas su afirmación, caso contrario asumiré las medidas pertinentes en busca de que esta infamia en mi contra sea sancionada. pic.twitter.com/6HPaHs7Eug", "mentions": [], "urls": [], "photos": ["https://pbs.twimg.com/media/EY0BjF9X0AEDCEo.jpg"], "replies_count": 234, "retweets_count": 201, "likes_count": 525, "hashtags": [], "cashtags": [], "link": "https://twitter.com/EvaCopa_Bol/status/1264668778627043329", "retweet": false, "quote_url": "", "video": 0, "near": "", "geo": "", "source": "", "user_rt_id": "", "user_rt": "", "retweet_id": "", "reply_to": [{"user_id": "724695687515000832", "username": "EvaCopa_Bol"}], "retweet_date": "", "translate": "", "trans_src": "", "trans_dest": ""}
{"id": 1263617859755872256, "conversation_id": "1263617859755872256", "created_at": 1590104949000, "date": "2020-05-21", "time": "19:49:09", "timezone": "-04", "user_id": 724695687515000832, "username": "evacopa_bol", "name": "Eva Copa", "place": "", "tweet": "Proponer ascensos a generales y almirantes de las FFAA es tuición de la Presidenta o Presidente del Estado, (Art. 172.19 CPE). \nLa Asamblea Legislativa Plurinacional de #Bolivia actuará siempre en estricto apego a la CPE, de ninguna manera bajo amenazas.  https://m.facebook.com/story.php?story_fbid=701486273949211&id=195933611171149 … pic.twitter.com/hmVoayYRy7", "mentions": [], "urls": ["https://m.facebook.com/story.php?story_fbid=701486273949211&id=195933611171149"], "photos": ["https://pbs.twimg.com/media/EYlFvDoWkAY-TDI.jpg", "https://pbs.twimg.com/media/EYlFveUXkAUE3vn.jpg"], "replies_count": 338, "retweets_count": 189, "likes_count": 707, "hashtags": ["#bolivia"], "cashtags": [], "link": "https://twitter.com/EvaCopa_Bol/status/1263617859755872256", "retweet": false, "quote_url": "", "video": 0, "near": "", "geo": "", "source": "", "user_rt_id": "", "user_rt": "", "retweet_id": "", "reply_to": [{"user_id": "724695687515000832", "username": "EvaCopa_Bol"}], "retweet_date": "", "translate": "", "trans_src": "", "trans_dest": ""}
{"id": 1263469364344500227, "conversation_id": "1263469364344500227", "created_at": 1590069545000, "date": "2020-05-21", "time": "09:59:05", "timezone": "-04", "user_id": 724695687515000832, "username": "evacopa_bol", "name": "Eva Copa", "place": "", "tweet": "De consumarse el hecho de efectuar ascensos a generales de las #FFAA utilizando alguna maniobra jurídica (Decreto sin ratificación del Senado) se pondrá en evidencia que este Gobierno es de Facto, hostil al sistema democrático en #Bolivia y con acciones propias de una dictadura. pic.twitter.com/JfeyYZAYQw", "mentions": [], "urls": [], "photos": ["https://pbs.twimg.com/media/EYi-rm_XgAM13OU.jpg"], "replies_count": 674, "retweets_count": 386, "likes_count": 993, "hashtags": ["#ffaa", "#bolivia"], "cashtags": [], "link": "https://twitter.com/EvaCopa_Bol/status/1263469364344500227", "retweet": false, "quote_url": "", "video": 0, "near": "", "geo": "", "source": "", "user_rt_id": "", "user_rt": "", "retweet_id": "", "reply_to": [{"user_id": "724695687515000832", "username": "EvaCopa_Bol"}], "retweet_date": "", "translate": "", "trans_src": "", "trans_dest": ""}
{"id": 1260220975456620555, "conversation_id": "1260220975456620555", "created_at": 1589295068000, "date": "2020-05-12", "time": "10:51:08", "timezone": "-04", "user_id": 724695687515000832, "username": "evacopa_bol", "name": "Eva Copa", "place": "", "tweet": "Día Internacional de la Enfermera 👩🏻‍⚕️\n\nMi homenaje a los y las enfermeras de #Bolivia que, en esta emergencia sanitaria, están en la primera línea de combate frente al coronavirus. Gracias por proteger siempre la salud de los bolivianos. 🇧🇴\n#QuédateEnCasa\n#PrimeroLaVida\n#ElAlto pic.twitter.com/IOS7Dc3XZR", "mentions": [], "urls": [], "photos": ["https://pbs.twimg.com/media/EX00S14XkAEYuNU.jpg"], "replies_count": 97, "retweets_count": 17, "likes_count": 145, "hashtags": ["#bolivia", "#quédateencasa", "#primerolavida", "#elalto"], "cashtags": [], "link": "https://twitter.com/EvaCopa_Bol/status/1260220975456620555", "retweet": false, "quote_url": "", "video": 0, "near": "", "geo": "", "source": "", "user_rt_id": "", "user_rt": "", "retweet_id": "", "reply_to": [{"user_id": "724695687515000832", "username": "EvaCopa_Bol"}], "retweet_date": "", "translate": "", "trans_src": "", "trans_dest": ""}
{"id": 1259519973782958080, "conversation_id": "1259519973782958080", "created_at": 1589127937000, "date": "2020-05-10", "time": "12:25:37", "timezone": "-04", "user_id": 724695687515000832, "username": "evacopa_bol", "name": "Eva Copa", "place": "", "tweet": "📻🎙️📹🗞️Día del Periodista Boliviano\n\nA quienes tienen esta enorme responsabilidad de ejercer el periodismo, nuestro reconocimiento y distinción por su compromiso profesional  y destacada labor en pro del desarrollo integral de #Bolivia.\nDesde #ElAlto un saludo a los periodistas. pic.twitter.com/0Vh5U5lqWw", "mentions": [], "urls": [], "photos": ["https://pbs.twimg.com/media/EXq2uyDWsAERR7c.jpg"], "replies_count": 52, "retweets_count": 8, "likes_count": 86, "hashtags": ["#bolivia", "#elalto"], "cashtags": [], "link": "https://twitter.com/EvaCopa_Bol/status/1259519973782958080", "retweet": false, "quote_url": "", "video": 0, "near": "", "geo": "", "source": "", "user_rt_id": "", "user_rt": "", "retweet_id": "", "reply_to": [{"user_id": "724695687515000832", "username": "EvaCopa_Bol"}], "retweet_date": "", "translate": "", "trans_src": "", "trans_dest": ""}
{"id": 1256243770875686914, "conversation_id": "1256243770875686914", "created_at": 1588346829000, "date": "2020-05-01", "time": "11:27:09", "timezone": "-04", "user_id": 724695687515000832, "username": "evacopa_bol", "name": "Eva Copa", "place": "", "tweet": "Rendimos homenaje a todos los trabajadores de #Bolivia que con su constancia y esfuerzo aportan día a día al desarrollo integral de nuestra Patria. Saludo a las hermanas y hermanos trabajadores, sigamos con la misma premisa de que del esfuerzo de hoy depende el futuro de todos. pic.twitter.com/ajRTPm16wa", "mentions": [], "urls": [], "photos": ["https://pbs.twimg.com/media/EW8SvaPWoAMk2Wc.jpg"], "replies_count": 376, "retweets_count": 46, "likes_count": 353, "hashtags": ["#bolivia"], "cashtags": [], "link": "https://twitter.com/EvaCopa_Bol/status/1256243770875686914", "retweet": false, "quote_url": "", "video": 0, "near": "", "geo": "", "source": "", "user_rt_id": "", "user_rt": "", "retweet_id": "", "reply_to": [{"user_id": "724695687515000832", "username": "EvaCopa_Bol"}], "retweet_date": "", "translate": "", "trans_src": "", "trans_dest": ""}
{"id": 1255513506943827970, "conversation_id": "1255513506943827970", "created_at": 1588172721000, "date": "2020-04-29", "time": "11:05:21", "timezone": "-04", "user_id": 724695687515000832, "username": "evacopa_bol", "name": "Eva Copa", "place": "", "tweet": "Nos llena de satisfacción el poder apoyar a nuestras hermanas y hermanos, #ElAlto está unida en esta emergencia sanitaria. Hoy llevamos víveres para las familias más humildes del Distrito 12, gracias a la gloriosa #Fejuve por la coordinación. \n\n#QuédateEnCasa\n#YoMeQuedoEnCasa pic.twitter.com/1eeKVgQ5F1", "mentions": [], "urls": [], "photos": ["https://pbs.twimg.com/media/EWx61VEXsAUc_W9.jpg", "https://pbs.twimg.com/media/EWx62OOXQAMsFWJ.jpg", "https://pbs.twimg.com/media/EWx63CGXQAM4E0t.jpg", "https://pbs.twimg.com/media/EWx632eXkAAZOUj.jpg"], "replies_count": 145, "retweets_count": 15, "likes_count": 134, "hashtags": ["#elalto", "#fejuve", "#quédateencasa", "#yomequedoencasa"], "cashtags": [], "link": "https://twitter.com/EvaCopa_Bol/status/1255513506943827970", "retweet": false, "quote_url": "", "video": 0, "near": "", "geo": "", "source": "", "user_rt_id": "", "user_rt": "", "retweet_id": "", "reply_to": [{"user_id": "724695687515000832", "username": "EvaCopa_Bol"}], "retweet_date": "", "translate": "", "trans_src": "", "trans_dest": ""}
{"id": 1255270044206075904, "conversation_id": "1255270044206075904", "created_at": 1588114674000, "date": "2020-04-28", "time": "18:57:54", "timezone": "-04", "user_id": 724695687515000832, "username": "evacopa_bol", "name": "Eva Copa", "place": "", "tweet": "Hoy nuestra acción solidaria llegó al Distrito rural 9 de nuestra ciudad de #ElAlto. Agradecer a la Federación Sindical de Comunidades Agrarias (Fesucarusu) por la coordinación para llegar a los hogares más humildes con nuestra ayuda. La solidaridad nos une. \n\n#QuedateEnCasa pic.twitter.com/8mC7cjtvKs", "mentions": [], "urls": [], "photos": ["https://pbs.twimg.com/media/EWuaSCMXsAEOnUB.jpg", "https://pbs.twimg.com/media/EWuaSCOXkAEXKWw.jpg", "https://pbs.twimg.com/media/EWuaSCjX0AQQh3U.jpg"], "replies_count": 39, "retweets_count": 10, "likes_count": 100, "hashtags": ["#elalto", "#quedateencasa"], "cashtags": [], "link": "https://twitter.com/EvaCopa_Bol/status/1255270044206075904", "retweet": false, "quote_url": "", "video": 0, "near": "", "geo": "", "source": "", "user_rt_id": "", "user_rt": "", "retweet_id": "", "reply_to": [{"user_id": "724695687515000832", "username": "EvaCopa_Bol"}], "retweet_date": "", "translate": "", "trans_src": "", "trans_dest": ""}
{"id": 1253427440090705920, "conversation_id": "1253427440090705920", "created_at": 1587675363000, "date": "2020-04-23", "time": "16:56:03", "timezone": "-04", "user_id": 724695687515000832, "username": "evacopa_bol", "name": "Eva Copa", "place": "", "tweet": "El valor de hombres y mujeres que están en primera línea combatiendo el #coronavirus es reconocido por todos, es a ellos a quienes se debe otorgar todas las medidas de bioseguridad. Mi solidaridad con la familia del Sgto. 1° Filomeno Choquehuanca, ejemplar policía.\n#QuédateEnCasa pic.twitter.com/le8GuD3oUw", "mentions": [], "urls": [], "photos": ["https://pbs.twimg.com/media/EWUQ6nzU0AAXXvg.jpg"], "replies_count": 184, "retweets_count": 10, "likes_count": 94, "hashtags": ["#coronavirus", "#quédateencasa"], "cashtags": [], "link": "https://twitter.com/EvaCopa_Bol/status/1253427440090705920", "retweet": false, "quote_url": "", "video": 0, "near": "", "geo": "", "source": "", "user_rt_id": "", "user_rt": "", "retweet_id": "", "reply_to": [{"user_id": "724695687515000832", "username": "EvaCopa_Bol"}], "retweet_date": "", "translate": "", "trans_src": "", "trans_dest": ""}
{"id": 1250415680056209408, "conversation_id": "1250415680056209408", "created_at": 1586957304000, "date": "2020-04-15", "time": "09:28:24", "timezone": "-04", "user_id": 724695687515000832, "username": "evacopa_bol", "name": "Eva Copa", "place": "", "tweet": "203 años de la Gesta Libertaria de #Tarija.\nHoy, con el ejemplo de los héroes de la Tablada y del ‘Moto’ Méndez, mira al futuro con el mismo amor por un país que crece gracias a sus manos generosas.\n\nFelicidades Tarija, desde la ciudad de #ElAlto te saludamos. \n\n#QuedateEnCasa pic.twitter.com/ljL51iKMEA", "mentions": [], "urls": [], "photos": ["https://pbs.twimg.com/media/EVpebfGUMAE0Vwk.jpg"], "replies_count": 71, "retweets_count": 8, "likes_count": 48, "hashtags": ["#tarija", "#elalto", "#quedateencasa"], "cashtags": [], "link": "https://twitter.com/EvaCopa_Bol/status/1250415680056209408", "retweet": false, "quote_url": "", "video": 0, "near": "", "geo": "", "source": "", "user_rt_id": "", "user_rt": "", "retweet_id": "", "reply_to": [{"user_id": "724695687515000832", "username": "EvaCopa_Bol"}], "retweet_date": "", "translate": "", "trans_src": "", "trans_dest": ""}
{"id": 1250116931400667138, "conversation_id": "1250116931400667138", "created_at": 1586886077000, "date": "2020-04-14", "time": "13:41:17", "timezone": "-04", "user_id": 724695687515000832, "username": "evacopa_bol", "name": "Eva Copa", "place": "", "tweet": "Es necesario que el Gobierno de transición realice una evaluación objetiva, científica y responsable de las condiciones actuales del período de cuarentena. Los protocolos de bioseguridad todavía son deficientes y urge optimizar la estrategia comunicacional para lo que se viene. pic.twitter.com/AvXXWJEKxn", "mentions": [], "urls": [], "photos": ["https://pbs.twimg.com/media/EVlOtueXsAMIJh5.jpg"], "replies_count": 248, "retweets_count": 22, "likes_count": 106, "hashtags": [], "cashtags": [], "link": "https://twitter.com/EvaCopa_Bol/status/1250116931400667138", "retweet": false, "quote_url": "", "video": 0, "near": "", "geo": "", "source": "", "user_rt_id": "", "user_rt": "", "retweet_id": "", "reply_to": [{"user_id": "724695687515000832", "username": "EvaCopa_Bol"}], "retweet_date": "", "translate": "", "trans_src": "", "trans_dest": ""}
{"id": 1249708612932505611, "conversation_id": "1249708612932505611", "created_at": 1586788726000, "date": "2020-04-13", "time": "10:38:46", "timezone": "-04", "user_id": 724695687515000832, "username": "evacopa_bol", "name": "Eva Copa", "place": "", "tweet": "Continuamos llevando apoyo solidario a las familias más humildes de nuestra ciudad de #ElAlto, hoy tocamos la puerta de los hogares de los Distritos 7 y 13 y avanzaremos sucesivamente, siempre tomando las medidas de bioseguridad. \n#QuedateEnCasa\n#YoMeQuedoEnCasa pic.twitter.com/U07U1nCrZQ", "mentions": [], "urls": [], "photos": ["https://pbs.twimg.com/media/EVfbVbIXgAEByca.jpg", "https://pbs.twimg.com/media/EVfbV7nXQAANAFk.jpg", "https://pbs.twimg.com/media/EVfbWZ9XQAEkacg.jpg", "https://pbs.twimg.com/media/EVfbWy-WAAAv5bx.jpg"], "replies_count": 179, "retweets_count": 19, "likes_count": 175, "hashtags": ["#elalto", "#quedateencasa", "#yomequedoencasa"], "cashtags": [], "link": "https://twitter.com/EvaCopa_Bol/status/1249708612932505611", "retweet": false, "quote_url": "", "video": 0, "near": "", "geo": "", "source": "", "user_rt_id": "", "user_rt": "", "retweet_id": "", "reply_to": [{"user_id": "724695687515000832", "username": "EvaCopa_Bol"}], "retweet_date": "", "translate": "", "trans_src": "", "trans_dest": ""}
{"id": 1249368417905360897, "conversation_id": "1249368417905360897", "created_at": 1586707617000, "date": "2020-04-12", "time": "12:06:57", "timezone": "-04", "user_id": 724695687515000832, "username": "evacopa_bol", "name": "Eva Copa", "place": "", "tweet": "Desde la ciudad de #ElAlto envío mi homenaje y felicitaciones a todas las niñas y niños bolivianos porque sus voces, alegría y esperanza son la melodía que rompe el amargo silencio de la cotidianidad.\n\n#QuédateEnCasa\n#YoMeQuedoEnCasa\n#Bolivia pic.twitter.com/YBPD8frZXw", "mentions": [], "urls": [], "photos": ["https://pbs.twimg.com/media/EValjzMWoAAk4HM.jpg"], "replies_count": 41, "retweets_count": 18, "likes_count": 146, "hashtags": ["#elalto", "#quédateencasa", "#yomequedoencasa", "#bolivia"], "cashtags": [], "link": "https://twitter.com/EvaCopa_Bol/status/1249368417905360897", "retweet": false, "quote_url": "", "video": 0, "near": "", "geo": "", "source": "", "user_rt_id": "", "user_rt": "", "retweet_id": "", "reply_to": [{"user_id": "724695687515000832", "username": "EvaCopa_Bol"}], "retweet_date": "", "translate": "", "trans_src": "", "trans_dest": ""}
{"id": 1247859184466616325, "conversation_id": "1247859184466616325", "created_at": 1586347788000, "date": "2020-04-08", "time": "08:09:48", "timezone": "-04", "user_id": 724695687515000832, "username": "evacopa_bol", "name": "Eva Copa", "place": "", "tweet": "Hoy llegamos hasta la Provincia Camacho, Municipio Puerto Acosta, Comunidad Sallacuchu con apoyo solidario para nuestros hermanos y hermanas. \n\nEstamos uniendo esfuerzos en esta emergencia sanitaria. \n\n#QuedateEnCasa #YoMeQuedoEnCasa\n#LaPaz #Bolivia pic.twitter.com/0xU2GowB0l", "mentions": [], "urls": [], "photos": ["https://pbs.twimg.com/media/EVFJPkBXQAAwQQd.jpg", "https://pbs.twimg.com/media/EVFJQlLX0AEtzfm.jpg", "https://pbs.twimg.com/media/EVFJRY7XsAAe-Qo.jpg", "https://pbs.twimg.com/media/EVFJSZsWAAMD33n.jpg"], "replies_count": 79, "retweets_count": 26, "likes_count": 204, "hashtags": ["#quedateencasa", "#yomequedoencasa", "#lapaz", "#bolivia"], "cashtags": [], "link": "https://twitter.com/EvaCopa_Bol/status/1247859184466616325", "retweet": false, "quote_url": "", "video": 0, "near": "", "geo": "", "source": "", "user_rt_id": "", "user_rt": "", "retweet_id": "", "reply_to": [{"user_id": "724695687515000832", "username": "EvaCopa_Bol"}], "retweet_date": "", "translate": "", "trans_src": "", "trans_dest": ""}
{"id": 1245811228838113289, "conversation_id": "1245811228838113289", "created_at": 1585859517000, "date": "2020-04-02", "time": "16:31:57", "timezone": "-04", "user_id": 724695687515000832, "username": "evacopa_bol", "name": "Eva Copa", "place": "", "tweet": "Las Redes Sociales son medios de comunicación que deben servirnos para informar y contribuir en nuestra lucha contra el COVID-19 y no para emitir contenidos negativos.\n\n https://www.facebook.com/EvaCopaBO/photos/a.195945991169911/667205707377268/?type=3&theater …\n\nUnamos esfuerzos contra el #coronavirus.\n\n#QuédateEnCasa #YoMeQuedoEnCasa", "mentions": [], "urls": ["https://www.facebook.com/EvaCopaBO/photos/a.195945991169911/667205707377268/?type=3&theater"], "photos": [], "replies_count": 228, "retweets_count": 29, "likes_count": 124, "hashtags": ["#coronavirus", "#quédateencasa", "#yomequedoencasa"], "cashtags": [], "link": "https://twitter.com/EvaCopa_Bol/status/1245811228838113289", "retweet": false, "quote_url": "", "video": 0, "near": "", "geo": "", "source": "", "user_rt_id": "", "user_rt": "", "retweet_id": "", "reply_to": [{"user_id": "724695687515000832", "username": "EvaCopa_Bol"}], "retweet_date": "", "translate": "", "trans_src": "", "trans_dest": ""}
{"id": 1244985313287647232, "conversation_id": "1244985313287647232", "created_at": 1585662604000, "date": "2020-03-31", "time": "09:50:04", "timezone": "-04", "user_id": 724695687515000832, "username": "evacopa_bol", "name": "Eva Copa", "place": "", "tweet": "No se les puede negar el derecho que tienen los bolivianos a retornar a su Patria, el Gobierno transitorio de #Bolivia debe autorizar la repatriación de nuestros compatriotas aplicando los protocolos sanitarios y bioseguridad necesarios.\n\nMI POSICIÓN:  https://bit.ly/2USCI1l ", "mentions": [], "urls": ["https://bit.ly/2USCI1l"], "photos": [], "replies_count": 61, "retweets_count": 36, "likes_count": 141, "hashtags": ["#bolivia"], "cashtags": [], "link": "https://twitter.com/EvaCopa_Bol/status/1244985313287647232", "retweet": false, "quote_url": "", "video": 0, "near": "", "geo": "", "source": "", "user_rt_id": "", "user_rt": "", "retweet_id": "", "reply_to": [{"user_id": "724695687515000832", "username": "EvaCopa_Bol"}], "retweet_date": "", "translate": "", "trans_src": "", "trans_dest": ""}
{"id": 1243530599421358080, "conversation_id": "1243530599421358080", "created_at": 1585315773000, "date": "2020-03-27", "time": "09:29:33", "timezone": "-04", "user_id": 724695687515000832, "username": "evacopa_bol", "name": "Eva Copa", "place": "", "tweet": "El pueblo es fuente de sabiduría, #Bolivia pone de manifiesto su unidad y fortaleza frente a un enemigo común: el coronavirus.\n\nUnamos esfuerzos contra el COVID-19, cuidémonos entre todos. La Salud es primero.\n\n#QuédateEnCasa | #YoMeQuedoEnCasa\n#ElAlto pic.twitter.com/pfvYMHXnHE", "mentions": [], "urls": [], "photos": [], "replies_count": 71, "retweets_count": 14, "likes_count": 86, "hashtags": ["#bolivia", "#quédateencasa", "#yomequedoencasa", "#elalto"], "cashtags": [], "link": "https://twitter.com/EvaCopa_Bol/status/1243530599421358080", "retweet": false, "quote_url": "", "video": 1, "near": "", "geo": "", "source": "", "user_rt_id": "", "user_rt": "", "retweet_id": "", "reply_to": [{"user_id": "724695687515000832", "username": "EvaCopa_Bol"}], "retweet_date": "", "translate": "", "trans_src": "", "trans_dest": ""}
{"id": 1242908831488847874, "conversation_id": "1242908831488847874", "created_at": 1585167532000, "date": "2020-03-25", "time": "16:18:52", "timezone": "-04", "user_id": 724695687515000832, "username": "evacopa_bol", "name": "Eva Copa", "place": "", "tweet": "Antes de asumir esa anunciada medida “más severa”, el Gobierno transitorio debe plantearle a #Bolivia una política pública integral que le dé certezas a las familias que viven de su trabajo diario.\n\nMI POSICIÓN:  https://bit.ly/39jLeeY \n#QuédateEnCasa\n#YoMeQuedoEnCasa\n#ElAlto pic.twitter.com/9MMoseG14e", "mentions": [], "urls": ["https://bit.ly/39jLeeY"], "photos": ["https://pbs.twimg.com/media/ET-ywq4WAAU4OEQ.jpg"], "replies_count": 227, "retweets_count": 38, "likes_count": 195, "hashtags": ["#bolivia", "#quédateencasa", "#yomequedoencasa", "#elalto"], "cashtags": [], "link": "https://twitter.com/EvaCopa_Bol/status/1242908831488847874", "retweet": false, "quote_url": "", "video": 0, "near": "", "geo": "", "source": "", "user_rt_id": "", "user_rt": "", "retweet_id": "", "reply_to": [{"user_id": "724695687515000832", "username": "EvaCopa_Bol"}], "retweet_date": "", "translate": "", "trans_src": "", "trans_dest": ""}
{"id": 1242190237260013570, "conversation_id": "1242190237260013570", "created_at": 1584996205000, "date": "2020-03-23", "time": "16:43:25", "timezone": "-04", "user_id": 724695687515000832, "username": "evacopa_bol", "name": "Eva Copa", "place": "", "tweet": "Unidos venceremos al virus, apelo a la responsabilidad y sensatez de mis vecinos de #ElAlto para permanecer en casa y contribuir a que la cuarentena tenga éxito. Hermanos/as acatemos las recomendaciones y disposiciones establecidas para prevenir el #coronavirus.\n#QuédateEnCasa 🇧🇴 pic.twitter.com/ljPuWWwRXt", "mentions": [], "urls": [], "photos": ["https://pbs.twimg.com/media/ET0kH8nXsAgJncc.jpg"], "replies_count": 158, "retweets_count": 26, "likes_count": 190, "hashtags": ["#elalto", "#coronavirus", "#quédateencasa"], "cashtags": [], "link": "https://twitter.com/EvaCopa_Bol/status/1242190237260013570", "retweet": false, "quote_url": "", "video": 0, "near": "", "geo": "", "source": "", "user_rt_id": "", "user_rt": "", "retweet_id": "", "reply_to": [{"user_id": "724695687515000832", "username": "EvaCopa_Bol"}], "retweet_date": "", "translate": "", "trans_src": "", "trans_dest": ""}
{"id": 1242182162088165378, "conversation_id": "1242182162088165378", "created_at": 1584994280000, "date": "2020-03-23", "time": "16:11:20", "timezone": "-04", "user_id": 724695687515000832, "username": "evacopa_bol", "name": "Eva Copa", "place": "", "tweet": "Nuestra salud y la de nuestras familias son prioridad, #Bolivia lucha para evitar la propagación del #coronavirus, por ello es que todos debemos cumplir la cuarentena con una actitud responsable y disciplinada. Unamos esfuerzos contra el COVID-19.\n #QuédateEnCasa #YoMeQuedoEnCasa pic.twitter.com/UIEYiS9m4n", "mentions": [], "urls": [], "photos": ["https://pbs.twimg.com/media/ET0b5O2X0AEIcVU.jpg"], "replies_count": 19, "retweets_count": 3, "likes_count": 39, "hashtags": ["#bolivia", "#coronavirus", "#quédateencasa", "#yomequedoencasa"], "cashtags": [], "link": "https://twitter.com/EvaCopa_Bol/status/1242182162088165378", "retweet": false, "quote_url": "", "video": 0, "near": "", "geo": "", "source": "", "user_rt_id": "", "user_rt": "", "retweet_id": "", "reply_to": [{"user_id": "724695687515000832", "username": "EvaCopa_Bol"}], "retweet_date": "", "translate": "", "trans_src": "", "trans_dest": ""}
{"id": 1242129671036248067, "conversation_id": "1242129671036248067", "created_at": 1584981765000, "date": "2020-03-23", "time": "12:42:45", "timezone": "-04", "user_id": 724695687515000832, "username": "evacopa_bol", "name": "Eva Copa", "place": "", "tweet": "#DíaDelMar 🇧🇴  |  Hoy todos los bolivianos reivindicamos nuestra constancia replicada a todos los confines de la tierra: “Viva #Bolivia hacia el mar”. | #ElAlto pic.twitter.com/21LUfMEH9a", "mentions": [], "urls": [], "photos": ["https://pbs.twimg.com/media/ETzuTvwWsAYPNLf.jpg"], "replies_count": 45, "retweets_count": 15, "likes_count": 91, "hashtags": ["#díadelmar", "#bolivia", "#elalto"], "cashtags": [], "link": "https://twitter.com/EvaCopa_Bol/status/1242129671036248067", "retweet": false, "quote_url": "", "video": 0, "near": "", "geo": "", "source": "", "user_rt_id": "", "user_rt": "", "retweet_id": "", "reply_to": [{"user_id": "724695687515000832", "username": "EvaCopa_Bol"}], "retweet_date": "", "translate": "", "trans_src": "", "trans_dest": ""}
{"id": 1241047301700935682, "conversation_id": "1241047301700935682", "created_at": 1584723708000, "date": "2020-03-20", "time": "13:01:48", "timezone": "-04", "user_id": 724695687515000832, "username": "evacopa_bol", "name": "Eva Copa", "place": "", "tweet": "Prevenir el #coronavirus es responsabilidad de todos los bolivianos 🇧🇴🚑\n\nUnamos esfuerzos contra el COVID-19 \n\n#QuédateEnCasa | #ManosLimpiasSalvanVidas\n#Bolivia | #ElAlto pic.twitter.com/toKoB9fxNi", "mentions": [], "urls": [], "photos": [], "replies_count": 269, "retweets_count": 24, "likes_count": 205, "hashtags": ["#coronavirus", "#quédateencasa", "#manoslimpiassalvanvidas", "#bolivia", "#elalto"], "cashtags": [], "link": "https://twitter.com/EvaCopa_Bol/status/1241047301700935682", "retweet": false, "quote_url": "", "video": 1, "near": "", "geo": "", "source": "", "user_rt_id": "", "user_rt": "", "retweet_id": "", "reply_to": [{"user_id": "724695687515000832", "username": "EvaCopa_Bol"}], "retweet_date": "", "translate": "", "trans_src": "", "trans_dest": ""}
{"id": 1240639952716730368, "conversation_id": "1240639952716730368", "created_at": 1584626589000, "date": "2020-03-19", "time": "10:03:09", "timezone": "-04", "user_id": 724695687515000832, "username": "evacopa_bol", "name": "Eva Copa", "place": "", "tweet": "En el Día del Padre, saludamos a todos nuestros hermanos valientes y trabajadores papás en #Bolivia entera y particularmente de la ciudad de #ElAlto. Gracias papás por transmitir sus virtudes, valores y principios a las nuevas generaciones. pic.twitter.com/IhV4R3BB79", "mentions": [], "urls": [], "photos": ["https://pbs.twimg.com/media/ETejLZiXQAQlJFF.jpg"], "replies_count": 22, "retweets_count": 4, "likes_count": 42, "hashtags": ["#bolivia", "#elalto"], "cashtags": [], "link": "https://twitter.com/EvaCopa_Bol/status/1240639952716730368", "retweet": false, "quote_url": "", "video": 0, "near": "", "geo": "", "source": "", "user_rt_id": "", "user_rt": "", "retweet_id": "", "reply_to": [{"user_id": "724695687515000832", "username": "EvaCopa_Bol"}], "retweet_date": "", "translate": "", "trans_src": "", "trans_dest": ""}
{"id": 1240263074445234178, "conversation_id": "1240263074445234178", "created_at": 1584536734000, "date": "2020-03-18", "time": "09:05:34", "timezone": "-04", "user_id": 724695687515000832, "username": "evacopa_bol", "name": "Eva Copa", "place": "", "tweet": "Tras ser aprobada por unanimidad, el Senado remitió a Diputados el proyecto de ‘Ley para la Prevención, Contención y Tratamiento de la infección por el #Coronavirus’ que declara de interés nacional las acciones y medidas necesarias para enfrentar el COVID-19 en #Bolivia | #ElAlto pic.twitter.com/H6GIwIbhxS", "mentions": [], "urls": [], "photos": ["https://pbs.twimg.com/media/ETZL2WnXYAAxkgd.jpg"], "replies_count": 35, "retweets_count": 7, "likes_count": 34, "hashtags": ["#coronavirus", "#bolivia", "#elalto"], "cashtags": [], "link": "https://twitter.com/EvaCopa_Bol/status/1240263074445234178", "retweet": false, "quote_url": "", "video": 0, "near": "", "geo": "", "source": "", "user_rt_id": "", "user_rt": "", "retweet_id": "", "reply_to": [{"user_id": "724695687515000832", "username": "EvaCopa_Bol"}], "retweet_date": "", "translate": "", "trans_src": "", "trans_dest": ""}
{"id": 1238513614971076608, "conversation_id": "1238513614971076608", "created_at": 1584119630000, "date": "2020-03-13", "time": "13:13:50", "timezone": "-04", "user_id": 724695687515000832, "username": "evacopa_bol", "name": "Eva Copa", "place": "", "tweet": "#Bolivia le hace frente al #coronavirus con unidad; en la ALP consensuamos una pausa política, las interpelaciones pautadas se reprograman para después del 31 de marzo y desde el Senado trabajamos en una Ley corta que viabilice la gestión de insumos y recursos para la prevención. pic.twitter.com/fMrqTRMyLL", "mentions": [], "urls": [], "photos": ["https://pbs.twimg.com/media/ETAVe9oX0AEqsnw.jpg"], "replies_count": 71, "retweets_count": 13, "likes_count": 75, "hashtags": ["#bolivia", "#coronavirus"], "cashtags": [], "link": "https://twitter.com/EvaCopa_Bol/status/1238513614971076608", "retweet": false, "quote_url": "", "video": 0, "near": "", "geo": "", "source": "", "user_rt_id": "", "user_rt": "", "retweet_id": "", "reply_to": [{"user_id": "724695687515000832", "username": "EvaCopa_Bol"}], "retweet_date": "", "translate": "", "trans_src": "", "trans_dest": ""}
{"id": 1238240780063571971, "conversation_id": "1238240780063571971", "created_at": 1584054582000, "date": "2020-03-12", "time": "19:09:42", "timezone": "-04", "user_id": 724695687515000832, "username": "evacopa_bol", "name": "Eva Copa", "place": "", "tweet": "El pueblo boliviano en su conjunto, con calma y responsabilidad, se une para evitar la propagación del #coronavirus (COVID-19). | #Bolivia #ElAlto pic.twitter.com/qy3RgEwUnJ", "mentions": [], "urls": [], "photos": [], "replies_count": 98, "retweets_count": 26, "likes_count": 98, "hashtags": ["#coronavirus", "#bolivia", "#elalto"], "cashtags": [], "link": "https://twitter.com/EvaCopa_Bol/status/1238240780063571971", "retweet": false, "quote_url": "", "video": 1, "near": "", "geo": "", "source": "", "user_rt_id": "", "user_rt": "", "retweet_id": "", "reply_to": [{"user_id": "724695687515000832", "username": "EvaCopa_Bol"}], "retweet_date": "", "translate": "", "trans_src": "", "trans_dest": ""}
{"id": 1237732750708400129, "conversation_id": "1237732750708400129", "created_at": 1583933458000, "date": "2020-03-11", "time": "09:30:58", "timezone": "-04", "user_id": 724695687515000832, "username": "evacopa_bol", "name": "Eva Copa", "place": "", "tweet": "#Coronavirus (covid-19) en #Bolivia, apliquemos todas las recomendaciones y protocolos para prevenir el contagio y evitemos entrar en especulaciones y alarmas colectivas. Sigamos información solo de fuentes oficiales, todos debemos contribuir a cuidar nuestra salud. | #ElAlto pic.twitter.com/ru4bkEH6Er", "mentions": [], "urls": [], "photos": ["https://pbs.twimg.com/media/ES1PXxLXYAE0Rx6.jpg"], "replies_count": 69, "retweets_count": 14, "likes_count": 77, "hashtags": ["#coronavirus", "#bolivia", "#elalto"], "cashtags": [], "link": "https://twitter.com/EvaCopa_Bol/status/1237732750708400129", "retweet": false, "quote_url": "", "video": 0, "near": "", "geo": "", "source": "", "user_rt_id": "", "user_rt": "", "retweet_id": "", "reply_to": [{"user_id": "724695687515000832", "username": "EvaCopa_Bol"}], "retweet_date": "", "translate": "", "trans_src": "", "trans_dest": ""}
{"id": 1237063370693660673, "conversation_id": "1237063370693660673", "created_at": 1583773865000, "date": "2020-03-09", "time": "13:11:05", "timezone": "-04", "user_id": 724695687515000832, "username": "evacopa_bol", "name": "Eva Copa", "place": "", "tweet": "Como vecina alteña, rechazo y denuncio la campaña de desprestigio contra la ciudad de #ElAlto promovida por el gobierno de transición y otros políticos de derecha. Reivindico la unidad, respeto y hospitalidad de mis hermanos alteños. \nEl Alto no declinará su pedido de Justicia. pic.twitter.com/k15npiniPY", "mentions": [], "urls": [], "photos": ["https://pbs.twimg.com/media/ESruNrqWsAE1PeA.jpg"], "replies_count": 493, "retweets_count": 78, "likes_count": 381, "hashtags": ["#elalto"], "cashtags": [], "link": "https://twitter.com/EvaCopa_Bol/status/1237063370693660673", "retweet": false, "quote_url": "", "video": 0, "near": "", "geo": "", "source": "", "user_rt_id": "", "user_rt": "", "retweet_id": "", "reply_to": [{"user_id": "724695687515000832", "username": "EvaCopa_Bol"}], "retweet_date": "", "translate": "", "trans_src": "", "trans_dest": ""}
{"id": 1237060765749776386, "conversation_id": "1237060765749776386", "created_at": 1583773244000, "date": "2020-03-09", "time": "13:00:44", "timezone": "-04", "user_id": 724695687515000832, "username": "evacopa_bol", "name": "Eva Copa", "place": "", "tweet": "La Asamblea Legislativa de Bolivia, en el marco de sus atribuciones y al no justificarse la ausencia del Ministro de Defensa, aprobó la censura por 2/3 de votos de los legisladores. Actuamos en apego a la CPE y, del mismo modo, esperamos que el gobierno transitorio respete la Ley pic.twitter.com/hJH5ecTWnk", "mentions": [], "urls": [], "photos": ["https://pbs.twimg.com/media/ESrrK_iWkAE0gy5.jpg"], "replies_count": 334, "retweets_count": 64, "likes_count": 221, "hashtags": [], "cashtags": [], "link": "https://twitter.com/EvaCopa_Bol/status/1237060765749776386", "retweet": false, "quote_url": "", "video": 0, "near": "", "geo": "", "source": "", "user_rt_id": "", "user_rt": "", "retweet_id": "", "reply_to": [{"user_id": "724695687515000832", "username": "EvaCopa_Bol"}], "retweet_date": "", "translate": "", "trans_src": "", "trans_dest": ""}
{"id": 1236657001595355142, "conversation_id": "1236657001595355142", "created_at": 1583676979000, "date": "2020-03-08", "time": "10:16:19", "timezone": "-04", "user_id": 724695687515000832, "username": "evacopa_bol", "name": "Eva Copa", "place": "", "tweet": "En el #DiaInternacionalDeLaMujer, mi saludo a la mujer boliviana digna, valiente y luchadora. | #Bolivia #ElAlto pic.twitter.com/v9nZngnK0a", "mentions": [], "urls": [], "photos": ["https://pbs.twimg.com/media/ESl8-5qWkAAIDu2.jpg"], "replies_count": 26, "retweets_count": 8, "likes_count": 67, "hashtags": ["#diainternacionaldelamujer", "#bolivia", "#elalto"], "cashtags": [], "link": "https://twitter.com/EvaCopa_Bol/status/1236657001595355142", "retweet": false, "quote_url": "", "video": 0, "near": "", "geo": "", "source": "", "user_rt_id": "", "user_rt": "", "retweet_id": "", "reply_to": [{"user_id": "724695687515000832", "username": "EvaCopa_Bol"}], "retweet_date": "", "translate": "", "trans_src": "", "trans_dest": ""}
{"id": 1236022626239340544, "conversation_id": "1236022626239340544", "created_at": 1583525732000, "date": "2020-03-06", "time": "16:15:32", "timezone": "-04", "user_id": 724695687515000832, "username": "evacopa_bol", "name": "Eva Copa", "place": "", "tweet": "#ElAlto: 35 años de pie, forjando esperanzas, sembrando amistad.\n\nJallalla ciudad de El Alto!!!\n\n\"El Alto de pie, nunca de rodillas\" pic.twitter.com/gFInCFERks", "mentions": [], "urls": [], "photos": [], "replies_count": 68, "retweets_count": 7, "likes_count": 63, "hashtags": ["#elalto"], "cashtags": [], "link": "https://twitter.com/EvaCopa_Bol/status/1236022626239340544", "retweet": false, "quote_url": "", "video": 1, "near": "", "geo": "", "source": "", "user_rt_id": "", "user_rt": "", "retweet_id": "", "reply_to": [{"user_id": "724695687515000832", "username": "EvaCopa_Bol"}], "retweet_date": "", "translate": "", "trans_src": "", "trans_dest": ""}
{"id": 1235931776595488769, "conversation_id": "1235931776595488769", "created_at": 1583504072000, "date": "2020-03-06", "time": "10:14:32", "timezone": "-04", "user_id": 724695687515000832, "username": "evacopa_bol", "name": "Eva Copa", "place": "", "tweet": "En el auditorio de la radio San Gabriel hacemos entrega de Declaraciones Camarales y Distinciones a instituciones y personalidades de la ciudad de #ElAlto, en el marco del XXXV Aniversario de nuestra valiente ciudad. | #Bolivia pic.twitter.com/u5HVgoVqRp", "mentions": [], "urls": [], "photos": ["https://pbs.twimg.com/media/ESbpYQ6XQAIeMnf.jpg", "https://pbs.twimg.com/media/ESbpZDKWAAYN4LI.jpg"], "replies_count": 13, "retweets_count": 4, "likes_count": 24, "hashtags": ["#elalto", "#bolivia"], "cashtags": [], "link": "https://twitter.com/EvaCopa_Bol/status/1235931776595488769", "retweet": false, "quote_url": "", "video": 0, "near": "", "geo": "", "source": "", "user_rt_id": "", "user_rt": "", "retweet_id": "", "reply_to": [{"user_id": "724695687515000832", "username": "EvaCopa_Bol"}], "retweet_date": "", "translate": "", "trans_src": "", "trans_dest": ""}
{"id": 1235909849411719170, "conversation_id": "1235909849411719170", "created_at": 1583498844000, "date": "2020-03-06", "time": "08:47:24", "timezone": "-04", "user_id": 724695687515000832, "username": "evacopa_bol", "name": "Eva Copa", "place": "", "tweet": "En tu trigésimo quinto aniversario, la Asamblea Legislativa Plurinacional de #Bolivia te saluda.\n\nJallalla ciudad de #ElAlto pic.twitter.com/BfmmQW22LS", "mentions": [], "urls": [], "photos": ["https://pbs.twimg.com/media/ESbU0SAXcAAj1Ek.jpg"], "replies_count": 38, "retweets_count": 7, "likes_count": 55, "hashtags": ["#bolivia", "#elalto"], "cashtags": [], "link": "https://twitter.com/EvaCopa_Bol/status/1235909849411719170", "retweet": false, "quote_url": "", "video": 0, "near": "", "geo": "", "source": "", "user_rt_id": "", "user_rt": "", "retweet_id": "", "reply_to": [{"user_id": "724695687515000832", "username": "EvaCopa_Bol"}], "retweet_date": "", "translate": "", "trans_src": "", "trans_dest": ""}
{"id": 1235703253792436224, "conversation_id": "1235703253792436224", "created_at": 1583449588000, "date": "2020-03-05", "time": "19:06:28", "timezone": "-04", "user_id": 724695687515000832, "username": "evacopa_bol", "name": "Eva Copa", "place": "", "tweet": "Reprocho el accionar de la policía, lamento que algunos grupos que buscan obstaculizar la investigación sobre hechos de #Senkata pretendieran empañar actos por la efeméride de #ElAlto. Pese a ello no claudicaremos en nuestro pedido de Justicia para víctimas. #SenkataNoSeOlvida pic.twitter.com/q0eAsjnoTw", "mentions": [], "urls": [], "photos": ["https://pbs.twimg.com/media/ESYZJ7GWkAUbAjU.jpg", "https://pbs.twimg.com/media/ESYZJ7JXkAAoFq3.jpg"], "replies_count": 536, "retweets_count": 33, "likes_count": 167, "hashtags": ["#senkata", "#elalto", "#senkatanoseolvida"], "cashtags": [], "link": "https://twitter.com/EvaCopa_Bol/status/1235703253792436224", "retweet": false, "quote_url": "", "video": 0, "near": "", "geo": "", "source": "", "user_rt_id": "", "user_rt": "", "retweet_id": "", "reply_to": [{"user_id": "724695687515000832", "username": "EvaCopa_Bol"}], "retweet_date": "", "translate": "", "trans_src": "", "trans_dest": ""}
{"id": 1235559627825328129, "conversation_id": "1235559627825328129", "created_at": 1583415345000, "date": "2020-03-05", "time": "09:35:45", "timezone": "-04", "user_id": 724695687515000832, "username": "evacopa_bol", "name": "Eva Copa", "place": "", "tweet": "Con una misa en la Parroquia San Francisco de Asís, rendimos homenaje a las víctimas de #Senkata. \nReafirmamos el pedido de que se haga Justicia por este acontecimiento que enlutó a la ciudad de #ElAlto en 2019.\nGloria a los caídos de Senkata. pic.twitter.com/N2JCspBKnP", "mentions": [], "urls": [], "photos": ["https://pbs.twimg.com/media/ESWW6ciXkAAuSWR.jpg", "https://pbs.twimg.com/media/ESWW7CRX0AEaGlj.jpg", "https://pbs.twimg.com/media/ESWW7fsXQAUMhBt.jpg"], "replies_count": 148, "retweets_count": 20, "likes_count": 85, "hashtags": ["#senkata", "#elalto"], "cashtags": [], "link": "https://twitter.com/EvaCopa_Bol/status/1235559627825328129", "retweet": false, "quote_url": "", "video": 0, "near": "", "geo": "", "source": "", "user_rt_id": "", "user_rt": "", "retweet_id": "", "reply_to": [{"user_id": "724695687515000832", "username": "EvaCopa_Bol"}], "retweet_date": "", "translate": "", "trans_src": "", "trans_dest": ""}
{"id": 1235236964804284419, "conversation_id": "1235236964804284419", "created_at": 1583338416000, "date": "2020-03-04", "time": "12:13:36", "timezone": "-04", "user_id": 724695687515000832, "username": "evacopa_bol", "name": "Eva Copa", "place": "", "tweet": "Este es el pueblo alteño, con orgullo y unidad rendimos homenaje a nuestra ciudad de #ElAlto. \n\n\"El Alto de pie, nunca de rodillas\".\nJallalla ciudad de El Alto!!! pic.twitter.com/MJRsGz3IxP", "mentions": [], "urls": [], "photos": ["https://pbs.twimg.com/media/ESRxbziXcAIVVMO.jpg", "https://pbs.twimg.com/media/ESRxchtWsAEkbmn.jpg", "https://pbs.twimg.com/media/ESRxdFWWAAE85Z1.jpg", "https://pbs.twimg.com/media/ESRxdtrX0AEilD3.jpg"], "replies_count": 90, "retweets_count": 27, "likes_count": 151, "hashtags": ["#elalto"], "cashtags": [], "link": "https://twitter.com/EvaCopa_Bol/status/1235236964804284419", "retweet": false, "quote_url": "", "video": 0, "near": "", "geo": "", "source": "", "user_rt_id": "", "user_rt": "", "retweet_id": "", "reply_to": [{"user_id": "724695687515000832", "username": "EvaCopa_Bol"}], "retweet_date": "", "translate": "", "trans_src": "", "trans_dest": ""}
{"id": 1235148833488867328, "conversation_id": "1235148833488867328", "created_at": 1583317404000, "date": "2020-03-04", "time": "06:23:24", "timezone": "-04", "user_id": 724695687515000832, "username": "evacopa_bol", "name": "Eva Copa", "place": "", "tweet": "Con la participación de organizaciones sociales, instituciones, estudiantes y vecinos de base rendimos homenaje a la efeméride de nuestra ciudad de #ElAlto con un Gran Desfile Cívico que se desarrolla este miércoles en la avenida 6 de Marzo.\n\n“El Alto de pie, nunca de rodillas”🇧🇴 pic.twitter.com/phSeTbv3Bg", "mentions": [], "urls": [], "photos": ["https://pbs.twimg.com/media/ESQhT51WoAYGrNa.jpg"], "replies_count": 22, "retweets_count": 6, "likes_count": 47, "hashtags": ["#elalto"], "cashtags": [], "link": "https://twitter.com/EvaCopa_Bol/status/1235148833488867328", "retweet": false, "quote_url": "", "video": 0, "near": "", "geo": "", "source": "", "user_rt_id": "", "user_rt": "", "retweet_id": "", "reply_to": [{"user_id": "724695687515000832", "username": "EvaCopa_Bol"}], "retweet_date": "", "translate": "", "trans_src": "", "trans_dest": ""}
{"id": 1234493453041643520, "conversation_id": "1234493453041643520", "created_at": 1583161149000, "date": "2020-03-02", "time": "10:59:09", "timezone": "-04", "user_id": 724695687515000832, "username": "evacopa_bol", "name": "Eva Copa", "place": "", "tweet": "Llegamos hasta el Distrito 7 de nuestra ciudad de #ElAlto para compartir con estudiantes, profesores y padres de familia de la Unidad Educativa '16 de Agosto' que hoy celebra su XXI Aniversario. \nFelicidades!!! pic.twitter.com/a8i0FsRGxY", "mentions": [], "urls": [], "photos": [], "replies_count": 12, "retweets_count": 4, "likes_count": 40, "hashtags": ["#elalto"], "cashtags": [], "link": "https://twitter.com/EvaCopa_Bol/status/1234493453041643520", "retweet": false, "quote_url": "", "video": 1, "near": "", "geo": "", "source": "", "user_rt_id": "", "user_rt": "", "retweet_id": "", "reply_to": [{"user_id": "724695687515000832", "username": "EvaCopa_Bol"}], "retweet_date": "", "translate": "", "trans_src": "", "trans_dest": ""}
{"id": 1234431636374159360, "conversation_id": "1234431636374159360", "created_at": 1583146411000, "date": "2020-03-02", "time": "06:53:31", "timezone": "-04", "user_id": 724695687515000832, "username": "evacopa_bol", "name": "Eva Copa", "place": "", "tweet": "Nuestra valiente y altiva ciudad de #ElAlto está de aniversario; por ello, iniciamos una secuencia de actividades en las que alteñas y alteños rendiremos homenaje a nuestra efeméride con la fuerza de la unidad.\n\"El Alto de pie, nunca de rodillas\". | #Bolivia pic.twitter.com/zak0iawirN", "mentions": [], "urls": [], "photos": ["https://pbs.twimg.com/media/ESGVBOGUwAEHz4G.jpg"], "replies_count": 28, "retweets_count": 7, "likes_count": 53, "hashtags": ["#elalto", "#bolivia"], "cashtags": [], "link": "https://twitter.com/EvaCopa_Bol/status/1234431636374159360", "retweet": false, "quote_url": "", "video": 0, "near": "", "geo": "", "source": "", "user_rt_id": "", "user_rt": "", "retweet_id": "", "reply_to": [{"user_id": "724695687515000832", "username": "EvaCopa_Bol"}], "retweet_date": "", "translate": "", "trans_src": "", "trans_dest": ""}
{"id": 1232689188455243776, "conversation_id": "1232689188455243776", "created_at": 1582730979000, "date": "2020-02-26", "time": "11:29:39", "timezone": "-04", "user_id": 724695687515000832, "username": "evacopa_bol", "name": "Eva Copa", "place": "", "tweet": "459 años de fundación de #SantaCruz, un gran saludo a los hermanos cruceños. 🇧🇴 | #Bolivia pic.twitter.com/O5uEQaXKYr", "mentions": [], "urls": [], "photos": ["https://pbs.twimg.com/media/ERtkP_yWkAApW-e.jpg"], "replies_count": 33, "retweets_count": 9, "likes_count": 88, "hashtags": ["#santacruz", "#bolivia"], "cashtags": [], "link": "https://twitter.com/EvaCopa_Bol/status/1232689188455243776", "retweet": false, "quote_url": "", "video": 0, "near": "", "geo": "", "source": "", "user_rt_id": "", "user_rt": "", "retweet_id": "", "reply_to": [{"user_id": "724695687515000832", "username": "EvaCopa_Bol"}], "retweet_date": "", "translate": "", "trans_src": "", "trans_dest": ""}
{"id": 1231267363875643392, "conversation_id": "1231267363875643392", "created_at": 1582391990000, "date": "2020-02-22", "time": "13:19:50", "timezone": "-04", "user_id": 724695687515000832, "username": "evacopa_bol", "name": "Eva Copa", "place": "", "tweet": "Expresar toda mi solidaridad con las hermanas y hermanos afectados por la mazamorra y desborde de río en #Tiquipaya, #Cochabamba. Estamos atentos a los mecanismos y protocolos activados para atender la emergencia desde los distintos niveles de Gobierno. pic.twitter.com/7jm6phITKd", "mentions": [], "urls": [], "photos": ["https://pbs.twimg.com/media/ERZXI0DWkAEEknu.jpg"], "replies_count": 24, "retweets_count": 12, "likes_count": 87, "hashtags": ["#tiquipaya", "#cochabamba"], "cashtags": [], "link": "https://twitter.com/EvaCopa_Bol/status/1231267363875643392", "retweet": false, "quote_url": "", "video": 0, "near": "", "geo": "", "source": "", "user_rt_id": "", "user_rt": "", "retweet_id": "", "reply_to": [{"user_id": "724695687515000832", "username": "EvaCopa_Bol"}], "retweet_date": "", "translate": "", "trans_src": "", "trans_dest": ""}
{"id": 1230939516816494593, "conversation_id": "1230939516816494593", "created_at": 1582313825000, "date": "2020-02-21", "time": "15:37:05", "timezone": "-04", "user_id": 724695687515000832, "username": "evacopa_bol", "name": "Eva Copa", "place": "", "tweet": "El #Carnaval es una oportunidad para acercarnos más a nuestros amigos y familiares, debemos disfrutarla con responsabilidad para fomentar los buenos valores. \n#Bolivia | #ElAlto pic.twitter.com/qwb376H3pe", "mentions": [], "urls": [], "photos": ["https://pbs.twimg.com/media/ERUszVsXUAAhkyM.jpg"], "replies_count": 13, "retweets_count": 8, "likes_count": 75, "hashtags": ["#carnaval", "#bolivia", "#elalto"], "cashtags": [], "link": "https://twitter.com/EvaCopa_Bol/status/1230939516816494593", "retweet": false, "quote_url": "", "video": 0, "near": "", "geo": "", "source": "", "user_rt_id": "", "user_rt": "", "retweet_id": "", "reply_to": [{"user_id": "724695687515000832", "username": "EvaCopa_Bol"}], "retweet_date": "", "translate": "", "trans_src": "", "trans_dest": ""}
{"id": 1229439698977918977, "conversation_id": "1229439698977918977", "created_at": 1581956240000, "date": "2020-02-17", "time": "12:17:20", "timezone": "-04", "user_id": 724695687515000832, "username": "evacopa_bol", "name": "Eva Copa", "place": "", "tweet": "La encuesta evidencia que la población pondera y valora la estabilidad económica y social que se logró en el gobierno del Proceso de Cambio, este respaldo mayoritario al MAS nos fortalece e impulsa a seguir adelante siempre en contacto directo con nuestra gente | #Bolivia #ElAlto pic.twitter.com/255yyIed8l", "mentions": [], "urls": [], "photos": ["https://pbs.twimg.com/media/EQ_YxMCWoAIAxjc.jpg"], "replies_count": 100, "retweets_count": 45, "likes_count": 192, "hashtags": ["#bolivia", "#elalto"], "cashtags": [], "link": "https://twitter.com/EvaCopa_Bol/status/1229439698977918977", "retweet": false, "quote_url": "", "video": 0, "near": "", "geo": "", "source": "", "user_rt_id": "", "user_rt": "", "retweet_id": "", "reply_to": [{"user_id": "724695687515000832", "username": "EvaCopa_Bol"}], "retweet_date": "", "translate": "", "trans_src": "", "trans_dest": ""}
{"id": 1228096313092386818, "conversation_id": "1228096313092386818", "created_at": 1581635952000, "date": "2020-02-13", "time": "19:19:12", "timezone": "-04", "user_id": 724695687515000832, "username": "evacopa_bol", "name": "Eva Copa", "place": "", "tweet": "La ‘Ley de Prevención y Control al Consumo de los Productos de Tabaco’ tiene el principal objetivo de precautelar el Derecho a la Salud de las generaciones presentes y futuras en #Bolivia. \nOrgullosa porque fue la primera Ley promulgada en mi gestión al frente de la ALP. pic.twitter.com/yPFHPFWyST", "mentions": [], "urls": [], "photos": ["https://pbs.twimg.com/media/EQsS8oaXYAA3Khb.jpg", "https://pbs.twimg.com/media/EQsS8odXsAAOX8M.jpg"], "replies_count": 70, "retweets_count": 20, "likes_count": 169, "hashtags": ["#bolivia"], "cashtags": [], "link": "https://twitter.com/EvaCopa_Bol/status/1228096313092386818", "retweet": false, "quote_url": "", "video": 0, "near": "", "geo": "", "source": "", "user_rt_id": "", "user_rt": "", "retweet_id": "", "reply_to": [{"user_id": "724695687515000832", "username": "EvaCopa_Bol"}], "retweet_date": "", "translate": "", "trans_src": "", "trans_dest": ""}
{"id": 1227733342038171650, "conversation_id": "1227733342038171650", "created_at": 1581549413000, "date": "2020-02-12", "time": "19:16:53", "timezone": "-04", "user_id": 724695687515000832, "username": "evacopa_bol", "name": "Eva Copa", "place": "", "tweet": "Agradecer siempre a la ciudad de #ElAlto, a los vecinos de base y sus organizaciones sociales, quienes me dieron su apoyo y fortaleza para encaminar y consolidar el proceso de pacificación del país estando al frente de la Asamblea Legislativa Plurinacional de #Bolivia. pic.twitter.com/vgjzQXSTXd", "mentions": [], "urls": [], "photos": ["https://pbs.twimg.com/media/EQnI6MGXkAQbp4H.jpg"], "replies_count": 63, "retweets_count": 20, "likes_count": 172, "hashtags": ["#elalto", "#bolivia"], "cashtags": [], "link": "https://twitter.com/EvaCopa_Bol/status/1227733342038171650", "retweet": false, "quote_url": "", "video": 0, "near": "", "geo": "", "source": "", "user_rt_id": "", "user_rt": "", "retweet_id": "", "reply_to": [{"user_id": "724695687515000832", "username": "EvaCopa_Bol"}], "retweet_date": "", "translate": "", "trans_src": "", "trans_dest": ""}
{"id": 1227256526538145792, "conversation_id": "1227256526538145792", "created_at": 1581435731000, "date": "2020-02-11", "time": "11:42:11", "timezone": "-04", "user_id": 724695687515000832, "username": "evacopa_bol", "name": "Eva Copa", "place": "", "tweet": "Posesionamos a la Brigada Parlamentaria del departamento de #Tarija. Éxitos y deseos de una óptima gestión a los asambleístas Henrry Chávez y Lorena Gareca, para trabajar coordinadamente con la población tarijeña. pic.twitter.com/eFSyNWVSkb", "mentions": [], "urls": [], "photos": ["https://pbs.twimg.com/media/EQgXTQHVUAAHLHm.jpg", "https://pbs.twimg.com/media/EQgXTP9WsAAwUnu.jpg", "https://pbs.twimg.com/media/EQgXTQQU8AEe0HC.jpg"], "replies_count": 12, "retweets_count": 5, "likes_count": 45, "hashtags": ["#tarija"], "cashtags": [], "link": "https://twitter.com/EvaCopa_Bol/status/1227256526538145792", "retweet": false, "quote_url": "", "video": 0, "near": "", "geo": "", "source": "", "user_rt_id": "", "user_rt": "", "retweet_id": "", "reply_to": [{"user_id": "724695687515000832", "username": "EvaCopa_Bol"}], "retweet_date": "", "translate": "", "trans_src": "", "trans_dest": ""}
{"id": 1226870298487803904, "conversation_id": "1226870298487803904", "created_at": 1581343647000, "date": "2020-02-10", "time": "10:07:27", "timezone": "-04", "user_id": 724695687515000832, "username": "evacopa_bol", "name": "Eva Copa", "place": "", "tweet": "“El poder de tus brazos Oruro”. \n\nEn el 239 Aniversario de la Gesta Libertaria de #Oruro hago extensiva el más cordial de los saludos a todos nuestros compatriotas que con orgullo impulsan el crecimiento y desarrollo de la ciudad del Pagador.\n\nOruro, 239 años de Libertad!!! pic.twitter.com/zrGMyvi1vm", "mentions": [], "urls": [], "photos": ["https://pbs.twimg.com/media/EQa4B3TXsAAhYtK.jpg"], "replies_count": 10, "retweets_count": 14, "likes_count": 60, "hashtags": ["#oruro"], "cashtags": [], "link": "https://twitter.com/EvaCopa_Bol/status/1226870298487803904", "retweet": false, "quote_url": "", "video": 0, "near": "", "geo": "", "source": "", "user_rt_id": "", "user_rt": "", "retweet_id": "", "reply_to": [{"user_id": "724695687515000832", "username": "EvaCopa_Bol"}], "retweet_date": "", "translate": "", "trans_src": "", "trans_dest": ""}
{"id": 1225921917821112322, "conversation_id": "1225921917821112322", "created_at": 1581117536000, "date": "2020-02-07", "time": "19:18:56", "timezone": "-04", "user_id": 724695687515000832, "username": "evacopa_bol", "name": "Eva Copa", "place": "", "tweet": "Hoy participamos del Desfile Cívico conmemorando el CXIV Aniversario de la cálida ciudad de #Cobija, departamento de #Pando.\nGracias por el caluroso recibimiento a las autoridades locales y a los hermanos residentes en el jardín amazónico de #Bolivia. pic.twitter.com/PVBJasY5Os", "mentions": [], "urls": [], "photos": ["https://pbs.twimg.com/media/EQNZeuhWAAMI21Z.jpg", "https://pbs.twimg.com/media/EQNZeukXYAEW6Ct.jpg", "https://pbs.twimg.com/media/EQNZevBU4AEW5Qh.jpg"], "replies_count": 19, "retweets_count": 4, "likes_count": 89, "hashtags": ["#cobija", "#pando", "#bolivia"], "cashtags": [], "link": "https://twitter.com/EvaCopa_Bol/status/1225921917821112322", "retweet": false, "quote_url": "", "video": 0, "near": "", "geo": "", "source": "", "user_rt_id": "", "user_rt": "", "retweet_id": "", "reply_to": [{"user_id": "724695687515000832", "username": "EvaCopa_Bol"}], "retweet_date": "", "translate": "", "trans_src": "", "trans_dest": ""}
{"id": 1225563462736150529, "conversation_id": "1225563462736150529", "created_at": 1581032074000, "date": "2020-02-06", "time": "19:34:34", "timezone": "-04", "user_id": 724695687515000832, "username": "evacopa_bol", "name": "Eva Copa", "place": "", "tweet": "Me sumo a las manifestaciones de solidaridad con nuestros hermanos damnificados por la riada en #Cotagaita, #Potosí, estaremos atentos a que se activen las acciones frente a esta contingencia. La ALP trabajará proyecto de Ley Corta de prevención para atender desastres naturales. pic.twitter.com/4wpbhFM58v", "mentions": [], "urls": [], "photos": ["https://pbs.twimg.com/media/EQITd5dWsAEZxQj.jpg"], "replies_count": 10, "retweets_count": 8, "likes_count": 75, "hashtags": ["#cotagaita", "#potosí"], "cashtags": [], "link": "https://twitter.com/EvaCopa_Bol/status/1225563462736150529", "retweet": false, "quote_url": "", "video": 0, "near": "", "geo": "", "source": "", "user_rt_id": "", "user_rt": "", "retweet_id": "", "reply_to": [{"user_id": "724695687515000832", "username": "EvaCopa_Bol"}], "retweet_date": "", "translate": "", "trans_src": "", "trans_dest": ""}
{"id": 1224704161389989888, "conversation_id": "1224704161389989888", "created_at": 1580827200000, "date": "2020-02-04", "time": "10:40:00", "timezone": "-04", "user_id": 724695687515000832, "username": "evacopa_bol", "name": "Eva Copa", "place": "", "tweet": "En la ciudad de #SantaCruz de la Sierra participamos del Foro Estabilidad, Productividad e Institucionalidad ‘La #Bolivia que Queremos’, organizado por la CAINCO, donde se aborda desde diversas perspectivas la visión productiva boliviana para preservar la estabilidad económica. pic.twitter.com/zsmd1D4jw0", "mentions": [], "urls": [], "photos": ["https://pbs.twimg.com/media/EP8F8CVX0AAL0O3.jpg", "https://pbs.twimg.com/media/EP8F8COXkAUOv3l.jpg", "https://pbs.twimg.com/media/EP8F8DuXsAUFdbL.jpg"], "replies_count": 22, "retweets_count": 6, "likes_count": 79, "hashtags": ["#santacruz", "#bolivia"], "cashtags": [], "link": "https://twitter.com/EvaCopa_Bol/status/1224704161389989888", "retweet": false, "quote_url": "", "video": 0, "near": "", "geo": "", "source": "", "user_rt_id": "", "user_rt": "", "retweet_id": "", "reply_to": [{"user_id": "724695687515000832", "username": "EvaCopa_Bol"}], "retweet_date": "", "translate": "", "trans_src": "", "trans_dest": ""}
{"id": 1222596110033788928, "conversation_id": "1222596110033788928", "created_at": 1580324602000, "date": "2020-01-29", "time": "15:03:22", "timezone": "-04", "user_id": 724695687515000832, "username": "evacopa_bol", "name": "Eva Copa", "place": "", "tweet": "Con responsabilidad y con una sensata madurez política es que la ALP ha demostrado su firme convicción de consolidar la pacificación en #Bolivia y darles certidumbre a los bolivianos rumbo a las elecciones generales.\n\nAhora y siempre lo que nos une es la Patria!!! 🇧🇴 | #ElAlto pic.twitter.com/FDtFJ7An5o", "mentions": [], "urls": [], "photos": ["https://pbs.twimg.com/media/EPeIrKrX0AAG2hJ.jpg"], "replies_count": 216, "retweets_count": 27, "likes_count": 312, "hashtags": ["#bolivia", "#elalto"], "cashtags": [], "link": "https://twitter.com/EvaCopa_Bol/status/1222596110033788928", "retweet": false, "quote_url": "", "video": 0, "near": "", "geo": "", "source": "", "user_rt_id": "", "user_rt": "", "retweet_id": "", "reply_to": [{"user_id": "724695687515000832", "username": "EvaCopa_Bol"}], "retweet_date": "", "translate": "", "trans_src": "", "trans_dest": ""}
{"id": 1220474054567780353, "conversation_id": "1220474054567780353", "created_at": 1579818664000, "date": "2020-01-23", "time": "18:31:04", "timezone": "-04", "user_id": 724695687515000832, "username": "evacopa_bol", "name": "Eva Copa", "place": "", "tweet": "En #SantaCruz participamos del Foro Internacional ‘Comunicación Política para Jóvenes con Capacidades de Incidencia en la Agenda Pública y el Proceso Electoral 2020’,  intercambiamos criterios con otros jóvenes de #Bolivia y escuchamos ponencias de expertos internacionales. pic.twitter.com/sNOpM4otO4", "mentions": [], "urls": [], "photos": ["https://pbs.twimg.com/media/EO_-rbkWoAIZONt.jpg", "https://pbs.twimg.com/media/EO_-rblX4AAZb6A.jpg"], "replies_count": 90, "retweets_count": 17, "likes_count": 116, "hashtags": ["#santacruz", "#bolivia"], "cashtags": [], "link": "https://twitter.com/EvaCopa_Bol/status/1220474054567780353", "retweet": false, "quote_url": "", "video": 0, "near": "", "geo": "", "source": "", "user_rt_id": "", "user_rt": "", "retweet_id": "", "reply_to": [{"user_id": "724695687515000832", "username": "EvaCopa_Bol"}], "retweet_date": "", "translate": "", "trans_src": "", "trans_dest": ""}
{"id": 1220001946377035778, "conversation_id": "1220001946377035778", "created_at": 1579706105000, "date": "2020-01-22", "time": "11:15:05", "timezone": "-04", "user_id": 724695687515000832, "username": "evacopa_bol", "name": "Eva Copa", "place": "", "tweet": "Este 22 de enero recordamos el “Día del Estado Plurinacional de Bolivia” celebramos nuestra #diversidad como país, que se fortalece en #pluralidad siempre buscando la #pacificación, la #reconciliación y #redescubrirnos entre todos los bolivianos.\n¡Felicidades querida #Bolivia!🇧🇴 pic.twitter.com/5r707hR5gM", "mentions": [], "urls": [], "photos": [], "replies_count": 211, "retweets_count": 52, "likes_count": 438, "hashtags": ["#diversidad", "#pluralidad", "#pacificación", "#reconciliación", "#redescubrirnos", "#bolivia"], "cashtags": [], "link": "https://twitter.com/EvaCopa_Bol/status/1220001946377035778", "retweet": false, "quote_url": "", "video": 1, "near": "", "geo": "", "source": "", "user_rt_id": "", "user_rt": "", "retweet_id": "", "reply_to": [{"user_id": "724695687515000832", "username": "EvaCopa_Bol"}], "retweet_date": "", "translate": "", "trans_src": "", "trans_dest": ""}
{"id": 1217840431595212806, "conversation_id": "1217840431595212806", "created_at": 1579190759000, "date": "2020-01-16", "time": "12:05:59", "timezone": "-04", "user_id": 724695687515000832, "username": "evacopa_bol", "name": "Eva Copa", "place": "", "tweet": "En la Asamblea Legislativa Plurinacional (ALP), recibimos la visita protocolar del hermano Embajador de #Francia en #Bolivia, Denis Gaillard, en la que se puso de manifiesto el interés mutuo de afianzar lazos de amistad y cooperación entre nuestras naciones. pic.twitter.com/YhGar2DbU6", "mentions": [], "urls": [], "photos": ["https://pbs.twimg.com/media/EOajaMyW4AAx3SQ.jpg"], "replies_count": 137, "retweets_count": 17, "likes_count": 200, "hashtags": ["#francia", "#bolivia"], "cashtags": [], "link": "https://twitter.com/EvaCopa_Bol/status/1217840431595212806", "retweet": false, "quote_url": "", "video": 0, "near": "", "geo": "", "source": "", "user_rt_id": "", "user_rt": "", "retweet_id": "", "reply_to": [{"user_id": "724695687515000832", "username": "EvaCopa_Bol"}], "retweet_date": "", "translate": "", "trans_src": "", "trans_dest": ""}
{"id": 1217221353570480128, "conversation_id": "1217221353570480128", "created_at": 1579043160000, "date": "2020-01-14", "time": "19:06:00", "timezone": "-04", "user_id": 724695687515000832, "username": "evacopa_bol", "name": "Eva Copa", "place": "", "tweet": "La Ley de Cumplimiento de los Derechos Humanos no tiene ningún Parágrafo, ningún Artículo que defienda la impunidad. \n\n#Bolivia | #ElAlto pic.twitter.com/Jzr7bwVhmc", "mentions": [], "urls": [], "photos": ["https://pbs.twimg.com/media/EORwXZjWkAMo3u2.jpg"], "replies_count": 467, "retweets_count": 60, "likes_count": 278, "hashtags": ["#bolivia", "#elalto"], "cashtags": [], "link": "https://twitter.com/EvaCopa_Bol/status/1217221353570480128", "retweet": false, "quote_url": "", "video": 0, "near": "", "geo": "", "source": "", "user_rt_id": "", "user_rt": "", "retweet_id": "", "reply_to": [{"user_id": "724695687515000832", "username": "EvaCopa_Bol"}], "retweet_date": "", "translate": "", "trans_src": "", "trans_dest": ""}
{"id": 1217220973344280576, "conversation_id": "1217220973344280576", "created_at": 1579043069000, "date": "2020-01-14", "time": "19:04:29", "timezone": "-04", "user_id": 724695687515000832, "username": "evacopa_bol", "name": "Eva Copa", "place": "", "tweet": "Al presidir la Asamblea Legislativa Plurinacional (ALP) he sido clara con mi posición: Yo no voy a sacar ninguna Ley que vaya en contra de la Constitución Política del Estado y que vulnere derechos. \n\n#Bolivia | #ElAlto pic.twitter.com/gQfgmvqQfu", "mentions": [], "urls": [], "photos": ["https://pbs.twimg.com/media/EORwBMBX0AAhasp.jpg"], "replies_count": 62, "retweets_count": 18, "likes_count": 85, "hashtags": ["#bolivia", "#elalto"], "cashtags": [], "link": "https://twitter.com/EvaCopa_Bol/status/1217220973344280576", "retweet": false, "quote_url": "", "video": 0, "near": "", "geo": "", "source": "", "user_rt_id": "", "user_rt": "", "retweet_id": "", "reply_to": [{"user_id": "724695687515000832", "username": "EvaCopa_Bol"}], "retweet_date": "", "translate": "", "trans_src": "", "trans_dest": ""}
{"id": 1216713867641880577, "conversation_id": "1216713867641880577", "created_at": 1578922166000, "date": "2020-01-13", "time": "09:29:26", "timezone": "-04", "user_id": 724695687515000832, "username": "evacopa_bol", "name": "Eva Copa", "place": "", "tweet": "Con la presencia de organizaciones sociales de #Bolivia y la ciudad de #ElAlto realizamos la 'Audiencia Pública de Rendición de Cuentas - Fase Final' de la Cámara de Senadores en el marco de la transparencia. pic.twitter.com/8ygkkFSIcB", "mentions": [], "urls": [], "photos": ["https://pbs.twimg.com/media/EOKixlfWAAAeqQF.jpg", "https://pbs.twimg.com/media/EOKiy80WkAg01t8.jpg"], "replies_count": 143, "retweets_count": 20, "likes_count": 118, "hashtags": ["#bolivia", "#elalto"], "cashtags": [], "link": "https://twitter.com/EvaCopa_Bol/status/1216713867641880577", "retweet": false, "quote_url": "", "video": 0, "near": "", "geo": "", "source": "", "user_rt_id": "", "user_rt": "", "retweet_id": "", "reply_to": [{"user_id": "724695687515000832", "username": "EvaCopa_Bol"}], "retweet_date": "", "translate": "", "trans_src": "", "trans_dest": ""}
{"id": 1214224823745961985, "conversation_id": "1214224823745961985", "created_at": 1578328731000, "date": "2020-01-06", "time": "12:38:51", "timezone": "-04", "user_id": 724695687515000832, "username": "evacopa_bol", "name": "Eva Copa", "place": "", "tweet": "Compartimos un caluroso y grato momento con mis vecinos de la Urbanización 'Miraflores San Roque' del Distrito 7, imprimimos un semblante de alegría en los niños de este sector de la ciudad de #ElAlto. pic.twitter.com/qSgpE1xsP0", "mentions": [], "urls": [], "photos": ["https://pbs.twimg.com/media/ENnK-W5WsAEHwqY.jpg", "https://pbs.twimg.com/media/ENnK_mAX0AEmslb.jpg", "https://pbs.twimg.com/media/ENnLBG1X0AMuYTh.jpg", "https://pbs.twimg.com/media/ENnLB8wXsAErCNA.jpg"], "replies_count": 165, "retweets_count": 10, "likes_count": 103, "hashtags": ["#elalto"], "cashtags": [], "link": "https://twitter.com/EvaCopa_Bol/status/1214224823745961985", "retweet": false, "quote_url": "", "video": 0, "near": "", "geo": "", "source": "", "user_rt_id": "", "user_rt": "", "retweet_id": "", "reply_to": [{"user_id": "724695687515000832", "username": "EvaCopa_Bol"}], "retweet_date": "", "translate": "", "trans_src": "", "trans_dest": ""}
{"id": 1212883507653070851, "conversation_id": "1212883507653070851", "created_at": 1578008937000, "date": "2020-01-02", "time": "19:48:57", "timezone": "-04", "user_id": 724695687515000832, "username": "evacopa_bol", "name": "Eva Copa", "place": "", "tweet": "En Sucre, participamos del acto de Inauguración del Año Judicial de la Jurisdicción Agroambiental y posesión de la Dra Ángela Sánchez Panozo como nueva presidenta del Tribunal Agroambiental del Estado Plurinacional de #Bolivia. pic.twitter.com/Ta9L1g8h26", "mentions": [], "urls": [], "photos": ["https://pbs.twimg.com/media/ENUHGztW4AEpwKF.jpg", "https://pbs.twimg.com/media/ENUHGznWoAE7Va2.jpg"], "replies_count": 54, "retweets_count": 6, "likes_count": 97, "hashtags": ["#bolivia"], "cashtags": [], "link": "https://twitter.com/EvaCopa_Bol/status/1212883507653070851", "retweet": false, "quote_url": "", "video": 0, "near": "", "geo": "", "source": "", "user_rt_id": "", "user_rt": "", "retweet_id": "", "reply_to": [{"user_id": "724695687515000832", "username": "EvaCopa_Bol"}], "retweet_date": "", "translate": "", "trans_src": "", "trans_dest": ""}
{"id": 1212197435780599808, "conversation_id": "1212197435780599808", "created_at": 1577845364000, "date": "2019-12-31", "time": "22:22:44", "timezone": "-04", "user_id": 724695687515000832, "username": "evacopa_bol", "name": "Eva Copa", "place": "", "tweet": "Que el éxito, prosperidad y unidad acompañen siempre a nuestra Patria #Bolivia. \n\nA mis vecinos de la ciudad de #ElAlto envío el más fraternal abrazo de hermandad, con el sincero deseo que el 2020 sea venturoso.\n\nBienvenido 2020!!! pic.twitter.com/f7Y60hnzQw", "mentions": [], "urls": [], "photos": ["https://pbs.twimg.com/media/ENKXIz7W4AE6KGc.jpg"], "replies_count": 42, "retweets_count": 7, "likes_count": 174, "hashtags": ["#bolivia", "#elalto"], "cashtags": [], "link": "https://twitter.com/EvaCopa_Bol/status/1212197435780599808", "retweet": false, "quote_url": "", "video": 0, "near": "", "geo": "", "source": "", "user_rt_id": "", "user_rt": "", "retweet_id": "", "reply_to": [{"user_id": "724695687515000832", "username": "EvaCopa_Bol"}], "retweet_date": "", "translate": "", "trans_src": "", "trans_dest": ""}
{"id": 1209639133322383360, "conversation_id": "1209639133322383360", "created_at": 1577235418000, "date": "2019-12-24", "time": "20:56:58", "timezone": "-04", "user_id": 724695687515000832, "username": "evacopa_bol", "name": "Eva Copa", "place": "", "tweet": "Quiero compartir con mi ciudad de #ElAlto los mejores deseos de paz, amor y amistad.\n\nQue este mensaje de reconciliación y unidad llegue a cada familia,  porque lo que nos une es nuestra #Bolivia.\n\n¡Feliz Navidad!🎄🎄🎄 pic.twitter.com/K6v3h8NhxH", "mentions": [], "urls": [], "photos": ["https://pbs.twimg.com/media/EMmAXv9XsAA20gQ.jpg"], "replies_count": 89, "retweets_count": 12, "likes_count": 202, "hashtags": ["#elalto", "#bolivia"], "cashtags": [], "link": "https://twitter.com/EvaCopa_Bol/status/1209639133322383360", "retweet": false, "quote_url": "", "video": 0, "near": "", "geo": "", "source": "", "user_rt_id": "", "user_rt": "", "retweet_id": "", "reply_to": [{"user_id": "724695687515000832", "username": "EvaCopa_Bol"}], "retweet_date": "", "translate": "", "trans_src": "", "trans_dest": ""}
{"id": 1209492626682122243, "conversation_id": "1209492626682122243", "created_at": 1577200488000, "date": "2019-12-24", "time": "11:14:48", "timezone": "-04", "user_id": 724695687515000832, "username": "evacopa_bol", "name": "Eva Copa", "place": "", "tweet": "En busca de la #reconciliación y la #paz  el valeroso pueblo  de  #ElAlto  y la #UPEA no descansaremos hasta encontrar  #justicia por nuestro hermano Jonathan Quispe.\n#JusticiaParaJonathan pic.twitter.com/r0DmorMX0P", "mentions": [], "urls": [], "photos": ["https://pbs.twimg.com/media/EMj7IJKW4AAGAKg.jpg"], "replies_count": 50, "retweets_count": 16, "likes_count": 146, "hashtags": ["#reconciliación", "#paz", "#elalto", "#upea", "#justicia", "#justiciaparajonathan"], "cashtags": [], "link": "https://twitter.com/EvaCopa_Bol/status/1209492626682122243", "retweet": false, "quote_url": "", "video": 0, "near": "", "geo": "", "source": "", "user_rt_id": "", "user_rt": "", "retweet_id": "", "reply_to": [{"user_id": "724695687515000832", "username": "EvaCopa_Bol"}], "retweet_date": "", "translate": "", "trans_src": "", "trans_dest": ""}
{"id": 1208158040660295680, "conversation_id": "1208158040660295680", "created_at": 1576882298000, "date": "2019-12-20", "time": "18:51:38", "timezone": "-04", "user_id": 724695687515000832, "username": "evacopa_bol", "name": "Eva Copa", "place": "", "tweet": "Que la paz llegue a nuestros corazones esta navidad. Me llena de alegría recibir a los Niños del Coro de Villancicos \"Padre Sebastián Obermaier\" de la Iglesia Cuerpo de Cristo de la ciudad de El Alto. pic.twitter.com/2jT7Z6H4ro", "mentions": [], "urls": [], "photos": ["https://pbs.twimg.com/media/EMQ9U5GX0AIkex3.jpg", "https://pbs.twimg.com/media/EMQ9U5wW4AAF7qI.jpg", "https://pbs.twimg.com/media/EMQ9U52WkAcmbwd.jpg", "https://pbs.twimg.com/media/EMQ9U58WsAAXVtv.jpg"], "replies_count": 70, "retweets_count": 26, "likes_count": 485, "hashtags": [], "cashtags": [], "link": "https://twitter.com/EvaCopa_Bol/status/1208158040660295680", "retweet": false, "quote_url": "", "video": 0, "near": "", "geo": "", "source": "", "user_rt_id": "", "user_rt": "", "retweet_id": "", "reply_to": [{"user_id": "724695687515000832", "username": "EvaCopa_Bol"}], "retweet_date": "", "translate": "", "trans_src": "", "trans_dest": ""}
{"id": 1208085670683643908, "conversation_id": "1208085670683643908", "created_at": 1576865043000, "date": "2019-12-20", "time": "14:04:03", "timezone": "-04", "user_id": 724695687515000832, "username": "evacopa_bol", "name": "Eva Copa", "place": "", "tweet": "Hoy hemos recibido el Informe Final de la Misión de Expertos Electorales de la Unión Europea sobre las Elecciones Generales del 20 de octubre. pic.twitter.com/SNvbClgVLX", "mentions": [], "urls": [], "photos": ["https://pbs.twimg.com/media/EMP7gUiX0AA8nEE.jpg", "https://pbs.twimg.com/media/EMP7gUnXkAANbUP.jpg", "https://pbs.twimg.com/media/EMP7gUnXUAAlPcF.jpg"], "replies_count": 25, "retweets_count": 30, "likes_count": 122, "hashtags": [], "cashtags": [], "link": "https://twitter.com/EvaCopa_Bol/status/1208085670683643908", "retweet": false, "quote_url": "", "video": 0, "near": "", "geo": "", "source": "", "user_rt_id": "", "user_rt": "", "retweet_id": "", "reply_to": [{"user_id": "724695687515000832", "username": "EvaCopa_Bol"}], "retweet_date": "", "translate": "", "trans_src": "", "trans_dest": ""}
{"id": 1207316417026105344, "conversation_id": "1207316417026105344", "created_at": 1576681639000, "date": "2019-12-18", "time": "11:07:19", "timezone": "-04", "user_id": 724695687515000832, "username": "evacopa_bol", "name": "Eva Copa", "place": "", "tweet": "La pluralidad de ideas es la base de la #Democracia y de la #BOLIVIA del futuro. Todos juntos demos el primer paso🇧🇴❤💛💚 pic.twitter.com/NMCXHAdQ72", "mentions": [], "urls": [], "photos": ["https://pbs.twimg.com/media/EME_4H-W4AM4QQx.jpg"], "replies_count": 59, "retweets_count": 13, "likes_count": 180, "hashtags": ["#democracia", "#bolivia"], "cashtags": [], "link": "https://twitter.com/EvaCopa_Bol/status/1207316417026105344", "retweet": false, "quote_url": "", "video": 0, "near": "", "geo": "", "source": "", "user_rt_id": "", "user_rt": "", "retweet_id": "", "reply_to": [{"user_id": "724695687515000832", "username": "EvaCopa_Bol"}], "retweet_date": "", "translate": "", "trans_src": "", "trans_dest": ""}
{"id": 1206976023335723009, "conversation_id": "1206976023335723009", "created_at": 1576600483000, "date": "2019-12-17", "time": "12:34:43", "timezone": "-04", "user_id": 724695687515000832, "username": "evacopa_bol", "name": "Eva Copa", "place": "", "tweet": "Los intereses del país se encuentran antes de los intereses personales. #BOLIVIA necesita caminar hacia adelante. Todos juntos debemos dar ése paso", "mentions": [], "urls": [], "photos": [], "replies_count": 220, "retweets_count": 110, "likes_count": 1370, "hashtags": ["#bolivia"], "cashtags": [], "link": "https://twitter.com/EvaCopa_Bol/status/1206976023335723009", "retweet": false, "quote_url": "", "video": 0, "near": "", "geo": "", "source": "", "user_rt_id": "", "user_rt": "", "retweet_id": "", "reply_to": [{"user_id": "724695687515000832", "username": "EvaCopa_Bol"}], "retweet_date": "", "translate": "", "trans_src": "", "trans_dest": ""}
{"id": 1205277570549329920, "conversation_id": "1205277570549329920", "created_at": 1576195540000, "date": "2019-12-12", "time": "20:05:40", "timezone": "-04", "user_id": 724695687515000832, "username": "evacopa_bol", "name": "Eva Copa", "place": "", "tweet": "Ante la ardua labor de la pacificación del país y efectuar nuevas elecciones generales, mi persona, como cabeza de la Asamblea Legislativa, está sufriendo hostigamiento de parte de algunos grupos radicales, pido garantías para proseguir con mis labores por el bien de Bolivia", "mentions": [], "urls": [], "photos": [], "replies_count": 734, "retweets_count": 381, "likes_count": 1617, "hashtags": [], "cashtags": [], "link": "https://twitter.com/EvaCopa_Bol/status/1205277570549329920", "retweet": false, "quote_url": "", "video": 0, "near": "", "geo": "", "source": "", "user_rt_id": "", "user_rt": "", "retweet_id": "", "reply_to": [{"user_id": "724695687515000832", "username": "EvaCopa_Bol"}], "retweet_date": "", "translate": "", "trans_src": "", "trans_dest": ""}
{"id": 1204528959326707713, "conversation_id": "1204528959326707713", "created_at": 1576017057000, "date": "2019-12-10", "time": "18:30:57", "timezone": "-04", "user_id": 724695687515000832, "username": "evacopa_bol", "name": "Eva Copa", "place": "", "tweet": "Hoy 10 de diciembre día internacional de los #DerechosHumanos 🌍🖐, quiero destacar el trabajo de @ONU_es, @UEenBolivia y la Iglesia Católica. Bolivia ha sufrido un golpe muy duro que ha dejado un vacío en las familias bolivianas, pero poco a poco saldremos adelante. pic.twitter.com/l6FlfV42yH", "mentions": ["onu_es", "ueenbolivia"], "urls": [], "photos": ["https://pbs.twimg.com/media/ELdYrjGWsAEExHi.jpg"], "replies_count": 76, "retweets_count": 6, "likes_count": 115, "hashtags": ["#derechoshumanos"], "cashtags": [], "link": "https://twitter.com/EvaCopa_Bol/status/1204528959326707713", "retweet": false, "quote_url": "", "video": 0, "near": "", "geo": "", "source": "", "user_rt_id": "", "user_rt": "", "retweet_id": "", "reply_to": [{"user_id": "724695687515000832", "username": "EvaCopa_Bol"}, {"user_id": "119844526", "username": "ONU_es"}, {"user_id": "2860704652", "username": "UEenBolivia"}], "retweet_date": "", "translate": "", "trans_src": "", "trans_dest": ""}
{"id": 1204182725239947264, "conversation_id": "1204182725239947264", "created_at": 1575934508000, "date": "2019-12-09", "time": "19:35:08", "timezone": "-04", "user_id": 724695687515000832, "username": "evacopa_bol", "name": "Eva Copa", "place": "", "tweet": "Felicito a la Comisión de la Verdad por la entrega de los testimonios de víctimas de violencia política y otros delitos cometidos en #Bolivia en las dictaduras (1964-1982). La documentación será resguardada en la Biblioteca y Archivo Histórico de la #ALP ¡Bolivia se los agradece! pic.twitter.com/liLkMgMF3S", "mentions": [], "urls": [], "photos": ["https://pbs.twimg.com/media/ELYdzK6WkAA1DTe.jpg"], "replies_count": 59, "retweets_count": 23, "likes_count": 146, "hashtags": ["#bolivia", "#alp"], "cashtags": [], "link": "https://twitter.com/EvaCopa_Bol/status/1204182725239947264", "retweet": false, "quote_url": "", "video": 0, "near": "", "geo": "", "source": "", "user_rt_id": "", "user_rt": "", "retweet_id": "", "reply_to": [{"user_id": "724695687515000832", "username": "EvaCopa_Bol"}], "retweet_date": "", "translate": "", "trans_src": "", "trans_dest": ""}
{"id": 1201625705655754754, "conversation_id": "1201625705655754754", "created_at": 1575324868000, "date": "2019-12-02", "time": "18:14:28", "timezone": "-04", "user_id": 724695687515000832, "username": "evacopa_bol", "name": "Eva Copa", "place": "", "tweet": "Agradecer a los distintos medios de comunicación, VosTv canal 49, por permitirnos explicar y socializar el trabajo que realizamos para la elección de los nuevos miembros del Tribunal Electoral. pic.twitter.com/CdpRqY4TXr", "mentions": [], "urls": [], "photos": ["https://pbs.twimg.com/media/EK0ILNKWwAMUzUb.jpg", "https://pbs.twimg.com/media/EK0IMA2X0AEbXJC.jpg", "https://pbs.twimg.com/media/EK0IM5FWsAU4ZEQ.jpg"], "replies_count": 59, "retweets_count": 8, "likes_count": 34, "hashtags": [], "cashtags": [], "link": "https://twitter.com/EvaCopa_Bol/status/1201625705655754754", "retweet": false, "quote_url": "", "video": 0, "near": "", "geo": "", "source": "", "user_rt_id": "", "user_rt": "", "retweet_id": "", "reply_to": [{"user_id": "724695687515000832", "username": "EvaCopa_Bol"}], "retweet_date": "", "translate": "", "trans_src": "", "trans_dest": ""}
{"id": 1200057802229764097, "conversation_id": "1200057802229764097", "created_at": 1574951050000, "date": "2019-11-28", "time": "10:24:10", "timezone": "-04", "user_id": 724695687515000832, "username": "evacopa_bol", "name": "Eva Copa", "place": "", "tweet": "Gracias a @ATBRedNacional por la entrevista en @Anoticiando, Ramón Grimalt y Maria Duchen grandes periodistas, una entrevista amena y calida. \nHaremos lo posible para acelerar las elecciones y dejar un país en paz con nuevas autoridades, siempre velando por la patria. pic.twitter.com/Ma7HGuxPFp", "mentions": ["atbrednacional", "anoticiando"], "urls": [], "photos": ["https://pbs.twimg.com/media/EKd2MqJWoAADKu0.jpg", "https://pbs.twimg.com/media/EKd2NQ3XsAAMLG6.jpg"], "replies_count": 70, "retweets_count": 8, "likes_count": 105, "hashtags": [], "cashtags": [], "link": "https://twitter.com/EvaCopa_Bol/status/1200057802229764097", "retweet": false, "quote_url": "", "video": 0, "near": "", "geo": "", "source": "", "user_rt_id": "", "user_rt": "", "retweet_id": "", "reply_to": [{"user_id": "724695687515000832", "username": "EvaCopa_Bol"}, {"user_id": "2803958124", "username": "ATBRedNacional"}, {"user_id": "386725216", "username": "Anoticiando"}], "retweet_date": "", "translate": "", "trans_src": "", "trans_dest": ""}
