{"id": 1276939797550989312, "conversation_id": "1276939797550989312", "created_at": 1593281146000, "date": "2020-06-27", "time": "14:05:46", "timezone": "-04", "user_id": 720786569792253952, "username": "evoespueblo", "name": "Evo Morales Ayma", "place": "", "tweet": "El MAS-IPSP siempre rechazó que el @TSEBolivia financie campañas electorales de partidos pues la política es un compromiso voluntario, por lo que nos parece excelente modificar la ley para que, hoy, los recursos se destinen a medidas de bioseguridad para el día de elecciones.", "mentions": ["tsebolivia"], "urls": [], "photos": [], "replies_count": 138, "retweets_count": 268, "likes_count": 559, "hashtags": [], "cashtags": [], "link": "https://twitter.com/evoespueblo/status/1276939797550989312", "retweet": false, "quote_url": "", "video": 0, "near": "", "geo": "", "source": "", "user_rt_id": "", "user_rt": "", "retweet_id": "", "reply_to": [{"user_id": "720786569792253952", "username": "evoespueblo"}, {"user_id": "2375636744", "username": "TSEBolivia"}], "retweet_date": "", "translate": "", "trans_src": "", "trans_dest": ""}
{"id": 1276864868323405824, "conversation_id": "1276864868323405824", "created_at": 1593263282000, "date": "2020-06-27", "time": "09:08:02", "timezone": "-04", "user_id": 720786569792253952, "username": "evoespueblo", "name": "Evo Morales Ayma", "place": "", "tweet": "A 32 años de la Masacre de Villa Tunari, Cochabamba, recordamos a los 11 compañeros muertos por la soberanía en la violenta represión dirigida por la DEA.\nEl gobierno de facto de #Bolivia nos ha devuelto a esa época de sumisión y enfrentamiento entre hermanos. pic.twitter.com/hvG3XZ7uhA", "mentions": [], "urls": [], "photos": [], "replies_count": 105, "retweets_count": 363, "likes_count": 643, "hashtags": ["#bolivia"], "cashtags": [], "link": "https://twitter.com/evoespueblo/status/1276864868323405824", "retweet": false, "quote_url": "", "video": 1, "near": "", "geo": "", "source": "", "user_rt_id": "", "user_rt": "", "retweet_id": "", "reply_to": [{"user_id": "720786569792253952", "username": "evoespueblo"}], "retweet_date": "", "translate": "", "trans_src": "", "trans_dest": ""}
{"id": 1276850556498296832, "conversation_id": "1276850556498296832", "created_at": 1593259870000, "date": "2020-06-27", "time": "08:11:10", "timezone": "-04", "user_id": 720786569792253952, "username": "evoespueblo", "name": "Evo Morales Ayma", "place": "", "tweet": "Aplaudimos el acuerdo entre la Asamblea Legislativa y el Tribunal Supremo Electoral para que los recursos de la propaganda política se destinen a medidas de bioseguridad el 6 de septiembre, día de las elecciones generales para que todas y todos puedan participar sin riesgos.", "mentions": [], "urls": [], "photos": [], "replies_count": 174, "retweets_count": 538, "likes_count": 1177, "hashtags": [], "cashtags": [], "link": "https://twitter.com/evoespueblo/status/1276850556498296832", "retweet": false, "quote_url": "", "video": 0, "near": "", "geo": "", "source": "", "user_rt_id": "", "user_rt": "", "retweet_id": "", "reply_to": [{"user_id": "720786569792253952", "username": "evoespueblo"}], "retweet_date": "", "translate": "", "trans_src": "", "trans_dest": ""}
{"id": 1276594385526939649, "conversation_id": "1276594385526939649", "created_at": 1593198794000, "date": "2020-06-26", "time": "15:13:14", "timezone": "-04", "user_id": 720786569792253952, "username": "evoespueblo", "name": "Evo Morales Ayma", "place": "", "tweet": "En su natalicio, recordamos a #SalvadorAllende, presidente socialista de #Chile, que por nacionalizar la minería del cobre y llevar adelante la reforma agraria y las políticas sociales, fue derrocado por un golpe militar planificado por la CIA.\nSu legado de lucha continúa vigente pic.twitter.com/4V4oPNjbGg", "mentions": [], "urls": [], "photos": ["https://pbs.twimg.com/media/EbdfxolXgAAIeVJ.jpg"], "replies_count": 174, "retweets_count": 1085, "likes_count": 2282, "hashtags": ["#salvadorallende", "#chile"], "cashtags": [], "link": "https://twitter.com/evoespueblo/status/1276594385526939649", "retweet": false, "quote_url": "", "video": 0, "near": "", "geo": "", "source": "", "user_rt_id": "", "user_rt": "", "retweet_id": "", "reply_to": [{"user_id": "720786569792253952", "username": "evoespueblo"}], "retweet_date": "", "translate": "", "trans_src": "", "trans_dest": ""}
{"id": 1276552618165370884, "conversation_id": "1276552615141179392", "created_at": 1593188836000, "date": "2020-06-26", "time": "12:27:16", "timezone": "-04", "user_id": 720786569792253952, "username": "evoespueblo", "name": "Evo Morales Ayma", "place": "", "tweet": "Nada para el sector agropecuario y sí para las transnacionales; imponen “ajustes administrativos”. Como en la época de Paz Estenssoro y Sánchez de Lozada el objetivo es la privatización y las consecuencias: desempleo, pobreza y pérdida de soberanía.\n(2/2)", "mentions": [], "urls": [], "photos": [], "replies_count": 31, "retweets_count": 146, "likes_count": 337, "hashtags": [], "cashtags": [], "link": "https://twitter.com/evoespueblo/status/1276552618165370884", "retweet": false, "quote_url": "", "video": 0, "near": "", "geo": "", "source": "", "user_rt_id": "", "user_rt": "", "retweet_id": "", "reply_to": [{"user_id": "720786569792253952", "username": "evoespueblo"}], "retweet_date": "", "translate": "", "trans_src": "", "trans_dest": ""}
{"id": 1276552615141179392, "conversation_id": "1276552615141179392", "created_at": 1593188835000, "date": "2020-06-26", "time": "12:27:15", "timezone": "-04", "user_id": 720786569792253952, "username": "evoespueblo", "name": "Evo Morales Ayma", "place": "", "tweet": "Las medidas del gobierno de facto son el retorno del D.S. 21060. No son para reactivar la economía, sino para cumplir las recetas del FMI. No hay inversión para las empresas públicas, no hay nada de construcción sino “rehabilitación”.\n (1/2)", "mentions": [], "urls": [], "photos": [], "replies_count": 137, "retweets_count": 341, "likes_count": 744, "hashtags": [], "cashtags": [], "link": "https://twitter.com/evoespueblo/status/1276552615141179392", "retweet": false, "quote_url": "", "video": 0, "near": "", "geo": "", "source": "", "user_rt_id": "", "user_rt": "", "retweet_id": "", "reply_to": [{"user_id": "720786569792253952", "username": "evoespueblo"}], "retweet_date": "", "translate": "", "trans_src": "", "trans_dest": ""}
{"id": 1276527105036161025, "conversation_id": "1276527105036161025", "created_at": 1593182753000, "date": "2020-06-26", "time": "10:45:53", "timezone": "-04", "user_id": 720786569792253952, "username": "evoespueblo", "name": "Evo Morales Ayma", "place": "", "tweet": "La gloriosa Confederación Sindical Única de Trabajadores Campesinos de Bolivia - CSUTCB, organización más importante del movimiento indígena originario campesino de Bolivia, cumple 41 años de vida como trinchera de la defensa de la soberanía y dignidad del pueblo. pic.twitter.com/IDiTXGf5Pf", "mentions": [], "urls": [], "photos": [], "replies_count": 72, "retweets_count": 237, "likes_count": 587, "hashtags": [], "cashtags": [], "link": "https://twitter.com/evoespueblo/status/1276527105036161025", "retweet": false, "quote_url": "", "video": 1, "near": "", "geo": "", "source": "", "user_rt_id": "", "user_rt": "", "retweet_id": "", "reply_to": [{"user_id": "720786569792253952", "username": "evoespueblo"}], "retweet_date": "", "translate": "", "trans_src": "", "trans_dest": ""}
{"id": 1276486160655802369, "conversation_id": "1276486160655802369", "created_at": 1593172991000, "date": "2020-06-26", "time": "08:03:11", "timezone": "-04", "user_id": 720786569792253952, "username": "evoespueblo", "name": "Evo Morales Ayma", "place": "", "tweet": "Al conmemorarse el Día de la Lucha contra el Uso Indebido y el Tráfico Ilícito de Drogas, destacamos que Bolivia construyó un modelo que apeló al respeto de los DD.HH. y de la soberanía que fue aplaudido por la ONU. Hoy, el gobierno de facto vuelve al fracasado modelo de sumisión pic.twitter.com/IBe8nMqFTi", "mentions": [], "urls": [], "photos": ["https://pbs.twimg.com/media/Ebb9T8XXsAABPMO.jpg"], "replies_count": 239, "retweets_count": 274, "likes_count": 604, "hashtags": [], "cashtags": [], "link": "https://twitter.com/evoespueblo/status/1276486160655802369", "retweet": false, "quote_url": "", "video": 0, "near": "", "geo": "", "source": "", "user_rt_id": "", "user_rt": "", "retweet_id": "", "reply_to": [{"user_id": "720786569792253952", "username": "evoespueblo"}], "retweet_date": "", "translate": "", "trans_src": "", "trans_dest": ""}
{"id": 1276246216926429185, "conversation_id": "1276246216926429185", "created_at": 1593115784000, "date": "2020-06-25", "time": "16:09:44", "timezone": "-04", "user_id": 720786569792253952, "username": "evoespueblo", "name": "Evo Morales Ayma", "place": "", "tweet": "El gobierno de facto lanza reactivación \"económica electoral\" con recursos comprometidos para proyectos de industrialización soberana: petroquímica en el Chaco y litio en Potosí, truncados por el golpe de Estado del imperalismo contra el indio, el modelo económico y el litio. pic.twitter.com/d8Vq0rssV2", "mentions": [], "urls": [], "photos": ["https://pbs.twimg.com/media/EbYjI0QWoAAjVoQ.jpg"], "replies_count": 101, "retweets_count": 194, "likes_count": 453, "hashtags": [], "cashtags": [], "link": "https://twitter.com/evoespueblo/status/1276246216926429185", "retweet": false, "quote_url": "", "video": 0, "near": "", "geo": "", "source": "", "user_rt_id": "", "user_rt": "", "retweet_id": "", "reply_to": [{"user_id": "720786569792253952", "username": "evoespueblo"}], "retweet_date": "", "translate": "", "trans_src": "", "trans_dest": ""}
{"id": 1276219797697703938, "conversation_id": "1276219797697703938", "created_at": 1593109485000, "date": "2020-06-25", "time": "14:24:45", "timezone": "-04", "user_id": 720786569792253952, "username": "evoespueblo", "name": "Evo Morales Ayma", "place": "", "tweet": "En septiembre debemos recuperar la democracia, defender nuestras empresas estratégicas y reactivar la industrialización; así garantizaremos el futuro de nuestras hijas e hijos. Es nuestra responsabilidad no volver al pasado. pic.twitter.com/8Vpa1xCftn", "mentions": [], "urls": [], "photos": ["https://pbs.twimg.com/media/EbYLH7jXgAEJeCg.jpg"], "replies_count": 250, "retweets_count": 485, "likes_count": 1041, "hashtags": [], "cashtags": [], "link": "https://twitter.com/evoespueblo/status/1276219797697703938", "retweet": false, "quote_url": "", "video": 0, "near": "", "geo": "", "source": "", "user_rt_id": "", "user_rt": "", "retweet_id": "", "reply_to": [{"user_id": "720786569792253952", "username": "evoespueblo"}], "retweet_date": "", "translate": "", "trans_src": "", "trans_dest": ""}
{"id": 1276169863690620928, "conversation_id": "1276169863690620928", "created_at": 1593097580000, "date": "2020-06-25", "time": "11:06:20", "timezone": "-04", "user_id": 720786569792253952, "username": "evoespueblo", "name": "Evo Morales Ayma", "place": "", "tweet": "Fijada fecha de comicios, es importante un gran encuentro de Estado, empresarios, trabajadores y movimientos sociales para definir la agenda económica post pandemia. \nTodas y todos tenemos la enorme responsabilidad de garantizar estabilidad, producción y empleos ante la crisis.", "mentions": [], "urls": [], "photos": [], "replies_count": 184, "retweets_count": 441, "likes_count": 1124, "hashtags": [], "cashtags": [], "link": "https://twitter.com/evoespueblo/status/1276169863690620928", "retweet": false, "quote_url": "", "video": 0, "near": "", "geo": "", "source": "", "user_rt_id": "", "user_rt": "", "retweet_id": "", "reply_to": [{"user_id": "720786569792253952", "username": "evoespueblo"}], "retweet_date": "", "translate": "", "trans_src": "", "trans_dest": ""}
{"id": 1276132261751111680, "conversation_id": "1276132261751111680", "created_at": 1593088615000, "date": "2020-06-25", "time": "08:36:55", "timezone": "-04", "user_id": 720786569792253952, "username": "evoespueblo", "name": "Evo Morales Ayma", "place": "", "tweet": "Saludo la preocupación y solicitud del Comité de Expertas del Mecanismo de Seguimiento de la Convención de Belém do Pará (MESECVI) al Estado de Bolivia para una investigación imparcial sobre el caso de mi ex jefa de gabinete, Patricia Hermosa, presa política del gobierno de facto pic.twitter.com/iaesnm2G60", "mentions": [], "urls": [], "photos": ["https://pbs.twimg.com/media/EbW7fJrXQAATOkA.jpg"], "replies_count": 65, "retweets_count": 172, "likes_count": 436, "hashtags": [], "cashtags": [], "link": "https://twitter.com/evoespueblo/status/1276132261751111680", "retweet": false, "quote_url": "", "video": 0, "near": "", "geo": "", "source": "", "user_rt_id": "", "user_rt": "", "retweet_id": "", "reply_to": [{"user_id": "720786569792253952", "username": "evoespueblo"}], "retweet_date": "", "translate": "", "trans_src": "", "trans_dest": ""}
{"id": 1275929068253446145, "conversation_id": "1275929068253446145", "created_at": 1593040170000, "date": "2020-06-24", "time": "19:09:30", "timezone": "-04", "user_id": 720786569792253952, "username": "evoespueblo", "name": "Evo Morales Ayma", "place": "", "tweet": "Mis condolencias y solidaridad con la familia, colegas y militantes de Columna Sur por el fallecimiento de nuestro hermano, Dr. Roger Layme Salguero, médico graduado en la ELAM de Cuba. Lamento la pérdida de un joven revolucionario que murió salvando la vida de los otros. pic.twitter.com/NFRWIj6sHw", "mentions": [], "urls": [], "photos": ["https://pbs.twimg.com/media/EbUCtodX0AA3bVQ.jpg"], "replies_count": 75, "retweets_count": 394, "likes_count": 951, "hashtags": [], "cashtags": [], "link": "https://twitter.com/evoespueblo/status/1275929068253446145", "retweet": false, "quote_url": "", "video": 0, "near": "", "geo": "", "source": "", "user_rt_id": "", "user_rt": "", "retweet_id": "", "reply_to": [{"user_id": "720786569792253952", "username": "evoespueblo"}], "retweet_date": "", "translate": "", "trans_src": "", "trans_dest": ""}
{"id": 1275918390625009664, "conversation_id": "1275918390625009664", "created_at": 1593037624000, "date": "2020-06-24", "time": "18:27:04", "timezone": "-04", "user_id": 720786569792253952, "username": "evoespueblo", "name": "Evo Morales Ayma", "place": "", "tweet": "El Gran Mariscal Antonio José de Sucre creó la Policía Boliviana, en 1826, con una alta visión de servicio al orden institucional y al pueblo que cumplen con sacrificio buenos policías, a los cuales felicito hoy, pero es lamentable la subordinación corrupta de algunos jefes. pic.twitter.com/WBAtormh7d", "mentions": [], "urls": [], "photos": ["https://pbs.twimg.com/media/EbT5ASVWoAIMHdQ.jpg"], "replies_count": 145, "retweets_count": 311, "likes_count": 726, "hashtags": [], "cashtags": [], "link": "https://twitter.com/evoespueblo/status/1275918390625009664", "retweet": false, "quote_url": "", "video": 0, "near": "", "geo": "", "source": "", "user_rt_id": "", "user_rt": "", "retweet_id": "", "reply_to": [{"user_id": "720786569792253952", "username": "evoespueblo"}], "retweet_date": "", "translate": "", "trans_src": "", "trans_dest": ""}
{"id": 1275834750167588865, "conversation_id": "1275834750167588865", "created_at": 1593017682000, "date": "2020-06-24", "time": "12:54:42", "timezone": "-04", "user_id": 720786569792253952, "username": "evoespueblo", "name": "Evo Morales Ayma", "place": "", "tweet": "Se llama Ayni a la solidaridad y a la complementariedad de compañeros de Cochabamba que recolectaron alimentos para devolver el gesto del Trópico que semanas atrás llevó frutas; sin embargo, el gobierno de facto detiene a los solidarios; eso se llama terrorismo de Estado.", "mentions": [], "urls": [], "photos": [], "replies_count": 174, "retweets_count": 636, "likes_count": 1301, "hashtags": [], "cashtags": [], "link": "https://twitter.com/evoespueblo/status/1275834750167588865", "retweet": false, "quote_url": "", "video": 0, "near": "", "geo": "", "source": "", "user_rt_id": "", "user_rt": "", "retweet_id": "", "reply_to": [{"user_id": "720786569792253952", "username": "evoespueblo"}], "retweet_date": "", "translate": "", "trans_src": "", "trans_dest": ""}
{"id": 1275776602803245061, "conversation_id": "1275776602803245061", "created_at": 1593003819000, "date": "2020-06-24", "time": "09:03:39", "timezone": "-04", "user_id": 720786569792253952, "username": "evoespueblo", "name": "Evo Morales Ayma", "place": "", "tweet": "Es inhumano que gobierno de facto deje a cerca de 50 compatriotas en frontera con Brasil, mientras usa aviones de BoA para sacar del país rumbo a EE.UU. a hijas y yernos.\nMujeres, niños y ancianos duermen sobre un puente, sin alimentos ni ayuda de Cancillería, desde hace 12 días. pic.twitter.com/80XFIKGURU", "mentions": [], "urls": [], "photos": ["https://pbs.twimg.com/media/EbR4CZIWoAINODl.jpg", "https://pbs.twimg.com/media/EbR4DUlWkAEjkiU.jpg"], "replies_count": 162, "retweets_count": 475, "likes_count": 765, "hashtags": [], "cashtags": [], "link": "https://twitter.com/evoespueblo/status/1275776602803245061", "retweet": false, "quote_url": "", "video": 0, "near": "", "geo": "", "source": "", "user_rt_id": "", "user_rt": "", "retweet_id": "", "reply_to": [{"user_id": "720786569792253952", "username": "evoespueblo"}], "retweet_date": "", "translate": "", "trans_src": "", "trans_dest": ""}
{"id": 1275763328799948800, "conversation_id": "1275763328799948800", "created_at": 1593000654000, "date": "2020-06-24", "time": "08:10:54", "timezone": "-04", "user_id": 720786569792253952, "username": "evoespueblo", "name": "Evo Morales Ayma", "place": "", "tweet": "Como ya lo denunciamos, por presiones políticas y amenazas del gobierno de facto, el Tribunal Electoral Departamental de Santa Cruz reformuló su querella por el falso caso del fraude en elecciones 2019 e \"identificó\" forzada e ilegalmente a \"autores\", violando la Constitución.", "mentions": [], "urls": [], "photos": [], "replies_count": 289, "retweets_count": 861, "likes_count": 1616, "hashtags": [], "cashtags": [], "link": "https://twitter.com/evoespueblo/status/1275763328799948800", "retweet": false, "quote_url": "", "video": 0, "near": "", "geo": "", "source": "", "user_rt_id": "", "user_rt": "", "retweet_id": "", "reply_to": [{"user_id": "720786569792253952", "username": "evoespueblo"}], "retweet_date": "", "translate": "", "trans_src": "", "trans_dest": ""}
{"id": 1275640477577027586, "conversation_id": "1275640477577027586", "created_at": 1592971364000, "date": "2020-06-24", "time": "00:02:44", "timezone": "-04", "user_id": 720786569792253952, "username": "evoespueblo", "name": "Evo Morales Ayma", "place": "", "tweet": "El 24 de junio de 1967 fue la masacre de San Juan en campamentos mineros de Siglo XX, dictadura de Barrientos, que dejó 87 muertos; héroes que acompañan, hoy, a 38 mártires por la democracia de masacres de Sacaba, Senkata y Pedregal, 2019, de dictadura de Áñez, Camacho y Mesa. pic.twitter.com/XqLCQvtqpo", "mentions": [], "urls": [], "photos": [], "replies_count": 133, "retweets_count": 460, "likes_count": 896, "hashtags": [], "cashtags": [], "link": "https://twitter.com/evoespueblo/status/1275640477577027586", "retweet": false, "quote_url": "", "video": 1, "near": "", "geo": "", "source": "", "user_rt_id": "", "user_rt": "", "retweet_id": "", "reply_to": [{"user_id": "720786569792253952", "username": "evoespueblo"}], "retweet_date": "", "translate": "", "trans_src": "", "trans_dest": ""}
{"id": 1275529173252157440, "conversation_id": "1275529173252157440", "created_at": 1592944827000, "date": "2020-06-23", "time": "16:40:27", "timezone": "-04", "user_id": 720786569792253952, "username": "evoespueblo", "name": "Evo Morales Ayma", "place": "", "tweet": "Acompaño con mi solidaridad y afecto al gobierno y al pueblo mexicanos a los cuales llevo en mi corazón, y les envío fuerzas en estos momentos tan difíciles de desastres naturales en los que es importante la unidad entre hermanos.\n\n#TerremotoMéxico pic.twitter.com/1wtPLVA6Iu", "mentions": [], "urls": [], "photos": ["https://pbs.twimg.com/media/EbOW88oXsAAhq77.jpg"], "replies_count": 335, "retweets_count": 1541, "likes_count": 4485, "hashtags": ["#terremotoméxico"], "cashtags": [], "link": "https://twitter.com/evoespueblo/status/1275529173252157440", "retweet": false, "quote_url": "", "video": 0, "near": "", "geo": "", "source": "", "user_rt_id": "", "user_rt": "", "retweet_id": "", "reply_to": [{"user_id": "720786569792253952", "username": "evoespueblo"}], "retweet_date": "", "translate": "", "trans_src": "", "trans_dest": ""}
{"id": 1275477361199394816, "conversation_id": "1275477361199394816", "created_at": 1592932474000, "date": "2020-06-23", "time": "13:14:34", "timezone": "-04", "user_id": 720786569792253952, "username": "evoespueblo", "name": "Evo Morales Ayma", "place": "", "tweet": "Con las nuevas detenciones, el gobierno de facto demuestra que está más preocupado por la política que por la vida.\nLos hermanos Lucy Sara Escóbar, Remmy Fernández y Osvaldo Gareca llevaban ayuda humanitaria e insumos de bioseguridad al Trópico para enfrentar la pandemia. pic.twitter.com/8z6y8HQGCx", "mentions": [], "urls": [], "photos": [], "replies_count": 189, "retweets_count": 338, "likes_count": 544, "hashtags": [], "cashtags": [], "link": "https://twitter.com/evoespueblo/status/1275477361199394816", "retweet": false, "quote_url": "", "video": 1, "near": "", "geo": "", "source": "", "user_rt_id": "", "user_rt": "", "retweet_id": "", "reply_to": [{"user_id": "720786569792253952", "username": "evoespueblo"}], "retweet_date": "", "translate": "", "trans_src": "", "trans_dest": ""}
{"id": 1275443042846044165, "conversation_id": "1275443042846044165", "created_at": 1592924292000, "date": "2020-06-23", "time": "10:58:12", "timezone": "-04", "user_id": 720786569792253952, "username": "evoespueblo", "name": "Evo Morales Ayma", "place": "", "tweet": "La mejor vacuna para la vida y la economía de #Bolivia es la democracia que garantiza tanto los Derechos individuales y colectivos como los constitucionales.\nEl pueblo es tan sabio que definirá en las urnas su esperanza y su porvenir.", "mentions": [], "urls": [], "photos": [], "replies_count": 279, "retweets_count": 402, "likes_count": 965, "hashtags": ["#bolivia"], "cashtags": [], "link": "https://twitter.com/evoespueblo/status/1275443042846044165", "retweet": false, "quote_url": "", "video": 0, "near": "", "geo": "", "source": "", "user_rt_id": "", "user_rt": "", "retweet_id": "", "reply_to": [{"user_id": "720786569792253952", "username": "evoespueblo"}], "retweet_date": "", "translate": "", "trans_src": "", "trans_dest": ""}
{"id": 1275441541905973250, "conversation_id": "1275441038681706496", "created_at": 1592923934000, "date": "2020-06-23", "time": "10:52:14", "timezone": "-04", "user_id": 720786569792253952, "username": "evoespueblo", "name": "Evo Morales Ayma", "place": "", "tweet": "Quienes ayudan solidariamente en la lucha contra el Coronavirus en #Bolivia son criminalizados, detenidos y enjuiciados, lo cual muestra que al gobierno de facto no le interesa y tampoco acepta estos esfuerzos espontáneos del pueblo porque no lo conoce y le teme.", "mentions": [], "urls": [], "photos": [], "replies_count": 51, "retweets_count": 226, "likes_count": 441, "hashtags": ["#bolivia"], "cashtags": [], "link": "https://twitter.com/evoespueblo/status/1275441541905973250", "retweet": false, "quote_url": "", "video": 0, "near": "", "geo": "", "source": "", "user_rt_id": "", "user_rt": "", "retweet_id": "", "reply_to": [{"user_id": "720786569792253952", "username": "evoespueblo"}], "retweet_date": "", "translate": "", "trans_src": "", "trans_dest": ""}
{"id": 1275441038681706496, "conversation_id": "1275441038681706496", "created_at": 1592923814000, "date": "2020-06-23", "time": "10:50:14", "timezone": "-04", "user_id": 720786569792253952, "username": "evoespueblo", "name": "Evo Morales Ayma", "place": "", "tweet": "Denunciamos la detención ilegal por agentes civiles, hoy, en Cochabamba, de candidata a senadora por MAS, Lucy Sara Escóbar, Remmy Fernández y Osvaldo Gareca, de la Coordinadora Popular por Democracia tras rueda de prensa por envío de equipos bioseguridad y alimentos al Trópico.", "mentions": [], "urls": [], "photos": [], "replies_count": 189, "retweets_count": 1396, "likes_count": 1892, "hashtags": [], "cashtags": [], "link": "https://twitter.com/evoespueblo/status/1275441038681706496", "retweet": false, "quote_url": "", "video": 0, "near": "", "geo": "", "source": "", "user_rt_id": "", "user_rt": "", "retweet_id": "", "reply_to": [{"user_id": "720786569792253952", "username": "evoespueblo"}], "retweet_date": "", "translate": "", "trans_src": "", "trans_dest": ""}
{"id": 1275383811963060226, "conversation_id": "1275383811963060226", "created_at": 1592910170000, "date": "2020-06-23", "time": "07:02:50", "timezone": "-04", "user_id": 720786569792253952, "username": "evoespueblo", "name": "Evo Morales Ayma", "place": "", "tweet": "El nivel de desprestigio al que el gobierno de facto ha llevado a nuestra política exterior solo se veía en la época neoliberalismo. Sigue a EE.UU. en su plan contra la integración de América Latina: destruir UNASUR, paralizar CELAC, sumarse al grupo de Lima y ahora dañar al BID.", "mentions": [], "urls": [], "photos": [], "replies_count": 169, "retweets_count": 691, "likes_count": 1284, "hashtags": [], "cashtags": [], "link": "https://twitter.com/evoespueblo/status/1275383811963060226", "retweet": false, "quote_url": "", "video": 0, "near": "", "geo": "", "source": "", "user_rt_id": "", "user_rt": "", "retweet_id": "", "reply_to": [{"user_id": "720786569792253952", "username": "evoespueblo"}], "retweet_date": "", "translate": "", "trans_src": "", "trans_dest": ""}
{"id": 1275163880340295682, "conversation_id": "1275163880340295682", "created_at": 1592857735000, "date": "2020-06-22", "time": "16:28:55", "timezone": "-04", "user_id": 720786569792253952, "username": "evoespueblo", "name": "Evo Morales Ayma", "place": "", "tweet": "Mary Luz Salazar, otra valiente enfermera que ayuda a salvar vidas en un centro médico del Plan Tres Mil, en Santa Cruz, un ejemplo de compromiso por la vida del prójimo.\nNuestro reconocimiento a su sacrificio. pic.twitter.com/CsFbayuNQ3", "mentions": [], "urls": [], "photos": ["https://pbs.twimg.com/media/EbJKyM_XYAAocVc.jpg"], "replies_count": 381, "retweets_count": 294, "likes_count": 929, "hashtags": [], "cashtags": [], "link": "https://twitter.com/evoespueblo/status/1275163880340295682", "retweet": false, "quote_url": "", "video": 0, "near": "", "geo": "", "source": "", "user_rt_id": "", "user_rt": "", "retweet_id": "", "reply_to": [{"user_id": "720786569792253952", "username": "evoespueblo"}], "retweet_date": "", "translate": "", "trans_src": "", "trans_dest": ""}
{"id": 1275118202775900160, "conversation_id": "1275118202775900160", "created_at": 1592846844000, "date": "2020-06-22", "time": "13:27:24", "timezone": "-04", "user_id": 720786569792253952, "username": "evoespueblo", "name": "Evo Morales Ayma", "place": "", "tweet": "Bajo la lluvia y con un enorme sacrificio, una enfermera se dirige en bicicleta a un hospital en Santa Cruz.\nLos profesionales de la salud muestran valor y sacrificio en lucha contra pandemia en #Bolivia.\nEl Estado debería apoyarlos con transporte en estas contingencias. pic.twitter.com/QkOkBUlncn", "mentions": [], "urls": [], "photos": ["https://pbs.twimg.com/media/EbIhPD8X0AAumIB.jpg"], "replies_count": 1075, "retweets_count": 861, "likes_count": 1925, "hashtags": ["#bolivia"], "cashtags": [], "link": "https://twitter.com/evoespueblo/status/1275118202775900160", "retweet": false, "quote_url": "", "video": 0, "near": "", "geo": "", "source": "", "user_rt_id": "", "user_rt": "", "retweet_id": "", "reply_to": [{"user_id": "720786569792253952", "username": "evoespueblo"}], "retweet_date": "", "translate": "", "trans_src": "", "trans_dest": ""}
{"id": 1275104263014932482, "conversation_id": "1275104263014932482", "created_at": 1592843521000, "date": "2020-06-22", "time": "12:32:01", "timezone": "-04", "user_id": 720786569792253952, "username": "evoespueblo", "name": "Evo Morales Ayma", "place": "", "tweet": "Volveremos millones y devolveremos la libertad y la dignidad al pueblo boliviano. pic.twitter.com/PzUJ9qRQ5I", "mentions": [], "urls": [], "photos": [], "replies_count": 1587, "retweets_count": 3524, "likes_count": 9510, "hashtags": [], "cashtags": [], "link": "https://twitter.com/evoespueblo/status/1275104263014932482", "retweet": false, "quote_url": "", "video": 1, "near": "", "geo": "", "source": "", "user_rt_id": "", "user_rt": "", "retweet_id": "", "reply_to": [{"user_id": "720786569792253952", "username": "evoespueblo"}], "retweet_date": "", "translate": "", "trans_src": "", "trans_dest": ""}
{"id": 1275098241005215745, "conversation_id": "1275098241005215745", "created_at": 1592842085000, "date": "2020-06-22", "time": "12:08:05", "timezone": "-04", "user_id": 720786569792253952, "username": "evoespueblo", "name": "Evo Morales Ayma", "place": "", "tweet": "Las graves denuncias del Monseñor Eugenio Coter sobre la presencia de narcotraficantes en Bella Vista, Beni, que operan a vista de autoridades de la región y sin que el gobierno de facto intervenga, muestra la doble moral de su supuesta \"lucha\" contra el narcotráfico. pic.twitter.com/6aXGbhQYX3", "mentions": [], "urls": [], "photos": ["https://pbs.twimg.com/media/EbIPFQJWkAEEpWX.jpg"], "replies_count": 189, "retweets_count": 240, "likes_count": 479, "hashtags": [], "cashtags": [], "link": "https://twitter.com/evoespueblo/status/1275098241005215745", "retweet": false, "quote_url": "", "video": 0, "near": "", "geo": "", "source": "", "user_rt_id": "", "user_rt": "", "retweet_id": "", "reply_to": [{"user_id": "720786569792253952", "username": "evoespueblo"}], "retweet_date": "", "translate": "", "trans_src": "", "trans_dest": ""}
{"id": 1275044645777661953, "conversation_id": "1275044645777661953", "created_at": 1592829307000, "date": "2020-06-22", "time": "08:35:07", "timezone": "-04", "user_id": 720786569792253952, "username": "evoespueblo", "name": "Evo Morales Ayma", "place": "", "tweet": "Es vergonzosa la sumisión del gobierno de facto a las instituciones del gobierno de Trump. #Bolivia debe recuperar la democracia para que también recuperemos la dignidad de nuestra política exterior. https://www.la-razon.com/economia/2020/06/21/el-gobierno-de-bolivia-se-decanta-por-el-candidato-al-bid-propuesto-por-trump/?amp=1&__twitter_impression=true …", "mentions": [], "urls": ["https://www.la-razon.com/economia/2020/06/21/el-gobierno-de-bolivia-se-decanta-por-el-candidato-al-bid-propuesto-por-trump/?amp=1&__twitter_impression=true"], "photos": [], "replies_count": 178, "retweets_count": 513, "likes_count": 1021, "hashtags": ["#bolivia"], "cashtags": [], "link": "https://twitter.com/evoespueblo/status/1275044645777661953", "retweet": false, "quote_url": "", "video": 0, "near": "", "geo": "", "source": "", "user_rt_id": "", "user_rt": "", "retweet_id": "", "reply_to": [{"user_id": "720786569792253952", "username": "evoespueblo"}], "retweet_date": "", "translate": "", "trans_src": "", "trans_dest": ""}
{"id": 1275033800230277120, "conversation_id": "1275033800230277120", "created_at": 1592826721000, "date": "2020-06-22", "time": "07:52:01", "timezone": "-04", "user_id": 720786569792253952, "username": "evoespueblo", "name": "Evo Morales Ayma", "place": "", "tweet": "El gobierno de facto dirige a ciegas la pandemia. Cambiaron a tres ministros de salud y abandonaron a las gobernaciones y alcaldías. Ahora se contradicen a cada paso. Por la salud del pueblo debemos tener elecciones. pic.twitter.com/6u12eTeAeb", "mentions": [], "urls": [], "photos": ["https://pbs.twimg.com/media/EbHUeT-WkAAmpwH.jpg", "https://pbs.twimg.com/media/EbHUembWsAEuiuu.jpg", "https://pbs.twimg.com/media/EbHUe8PXQAI0wga.jpg"], "replies_count": 158, "retweets_count": 419, "likes_count": 734, "hashtags": [], "cashtags": [], "link": "https://twitter.com/evoespueblo/status/1275033800230277120", "retweet": false, "quote_url": "", "video": 0, "near": "", "geo": "", "source": "", "user_rt_id": "", "user_rt": "", "retweet_id": "", "reply_to": [{"user_id": "720786569792253952", "username": "evoespueblo"}], "retweet_date": "", "translate": "", "trans_src": "", "trans_dest": ""}
{"id": 1274877075242000384, "conversation_id": "1274877075242000384", "created_at": 1592789355000, "date": "2020-06-21", "time": "21:29:15", "timezone": "-04", "user_id": 720786569792253952, "username": "evoespueblo", "name": "Evo Morales Ayma", "place": "", "tweet": "Con fecha fijada, corresponde, ahora, a los órganos del Estado garantizar elecciones limpias y transparentes, preservando la salud y el derecho a una participación sin persecuciones políticas. Que sea el pueblo el que defina democráticamente el destino de nuestra querida #Bolivia pic.twitter.com/90xvkWgYhA", "mentions": [], "urls": [], "photos": ["https://pbs.twimg.com/media/EbFF7r_WkAIoRUM.jpg"], "replies_count": 810, "retweets_count": 905, "likes_count": 2208, "hashtags": ["#bolivia"], "cashtags": [], "link": "https://twitter.com/evoespueblo/status/1274877075242000384", "retweet": false, "quote_url": "", "video": 0, "near": "", "geo": "", "source": "", "user_rt_id": "", "user_rt": "", "retweet_id": "", "reply_to": [{"user_id": "720786569792253952", "username": "evoespueblo"}], "retweet_date": "", "translate": "", "trans_src": "", "trans_dest": ""}
{"id": 1274757736610349060, "conversation_id": "1274752538059976704", "created_at": 1592760902000, "date": "2020-06-21", "time": "13:35:02", "timezone": "-04", "user_id": 720786569792253952, "username": "evoespueblo", "name": "Evo Morales Ayma", "place": "", "tweet": "Comandante de FF.AA. instruyó que licenciamiento de quienes prestan servicio militar a junio se prolongue hasta octubre y que promoción de nuevos subtenientes de diciembre se adelante a octubre. Padres de familia deberían estar atentos. ¿Qué prepara en octubre gobierno de facto?", "mentions": [], "urls": [], "photos": [], "replies_count": 52, "retweets_count": 242, "likes_count": 445, "hashtags": [], "cashtags": [], "link": "https://twitter.com/evoespueblo/status/1274757736610349060", "retweet": false, "quote_url": "", "video": 0, "near": "", "geo": "", "source": "", "user_rt_id": "", "user_rt": "", "retweet_id": "", "reply_to": [{"user_id": "720786569792253952", "username": "evoespueblo"}], "retweet_date": "", "translate": "", "trans_src": "", "trans_dest": ""}
{"id": 1274755540971933697, "conversation_id": "1274752538059976704", "created_at": 1592760379000, "date": "2020-06-21", "time": "13:26:19", "timezone": "-04", "user_id": 720786569792253952, "username": "evoespueblo", "name": "Evo Morales Ayma", "place": "", "tweet": "El pueblo no caerá en el juego del gobierno de facto que lo provoca con acusaciones falsas de terroristas, de cometer \"atentados\" contra antenas y Misicuni pues busca convulsión, reprimir y postergar comicios. Felicito a los hermanos que hacen vigilia cuidando bienes del Estado.", "mentions": [], "urls": [], "photos": [], "replies_count": 66, "retweets_count": 300, "likes_count": 669, "hashtags": [], "cashtags": [], "link": "https://twitter.com/evoespueblo/status/1274755540971933697", "retweet": false, "quote_url": "", "video": 0, "near": "", "geo": "", "source": "", "user_rt_id": "", "user_rt": "", "retweet_id": "", "reply_to": [{"user_id": "720786569792253952", "username": "evoespueblo"}], "retweet_date": "", "translate": "", "trans_src": "", "trans_dest": ""}
{"id": 1274752538059976704, "conversation_id": "1274752538059976704", "created_at": 1592759663000, "date": "2020-06-21", "time": "13:14:23", "timezone": "-04", "user_id": 720786569792253952, "username": "evoespueblo", "name": "Evo Morales Ayma", "place": "", "tweet": "Reitero mi denuncia de que se planifica un nuevo golpe de Estado contra la Asamblea Legislativa y organizaciones sociales y sindicales que no pudieron liquidar en noviembre, y acusan al MAS de terrorista y a los movimientos de golpistas cuando somos de cultura de paz y elecciones", "mentions": [], "urls": [], "photos": [], "replies_count": 322, "retweets_count": 1667, "likes_count": 2746, "hashtags": [], "cashtags": [], "link": "https://twitter.com/evoespueblo/status/1274752538059976704", "retweet": false, "quote_url": "", "video": 0, "near": "", "geo": "", "source": "", "user_rt_id": "", "user_rt": "", "retweet_id": "", "reply_to": [{"user_id": "720786569792253952", "username": "evoespueblo"}], "retweet_date": "", "translate": "", "trans_src": "", "trans_dest": ""}
{"id": 1274743365523906560, "conversation_id": "1274743365523906560", "created_at": 1592757476000, "date": "2020-06-21", "time": "12:37:56", "timezone": "-04", "user_id": 720786569792253952, "username": "evoespueblo", "name": "Evo Morales Ayma", "place": "", "tweet": "La reactivación económica no se hace con represión y detenciones ni paralizando el funcionamiento de proyectos y empresas públicas o cerrando ministerios y embajadas, menos con sometimiento al FMI. Se logra con programas económicos y sociales; son diferencias ideológicas.", "mentions": [], "urls": [], "photos": [], "replies_count": 115, "retweets_count": 367, "likes_count": 825, "hashtags": [], "cashtags": [], "link": "https://twitter.com/evoespueblo/status/1274743365523906560", "retweet": false, "quote_url": "", "video": 0, "near": "", "geo": "", "source": "", "user_rt_id": "", "user_rt": "", "retweet_id": "", "reply_to": [{"user_id": "720786569792253952", "username": "evoespueblo"}], "retweet_date": "", "translate": "", "trans_src": "", "trans_dest": ""}
{"id": 1274729509036740608, "conversation_id": "1274729509036740608", "created_at": 1592754172000, "date": "2020-06-21", "time": "11:42:52", "timezone": "-04", "user_id": 720786569792253952, "username": "evoespueblo", "name": "Evo Morales Ayma", "place": "", "tweet": "Áñez dice que la vida es su prioridad  pero aprobó decretos que autorizan masacre. \nEste régimen nos mata con bala, con hambre pero también con su incapacidad frente a la crisis sanitaria. \nAsí, el peor enemigo de la vida y de la economía es la pandemia llamada gobierno de facto.", "mentions": [], "urls": [], "photos": [], "replies_count": 403, "retweets_count": 1133, "likes_count": 2364, "hashtags": [], "cashtags": [], "link": "https://twitter.com/evoespueblo/status/1274729509036740608", "retweet": false, "quote_url": "", "video": 0, "near": "", "geo": "", "source": "", "user_rt_id": "", "user_rt": "", "retweet_id": "", "reply_to": [{"user_id": "720786569792253952", "username": "evoespueblo"}], "retweet_date": "", "translate": "", "trans_src": "", "trans_dest": ""}
{"id": 1274633117647671296, "conversation_id": "1274632063178682369", "created_at": 1592731191000, "date": "2020-06-21", "time": "05:19:51", "timezone": "-04", "user_id": 720786569792253952, "username": "evoespueblo", "name": "Evo Morales Ayma", "place": "", "tweet": "La ONU reconoció al 21 de junio como Día Internacional de la Celebración del Solsticio que festejamos desde tiempos ancestrales los pueblos del Abya Yala, y en #Bolivia también como un nuevo año Andino Amazónico y del Chaco.  \nSigamos defendiendo nuestra identidad y tradiciones.", "mentions": [], "urls": [], "photos": [], "replies_count": 32, "retweets_count": 161, "likes_count": 543, "hashtags": ["#bolivia"], "cashtags": [], "link": "https://twitter.com/evoespueblo/status/1274633117647671296", "retweet": false, "quote_url": "", "video": 0, "near": "", "geo": "", "source": "", "user_rt_id": "", "user_rt": "", "retweet_id": "", "reply_to": [{"user_id": "720786569792253952", "username": "evoespueblo"}], "retweet_date": "", "translate": "", "trans_src": "", "trans_dest": ""}
{"id": 1274632063178682369, "conversation_id": "1274632063178682369", "created_at": 1592730940000, "date": "2020-06-21", "time": "05:15:40", "timezone": "-04", "user_id": 720786569792253952, "username": "evoespueblo", "name": "Evo Morales Ayma", "place": "", "tweet": "Recibamos con esperanza el Año Nuevo Andino Amazónico y del Chaco, y que los rayos de sol que llegan, hoy, nos bendigan y den la energía en este nuevo ciclo que comienza para que la democracia vuelva a nuestra querida #Bolivia y garantice estabilidad política, económica y social. pic.twitter.com/JXnRWB3sNI", "mentions": [], "urls": [], "photos": [], "replies_count": 218, "retweets_count": 720, "likes_count": 1708, "hashtags": ["#bolivia"], "cashtags": [], "link": "https://twitter.com/evoespueblo/status/1274632063178682369", "retweet": false, "quote_url": "", "video": 1, "near": "", "geo": "", "source": "", "user_rt_id": "", "user_rt": "", "retweet_id": "", "reply_to": [{"user_id": "720786569792253952", "username": "evoespueblo"}], "retweet_date": "", "translate": "", "trans_src": "", "trans_dest": ""}
