{"id": 1276900854071791616, "conversation_id": "1276900854071791616", "created_at": 1593271861000, "date": "2020-06-27", "time": "11:31:01", "timezone": "-04", "user_id": 1222273871488917504, "username": "luchoxbolivia", "name": "Luis Arce Catacora (Lucho Arce)", "place": "", "tweet": "En este momento estamos dialogando en Radio San Gabriel @pueblo_aymara\n http://radiosangabriel.org.bo/rsg/  pic.twitter.com/6qN8AoKrDY", "mentions": ["pueblo_aymara"], "urls": ["http://radiosangabriel.org.bo/rsg/"], "photos": ["https://pbs.twimg.com/media/Ebh2jnDWsAI7vmi.jpg"], "replies_count": 13, "retweets_count": 40, "likes_count": 156, "hashtags": [], "cashtags": [], "link": "https://twitter.com/LuchoXBolivia/status/1276900854071791616", "retweet": false, "quote_url": "", "video": 0, "near": "", "geo": "", "source": "", "user_rt_id": "", "user_rt": "", "retweet_id": "", "reply_to": [{"user_id": "1222273871488917504", "username": "LuchoXBolivia"}, {"user_id": "468402649", "username": "pueblo_aymara"}], "retweet_date": "", "translate": "", "trans_src": "", "trans_dest": ""}
{"id": 1276870761341423616, "conversation_id": "1276870761341423616", "created_at": 1593264687000, "date": "2020-06-27", "time": "09:31:27", "timezone": "-04", "user_id": 1222273871488917504, "username": "luchoxbolivia", "name": "Luis Arce Catacora (Lucho Arce)", "place": "", "tweet": "El Plan de Hospitales en proceso de licitación y verificación de condiciones previas, con recursos comprometidos, incluía la construcción de nosocomios en Camiri y San Ignacio de Velasco. Me disculpo por la equivocación de mencionarlos como parte de los construidos.", "mentions": [], "urls": [], "photos": [], "replies_count": 210, "retweets_count": 122, "likes_count": 427, "hashtags": [], "cashtags": [], "link": "https://twitter.com/LuchoXBolivia/status/1276870761341423616", "retweet": false, "quote_url": "", "video": 0, "near": "", "geo": "", "source": "", "user_rt_id": "", "user_rt": "", "retweet_id": "", "reply_to": [{"user_id": "1222273871488917504", "username": "LuchoXBolivia"}], "retweet_date": "", "translate": "", "trans_src": "", "trans_dest": ""}
{"id": 1276629415590604802, "conversation_id": "1276629415590604802", "created_at": 1593207145000, "date": "2020-06-26", "time": "17:32:25", "timezone": "-04", "user_id": 1222273871488917504, "username": "luchoxbolivia", "name": "Luis Arce Catacora (Lucho Arce)", "place": "", "tweet": "EN INSTANTES hablaremos en la facultad de Ciencias Económicas y Financieras de la UMSA sobre las “Consecuencias económicas y sociales de la pandemia en #Bolivia”.\nSe puede ver en vivo en  https://bit.ly/3i84SQL  pic.twitter.com/tPQwEchWFb", "mentions": [], "urls": ["https://bit.ly/3i84SQL"], "photos": ["https://pbs.twimg.com/media/Ebd_qvsXYAInsqX.jpg"], "replies_count": 28, "retweets_count": 51, "likes_count": 218, "hashtags": ["#bolivia"], "cashtags": [], "link": "https://twitter.com/LuchoXBolivia/status/1276629415590604802", "retweet": false, "quote_url": "", "video": 0, "near": "", "geo": "", "source": "", "user_rt_id": "", "user_rt": "", "retweet_id": "", "reply_to": [{"user_id": "1222273871488917504", "username": "LuchoXBolivia"}], "retweet_date": "", "translate": "", "trans_src": "", "trans_dest": ""}
{"id": 1276575310931210240, "conversation_id": "1276575310931210240", "created_at": 1593194246000, "date": "2020-06-26", "time": "13:57:26", "timezone": "-04", "user_id": 1222273871488917504, "username": "luchoxbolivia", "name": "Luis Arce Catacora (Lucho Arce)", "place": "", "tweet": "Los invitamos a sumarse a nuestro canal de Telegram\n➡️  https://t.me/LuchoXBolivia  pic.twitter.com/LWtibLqGDC", "mentions": [], "urls": ["https://t.me/LuchoXBolivia"], "photos": ["https://pbs.twimg.com/media/EbdOdjyXYAAB4ib.jpg"], "replies_count": 99, "retweets_count": 166, "likes_count": 671, "hashtags": [], "cashtags": [], "link": "https://twitter.com/LuchoXBolivia/status/1276575310931210240", "retweet": false, "quote_url": "", "video": 0, "near": "", "geo": "", "source": "", "user_rt_id": "", "user_rt": "", "retweet_id": "", "reply_to": [{"user_id": "1222273871488917504", "username": "LuchoXBolivia"}], "retweet_date": "", "translate": "", "trans_src": "", "trans_dest": ""}
{"id": 1275918205270265857, "conversation_id": "1275918205270265857", "created_at": 1593037580000, "date": "2020-06-24", "time": "18:26:20", "timezone": "-04", "user_id": 1222273871488917504, "username": "luchoxbolivia", "name": "Luis Arce Catacora (Lucho Arce)", "place": "", "tweet": "HOY 19:00hs. participaremos junto a @laramadavid del diálogo \"La lucha de los pueblos y la #MasacreDeSanJuan\". Los esperamos.\nPara seguirlo en vivo\n📍 https://bit.ly/2VwisUL \n📍 https://bit.ly/2CF4YiL  pic.twitter.com/GcPcHrqBSI", "mentions": ["laramadavid"], "urls": ["https://bit.ly/2VwisUL", "https://bit.ly/2CF4YiL"], "photos": ["https://pbs.twimg.com/media/EbT29_lX0AA6NfD.jpg"], "replies_count": 24, "retweets_count": 59, "likes_count": 248, "hashtags": ["#masacredesanjuan"], "cashtags": [], "link": "https://twitter.com/LuchoXBolivia/status/1275918205270265857", "retweet": false, "quote_url": "", "video": 0, "near": "", "geo": "", "source": "", "user_rt_id": "", "user_rt": "", "retweet_id": "", "reply_to": [{"user_id": "1222273871488917504", "username": "LuchoXBolivia"}, {"user_id": "1223019775544242176", "username": "LaramaDavid"}], "retweet_date": "", "translate": "", "trans_src": "", "trans_dest": ""}
{"id": 1275837559982211074, "conversation_id": "1275837559982211074", "created_at": 1593018352000, "date": "2020-06-24", "time": "13:05:52", "timezone": "-04", "user_id": 1222273871488917504, "username": "luchoxbolivia", "name": "Luis Arce Catacora (Lucho Arce)", "place": "", "tweet": "AHORA estamos participando del el Foro Euro - Latinoamericano.\nPuede verse en vivo aquí ⬇️ https://youtu.be/ucdOSFbOcPc ", "mentions": [], "urls": ["https://youtu.be/ucdOSFbOcPc"], "photos": [], "replies_count": 17, "retweets_count": 38, "likes_count": 206, "hashtags": [], "cashtags": [], "link": "https://twitter.com/LuchoXBolivia/status/1275837559982211074", "retweet": false, "quote_url": "", "video": 0, "near": "", "geo": "", "source": "", "user_rt_id": "", "user_rt": "", "retweet_id": "", "reply_to": [{"user_id": "1222273871488917504", "username": "LuchoXBolivia"}], "retweet_date": "", "translate": "", "trans_src": "", "trans_dest": ""}
{"id": 1275817496411541504, "conversation_id": "1275817496411541504", "created_at": 1593013569000, "date": "2020-06-24", "time": "11:46:09", "timezone": "-04", "user_id": 1222273871488917504, "username": "luchoxbolivia", "name": "Luis Arce Catacora (Lucho Arce)", "place": "", "tweet": "EN INSTANTES participaremos del Foro Euro Latinoamericano, exponiendo sobre \"Integración social y económica en América Latina, en el marco del COVID-19\".\nLos esperamos.\nEn vivo aquí  https://bit.ly/2BxkgWe  pic.twitter.com/7JWiQtFD12", "mentions": [], "urls": ["https://bit.ly/2BxkgWe"], "photos": ["https://pbs.twimg.com/media/EbSdO4XXkAEa3F4.jpg"], "replies_count": 64, "retweets_count": 112, "likes_count": 521, "hashtags": [], "cashtags": [], "link": "https://twitter.com/LuchoXBolivia/status/1275817496411541504", "retweet": false, "quote_url": "", "video": 0, "near": "", "geo": "", "source": "", "user_rt_id": "", "user_rt": "", "retweet_id": "", "reply_to": [{"user_id": "1222273871488917504", "username": "LuchoXBolivia"}], "retweet_date": "", "translate": "", "trans_src": "", "trans_dest": ""}
{"id": 1274668463500468224, "conversation_id": "1274668463500468224", "created_at": 1592739618000, "date": "2020-06-21", "time": "07:40:18", "timezone": "-04", "user_id": 1222273871488917504, "username": "luchoxbolivia", "name": "Luis Arce Catacora (Lucho Arce)", "place": "", "tweet": "¡El sol saldrá nuevamente para nuestros pueblos! Jallalla el Año Nuevo Andino Amazónico y del Chaco! ☀️🙌🏾 #Willkakuti pic.twitter.com/XOTk1kPAsw", "mentions": [], "urls": [], "photos": [], "replies_count": 165, "retweets_count": 425, "likes_count": 1352, "hashtags": ["#willkakuti"], "cashtags": [], "link": "https://twitter.com/LuchoXBolivia/status/1274668463500468224", "retweet": false, "quote_url": "", "video": 1, "near": "", "geo": "", "source": "", "user_rt_id": "", "user_rt": "", "retweet_id": "", "reply_to": [{"user_id": "1222273871488917504", "username": "LuchoXBolivia"}], "retweet_date": "", "translate": "", "trans_src": "", "trans_dest": ""}
