{"id": 1274085182706941955, "conversation_id": "1274085182706941955", "created_at": 1592600553000, "date": "2020-06-19", "time": "17:02:33", "timezone": "-04", "user_id": 3137823712, "username": "mujerescreando1", "name": "Maria Galindo", "place": "", "tweet": " https://www.lavaca.org/portada/las-cinco-pandemias-que-azotan-al-culo-del-mundo-por-maria-galindo/?fbclid=IwAR3XSJxHYY6BUuGmx-vAF0vOnTAd5dwjPRi7Ht1_ii9rZpWBmPzxmO9Tfug …", "mentions": [], "urls": ["https://www.lavaca.org/portada/las-cinco-pandemias-que-azotan-al-culo-del-mundo-por-maria-galindo/?fbclid=IwAR3XSJxHYY6BUuGmx-vAF0vOnTAd5dwjPRi7Ht1_ii9rZpWBmPzxmO9Tfug"], "photos": [], "replies_count": 17, "retweets_count": 32, "likes_count": 113, "hashtags": [], "cashtags": [], "link": "https://twitter.com/mujerescreando1/status/1274085182706941955", "retweet": false, "quote_url": "", "video": 0, "near": "", "geo": "", "source": "", "user_rt_id": "", "user_rt": "", "retweet_id": "", "reply_to": [{"user_id": "3137823712", "username": "mujerescreando1"}], "retweet_date": "", "translate": "", "trans_src": "", "trans_dest": ""}
{"id": 1271588074473099264, "conversation_id": "1271588074473099264", "created_at": 1592005196000, "date": "2020-06-12", "time": "19:39:56", "timezone": "-04", "user_id": 3137823712, "username": "mujerescreando1", "name": "Maria Galindo", "place": "", "tweet": " pic.twitter.com/maiS9hByl0", "mentions": [], "urls": [], "photos": ["https://pbs.twimg.com/media/EaWWmxqXgAUakz_.jpg"], "replies_count": 6, "retweets_count": 31, "likes_count": 111, "hashtags": [], "cashtags": [], "link": "https://twitter.com/mujerescreando1/status/1271588074473099264", "retweet": false, "quote_url": "", "video": 0, "near": "", "geo": "", "source": "", "user_rt_id": "", "user_rt": "", "retweet_id": "", "reply_to": [{"user_id": "3137823712", "username": "mujerescreando1"}], "retweet_date": "", "translate": "", "trans_src": "", "trans_dest": ""}
{"id": 1269769741805268994, "conversation_id": "1269769741805268994", "created_at": 1591571672000, "date": "2020-06-07", "time": "19:14:32", "timezone": "-04", "user_id": 3137823712, "username": "mujerescreando1", "name": "Maria Galindo", "place": "", "tweet": " http://radiodeseo.com/normalidad-vs-anormalidad-la-acera-de-enfrente/ …", "mentions": [], "urls": ["http://radiodeseo.com/normalidad-vs-anormalidad-la-acera-de-enfrente/"], "photos": [], "replies_count": 2, "retweets_count": 9, "likes_count": 40, "hashtags": [], "cashtags": [], "link": "https://twitter.com/mujerescreando1/status/1269769741805268994", "retweet": false, "quote_url": "", "video": 0, "near": "", "geo": "", "source": "", "user_rt_id": "", "user_rt": "", "retweet_id": "", "reply_to": [{"user_id": "3137823712", "username": "mujerescreando1"}], "retweet_date": "", "translate": "", "trans_src": "", "trans_dest": ""}
{"id": 1269644722433413120, "conversation_id": "1269644722433413120", "created_at": 1591541865000, "date": "2020-06-07", "time": "10:57:45", "timezone": "-04", "user_id": 3137823712, "username": "mujerescreando1", "name": "Maria Galindo", "place": "", "tweet": " pic.twitter.com/sgdQFtKUWK", "mentions": [], "urls": [], "photos": ["https://pbs.twimg.com/media/EZ6vI6dXsAANSU8.jpg"], "replies_count": 0, "retweets_count": 8, "likes_count": 26, "hashtags": [], "cashtags": [], "link": "https://twitter.com/mujerescreando1/status/1269644722433413120", "retweet": false, "quote_url": "", "video": 0, "near": "", "geo": "", "source": "", "user_rt_id": "", "user_rt": "", "retweet_id": "", "reply_to": [{"user_id": "3137823712", "username": "mujerescreando1"}], "retweet_date": "", "translate": "", "trans_src": "", "trans_dest": ""}
{"id": 1268966243941396493, "conversation_id": "1268966243941396493", "created_at": 1591380103000, "date": "2020-06-05", "time": "14:01:43", "timezone": "-04", "user_id": 3137823712, "username": "mujerescreando1", "name": "Maria Galindo", "place": "", "tweet": " https://www.youtube.com/watch?v=XvfClexVtpY …", "mentions": [], "urls": ["https://www.youtube.com/watch?v=XvfClexVtpY"], "photos": [], "replies_count": 1, "retweets_count": 1, "likes_count": 6, "hashtags": [], "cashtags": [], "link": "https://twitter.com/mujerescreando1/status/1268966243941396493", "retweet": false, "quote_url": "", "video": 0, "near": "", "geo": "", "source": "", "user_rt_id": "", "user_rt": "", "retweet_id": "", "reply_to": [{"user_id": "3137823712", "username": "mujerescreando1"}], "retweet_date": "", "translate": "", "trans_src": "", "trans_dest": ""}
{"id": 1268352810137137153, "conversation_id": "1268352810137137153", "created_at": 1591233849000, "date": "2020-06-03", "time": "21:24:09", "timezone": "-04", "user_id": 3137823712, "username": "mujerescreando1", "name": "Maria Galindo", "place": "", "tweet": " pic.twitter.com/YClzOSYFI6", "mentions": [], "urls": [], "photos": ["https://pbs.twimg.com/media/EZoYHstX0AAKYbd.jpg"], "replies_count": 37, "retweets_count": 137, "likes_count": 414, "hashtags": [], "cashtags": [], "link": "https://twitter.com/mujerescreando1/status/1268352810137137153", "retweet": false, "quote_url": "", "video": 0, "near": "", "geo": "", "source": "", "user_rt_id": "", "user_rt": "", "retweet_id": "", "reply_to": [{"user_id": "3137823712", "username": "mujerescreando1"}], "retweet_date": "", "translate": "", "trans_src": "", "trans_dest": ""}
{"id": 1266721520535158786, "conversation_id": "1266721520535158786", "created_at": 1590844919000, "date": "2020-05-30", "time": "09:21:59", "timezone": "-04", "user_id": 3137823712, "username": "mujerescreando1", "name": "Maria Galindo", "place": "", "tweet": " pic.twitter.com/NzqmyUyoro", "mentions": [], "urls": [], "photos": ["https://pbs.twimg.com/media/EZRMfvJWsAA2OSE.jpg"], "replies_count": 85, "retweets_count": 104, "likes_count": 339, "hashtags": [], "cashtags": [], "link": "https://twitter.com/mujerescreando1/status/1266721520535158786", "retweet": false, "quote_url": "", "video": 0, "near": "", "geo": "", "source": "", "user_rt_id": "", "user_rt": "", "retweet_id": "", "reply_to": [{"user_id": "3137823712", "username": "mujerescreando1"}], "retweet_date": "", "translate": "", "trans_src": "", "trans_dest": ""}
{"id": 1265746105293250561, "conversation_id": "1265746105293250561", "created_at": 1590612362000, "date": "2020-05-27", "time": "16:46:02", "timezone": "-04", "user_id": 3137823712, "username": "mujerescreando1", "name": "Maria Galindo", "place": "", "tweet": "EL MACHISMO ES LA UNICA PANDEMIA QUE NO ESTA EN CUARENTENA  https://youtu.be/4KTeq2Kti_I  vía @YouTube", "mentions": ["youtube"], "urls": ["https://youtu.be/4KTeq2Kti_I"], "photos": [], "replies_count": 9, "retweets_count": 30, "likes_count": 104, "hashtags": [], "cashtags": [], "link": "https://twitter.com/mujerescreando1/status/1265746105293250561", "retweet": false, "quote_url": "", "video": 0, "near": "", "geo": "", "source": "", "user_rt_id": "", "user_rt": "", "retweet_id": "", "reply_to": [{"user_id": "3137823712", "username": "mujerescreando1"}, {"user_id": "10228272", "username": "YouTube"}], "retweet_date": "", "translate": "", "trans_src": "", "trans_dest": ""}
