{"id": 1274514886119305216, "conversation_id": "1274514886119305216", "created_at": 1592703002000, "date": "2020-06-20", "time": "21:30:02", "timezone": "-04", "user_id": 98399700, "username": "johnarandia", "name": "🅹🅾🅷🅽 🅰🆁🅰🅽🅳🅸🅰", "place": "", "tweet": "GAS: EN TARIJA LAMENTAN EL FRACASO\nSe cae proyecto exploratorio del pozo Jaguar X6, era la esperanza para reemplazar al campo Margarita https://erbol.com.bo/nacional/se-cae-proyecto-exploratorio-del-pozo-jaguar-x6-era-la-esperanza-para-reemplazar-al-campo …", "mentions": [], "urls": ["https://erbol.com.bo/nacional/se-cae-proyecto-exploratorio-del-pozo-jaguar-x6-era-la-esperanza-para-reemplazar-al-campo"], "photos": [], "replies_count": 27, "retweets_count": 17, "likes_count": 20, "hashtags": [], "cashtags": [], "link": "https://twitter.com/JohnArandia/status/1274514886119305216", "retweet": false, "quote_url": "", "video": 0, "near": "", "geo": "", "source": "", "user_rt_id": "", "user_rt": "", "retweet_id": "", "reply_to": [{"user_id": "98399700", "username": "JohnArandia"}], "retweet_date": "", "translate": "", "trans_src": "", "trans_dest": ""}
{"id": 1274511856913219584, "conversation_id": "1274511856913219584", "created_at": 1592702280000, "date": "2020-06-20", "time": "21:18:00", "timezone": "-04", "user_id": 98399700, "username": "johnarandia", "name": "🅹🅾🅷🅽 🅰🆁🅰🅽🅳🅸🅰", "place": "", "tweet": "No había visto algo así,  vaya tecnología ... pic.twitter.com/W81q5jQNfc", "mentions": [], "urls": [], "photos": [], "replies_count": 41, "retweets_count": 60, "likes_count": 369, "hashtags": [], "cashtags": [], "link": "https://twitter.com/JohnArandia/status/1274511856913219584", "retweet": false, "quote_url": "", "video": 1, "near": "", "geo": "", "source": "", "user_rt_id": "", "user_rt": "", "retweet_id": "", "reply_to": [{"user_id": "98399700", "username": "JohnArandia"}], "retweet_date": "", "translate": "", "trans_src": "", "trans_dest": ""}
{"id": 1274102672426139653, "conversation_id": "1274102672426139653", "created_at": 1592604723000, "date": "2020-06-19", "time": "18:12:03", "timezone": "-04", "user_id": 98399700, "username": "johnarandia", "name": "🅹🅾🅷🅽 🅰🆁🅰🅽🅳🅸🅰", "place": "", "tweet": "SE ACABO !\nLA LIBERTAD QUEDÓ SELLADA !!!\nSe declara ejecutoria de la sentencia absolutoria del Caso Terrorismo. pic.twitter.com/oxp48StDTH", "mentions": [], "urls": [], "photos": ["https://pbs.twimg.com/media/Ea6FoIlXQAIZw1v.jpg"], "replies_count": 60, "retweets_count": 63, "likes_count": 354, "hashtags": [], "cashtags": [], "link": "https://twitter.com/JohnArandia/status/1274102672426139653", "retweet": false, "quote_url": "", "video": 0, "near": "", "geo": "", "source": "", "user_rt_id": "", "user_rt": "", "retweet_id": "", "reply_to": [{"user_id": "98399700", "username": "JohnArandia"}], "retweet_date": "", "translate": "", "trans_src": "", "trans_dest": ""}
{"id": 1274025870806695941, "conversation_id": "1274025870806695941", "created_at": 1592586412000, "date": "2020-06-19", "time": "13:06:52", "timezone": "-04", "user_id": 98399700, "username": "johnarandia", "name": "🅹🅾🅷🅽 🅰🆁🅰🅽🅳🅸🅰", "place": "", "tweet": "Fuerte el Abogado Richter! pic.twitter.com/3L91zXs0d8", "mentions": [], "urls": [], "photos": [], "replies_count": 79, "retweets_count": 119, "likes_count": 375, "hashtags": [], "cashtags": [], "link": "https://twitter.com/JohnArandia/status/1274025870806695941", "retweet": false, "quote_url": "", "video": 1, "near": "", "geo": "", "source": "", "user_rt_id": "", "user_rt": "", "retweet_id": "", "reply_to": [{"user_id": "98399700", "username": "JohnArandia"}], "retweet_date": "", "translate": "", "trans_src": "", "trans_dest": ""}
{"id": 1274001460372570112, "conversation_id": "1274001460372570112", "created_at": 1592580592000, "date": "2020-06-19", "time": "11:29:52", "timezone": "-04", "user_id": 98399700, "username": "johnarandia", "name": "🅹🅾🅷🅽 🅰🆁🅰🅽🅳🅸🅰", "place": "", "tweet": "ULTIMO johnarandiaperiodista: Ministra de Medio Ambiente pone fin a la historia del zorrito Antonio. Informa en AMFIDES que será trasladado a La Paz y luego a su casa definitiva: SENDA VERDE en La Paz. Aducen que el animal silvestre jamás pierde el instinto. pic.twitter.com/mcob8VhUcY", "mentions": [], "urls": [], "photos": ["https://pbs.twimg.com/media/Ea4pj1DXQAQAWOF.png"], "replies_count": 221, "retweets_count": 71, "likes_count": 489, "hashtags": [], "cashtags": [], "link": "https://twitter.com/JohnArandia/status/1274001460372570112", "retweet": false, "quote_url": "", "video": 0, "near": "", "geo": "", "source": "", "user_rt_id": "", "user_rt": "", "retweet_id": "", "reply_to": [{"user_id": "98399700", "username": "JohnArandia"}], "retweet_date": "", "translate": "", "trans_src": "", "trans_dest": ""}
{"id": 1273714578426339328, "conversation_id": "1273714578426339328", "created_at": 1592512194000, "date": "2020-06-18", "time": "16:29:54", "timezone": "-04", "user_id": 98399700, "username": "johnarandia", "name": "🅹🅾🅷🅽 🅰🆁🅰🅽🅳🅸🅰", "place": "", "tweet": "¿Cómo Guayaquil logró frenar la COVID-19 ?\nEl invitado especial, Jaime Nebot, exalcalde de Guayaquil.\n 17:00 hs. 🇧🇴 / 16:00 hs. 🇪🇨\n🔴 Transmisión   https://www.facebook.com/unifranz.edu \n#UNIFRANZ #Internacionalízate #EsteVirusLoParamosUnidos pic.twitter.com/urcRizvJyf", "mentions": [], "urls": ["https://www.facebook.com/unifranz.edu"], "photos": ["https://pbs.twimg.com/media/Ea0kqIgWAAQbhEa.jpg"], "replies_count": 4, "retweets_count": 3, "likes_count": 19, "hashtags": ["#unifranz", "#internacionalízate", "#estevirusloparamosunidos"], "cashtags": [], "link": "https://twitter.com/JohnArandia/status/1273714578426339328", "retweet": false, "quote_url": "", "video": 0, "near": "", "geo": "", "source": "", "user_rt_id": "", "user_rt": "", "retweet_id": "", "reply_to": [{"user_id": "98399700", "username": "JohnArandia"}], "retweet_date": "", "translate": "", "trans_src": "", "trans_dest": ""}
{"id": 1273625173791555585, "conversation_id": "1273625173791555585", "created_at": 1592490878000, "date": "2020-06-18", "time": "10:34:38", "timezone": "-04", "user_id": 98399700, "username": "johnarandia", "name": "🅹🅾🅷🅽 🅰🆁🅰🅽🅳🅸🅰", "place": "", "tweet": "Los Puma Kataris en La Paz, no atenderán al público el sábado, domingo y lunes pero seguirán trasladando a personal médico. pic.twitter.com/B6jpgIj30h", "mentions": [], "urls": [], "photos": ["https://pbs.twimg.com/media/EazTVmSXgAANwHv.jpg"], "replies_count": 4, "retweets_count": 6, "likes_count": 62, "hashtags": [], "cashtags": [], "link": "https://twitter.com/JohnArandia/status/1273625173791555585", "retweet": false, "quote_url": "", "video": 0, "near": "", "geo": "", "source": "", "user_rt_id": "", "user_rt": "", "retweet_id": "", "reply_to": [{"user_id": "98399700", "username": "JohnArandia"}], "retweet_date": "", "translate": "", "trans_src": "", "trans_dest": ""}
{"id": 1273449104467791872, "conversation_id": "1273449104467791872", "created_at": 1592448900000, "date": "2020-06-17", "time": "22:55:00", "timezone": "-04", "user_id": 98399700, "username": "johnarandia", "name": "🅹🅾🅷🅽 🅰🆁🅰🅽🅳🅸🅰", "place": "", "tweet": "La entrevista con el biofisico Andreas Kalcker sobre el uso del Dioxido de Cloro.\nPueden verla aquí. \n https://www.facebook.com/542058842799222/posts/1187876288217471/ … pic.twitter.com/dLTBPQC3eX", "mentions": [], "urls": ["https://www.facebook.com/542058842799222/posts/1187876288217471/"], "photos": ["https://pbs.twimg.com/media/EawzNctXYAUFEgX.jpg"], "replies_count": 20, "retweets_count": 26, "likes_count": 108, "hashtags": [], "cashtags": [], "link": "https://twitter.com/JohnArandia/status/1273449104467791872", "retweet": false, "quote_url": "", "video": 0, "near": "", "geo": "", "source": "", "user_rt_id": "", "user_rt": "", "retweet_id": "", "reply_to": [{"user_id": "98399700", "username": "JohnArandia"}], "retweet_date": "", "translate": "", "trans_src": "", "trans_dest": ""}
{"id": 1273405228340195332, "conversation_id": "1273405228340195332", "created_at": 1592438439000, "date": "2020-06-17", "time": "20:00:39", "timezone": "-04", "user_id": 98399700, "username": "johnarandia", "name": "🅹🅾🅷🅽 🅰🆁🅰🅽🅳🅸🅰", "place": "", "tweet": "2/3 del MAS en la Cámara de Diputados sanciona Ley de Estados de Excepción.\n https://www.radiofides.com/es/2020/06/17/2-3-del-mas-en-la-camara-de-diputados-sanciona-ley-de-estados-de-excepcion/ …", "mentions": [], "urls": ["https://www.radiofides.com/es/2020/06/17/2-3-del-mas-en-la-camara-de-diputados-sanciona-ley-de-estados-de-excepcion/"], "photos": [], "replies_count": 42, "retweets_count": 14, "likes_count": 45, "hashtags": [], "cashtags": [], "link": "https://twitter.com/JohnArandia/status/1273405228340195332", "retweet": false, "quote_url": "", "video": 0, "near": "", "geo": "", "source": "", "user_rt_id": "", "user_rt": "", "retweet_id": "", "reply_to": [{"user_id": "98399700", "username": "JohnArandia"}], "retweet_date": "", "translate": "", "trans_src": "", "trans_dest": ""}
{"id": 1272914142903635968, "conversation_id": "1272914142903635968", "created_at": 1592321355000, "date": "2020-06-16", "time": "11:29:15", "timezone": "-04", "user_id": 98399700, "username": "johnarandia", "name": "🅹🅾🅷🅽 🅰🆁🅰🅽🅳🅸🅰", "place": "", "tweet": "Comisión de planificación de la Asamblea Plurinacional no aprobó el crédito de Fondo Monetario Internacional DE 327 millones de dólares y que se iba a destinar para la lucha contra el COVID. \nV. Ministro del Tesoro,Carlos Schlink,deplora el hecho y lo califica de acción política", "mentions": [], "urls": [], "photos": [], "replies_count": 114, "retweets_count": 106, "likes_count": 241, "hashtags": [], "cashtags": [], "link": "https://twitter.com/JohnArandia/status/1272914142903635968", "retweet": false, "quote_url": "", "video": 0, "near": "", "geo": "", "source": "", "user_rt_id": "", "user_rt": "", "retweet_id": "", "reply_to": [{"user_id": "98399700", "username": "JohnArandia"}], "retweet_date": "", "translate": "", "trans_src": "", "trans_dest": ""}
{"id": 1272906773733822464, "conversation_id": "1272906773733822464", "created_at": 1592319598000, "date": "2020-06-16", "time": "10:59:58", "timezone": "-04", "user_id": 98399700, "username": "johnarandia", "name": "🅹🅾🅷🅽 🅰🆁🅰🅽🅳🅸🅰", "place": "", "tweet": "URGENTE: Departamento de LA PAZ se encapsulará por tres días a partir de este sábado. Decisión del COED .\nPor otro lado el SEDES LA PAZ será intervenido.", "mentions": [], "urls": [], "photos": [], "replies_count": 53, "retweets_count": 78, "likes_count": 397, "hashtags": [], "cashtags": [], "link": "https://twitter.com/JohnArandia/status/1272906773733822464", "retweet": false, "quote_url": "", "video": 0, "near": "", "geo": "", "source": "", "user_rt_id": "", "user_rt": "", "retweet_id": "", "reply_to": [{"user_id": "98399700", "username": "JohnArandia"}], "retweet_date": "", "translate": "", "trans_src": "", "trans_dest": ""}
{"id": 1272897632617353217, "conversation_id": "1272897632617353217", "created_at": 1592317419000, "date": "2020-06-16", "time": "10:23:39", "timezone": "-04", "user_id": 98399700, "username": "johnarandia", "name": "🅹🅾🅷🅽 🅰🆁🅰🅽🅳🅸🅰", "place": "", "tweet": "Estamos en Vivo https://twitter.com/GrupoFides/status/1272895159957585926 …", "mentions": [], "urls": ["https://twitter.com/GrupoFides/status/1272895159957585926"], "photos": [], "replies_count": 12, "retweets_count": 1, "likes_count": 13, "hashtags": [], "cashtags": [], "link": "https://twitter.com/JohnArandia/status/1272897632617353217", "retweet": false, "quote_url": "https://twitter.com/GrupoFides/status/1272895159957585926", "video": 0, "near": "", "geo": "", "source": "", "user_rt_id": "", "user_rt": "", "retweet_id": "", "reply_to": [{"user_id": "98399700", "username": "JohnArandia"}], "retweet_date": "", "translate": "", "trans_src": "", "trans_dest": ""}
{"id": 1272896613686685697, "conversation_id": "1272896613686685697", "created_at": 1592317176000, "date": "2020-06-16", "time": "10:19:36", "timezone": "-04", "user_id": 98399700, "username": "johnarandia", "name": "🅹🅾🅷🅽 🅰🆁🅰🅽🅳🅸🅰", "place": "", "tweet": "Último/ John Arandia Periodista: Alcalde de La Paz Luis Revilla junto a otros trabajadores entran en cuarentena preventiva a partir de hoy, tuvieron contacto con una persona de su equipo contagiada con COVID . pic.twitter.com/xolpgveQlT", "mentions": [], "urls": [], "photos": ["https://pbs.twimg.com/media/Eao8uRlXgAAYyEF.jpg"], "replies_count": 30, "retweets_count": 20, "likes_count": 56, "hashtags": [], "cashtags": [], "link": "https://twitter.com/JohnArandia/status/1272896613686685697", "retweet": false, "quote_url": "", "video": 0, "near": "", "geo": "", "source": "", "user_rt_id": "", "user_rt": "", "retweet_id": "", "reply_to": [{"user_id": "98399700", "username": "JohnArandia"}], "retweet_date": "", "translate": "", "trans_src": "", "trans_dest": ""}
{"id": 1272892735171833857, "conversation_id": "1272892735171833857", "created_at": 1592316251000, "date": "2020-06-16", "time": "10:04:11", "timezone": "-04", "user_id": 98399700, "username": "johnarandia", "name": "🅹🅾🅷🅽 🅰🆁🅰🅽🅳🅸🅰", "place": "", "tweet": "Fallece trabajador en salud en el Hospital del Nort (Ciudad de El Alto - La Paz). Se están haciendo los estudios para verificar que la causa podría haber sido COVID. pic.twitter.com/hamIn69N2G", "mentions": [], "urls": [], "photos": ["https://pbs.twimg.com/media/Eao5MPEXkAAmuPh.jpg"], "replies_count": 1, "retweets_count": 7, "likes_count": 10, "hashtags": [], "cashtags": [], "link": "https://twitter.com/JohnArandia/status/1272892735171833857", "retweet": false, "quote_url": "", "video": 0, "near": "", "geo": "", "source": "", "user_rt_id": "", "user_rt": "", "retweet_id": "", "reply_to": [{"user_id": "98399700", "username": "JohnArandia"}], "retweet_date": "", "translate": "", "trans_src": "", "trans_dest": ""}
{"id": 1272645285966036992, "conversation_id": "1272645285966036992", "created_at": 1592257255000, "date": "2020-06-15", "time": "17:40:55", "timezone": "-04", "user_id": 98399700, "username": "johnarandia", "name": "🅹🅾🅷🅽 🅰🆁🅰🅽🅳🅸🅰", "place": "", "tweet": "@LosTiemposBol\nSantos Ramírez apunta a García Linera y Quintana de organizar el asesinato de O’connor https://www.lostiempos.com/actualidad/pais/20200615/santos-ramirez-apunta-garcia-linera-quintana-organizar-asesinato-oconnor …", "mentions": ["lostiemposbol"], "urls": ["https://www.lostiempos.com/actualidad/pais/20200615/santos-ramirez-apunta-garcia-linera-quintana-organizar-asesinato-oconnor"], "photos": [], "replies_count": 2, "retweets_count": 5, "likes_count": 12, "hashtags": [], "cashtags": [], "link": "https://twitter.com/JohnArandia/status/1272645285966036992", "retweet": false, "quote_url": "", "video": 0, "near": "", "geo": "", "source": "", "user_rt_id": "", "user_rt": "", "retweet_id": "", "reply_to": [{"user_id": "98399700", "username": "JohnArandia"}, {"user_id": "94438031", "username": "LosTiemposBol"}], "retweet_date": "", "translate": "", "trans_src": "", "trans_dest": ""}
{"id": 1272636772158242825, "conversation_id": "1272636772158242825", "created_at": 1592255225000, "date": "2020-06-15", "time": "17:07:05", "timezone": "-04", "user_id": 98399700, "username": "johnarandia", "name": "🅹🅾🅷🅽 🅰🆁🅰🅽🅳🅸🅰", "place": "", "tweet": "Gracias @pagina_siete :\nSantos Ramírez: «García y Quintana tumbaron a Evo Morales»\nSeñaló que la firma del contrato de explotación del litio por 70 años fue ilegal y lo calificó como una traición al país. https://www.paginasiete.bo/nacional/2020/6/15/santos-ramirez-garcia-quintana-tumbaron-evo-morales-258447.html …", "mentions": ["pagina_siete"], "urls": ["https://www.paginasiete.bo/nacional/2020/6/15/santos-ramirez-garcia-quintana-tumbaron-evo-morales-258447.html"], "photos": [], "replies_count": 10, "retweets_count": 57, "likes_count": 127, "hashtags": [], "cashtags": [], "link": "https://twitter.com/JohnArandia/status/1272636772158242825", "retweet": false, "quote_url": "", "video": 0, "near": "", "geo": "", "source": "", "user_rt_id": "", "user_rt": "", "retweet_id": "", "reply_to": [{"user_id": "98399700", "username": "JohnArandia"}, {"user_id": "132681657", "username": "pagina_siete"}], "retweet_date": "", "translate": "", "trans_src": "", "trans_dest": ""}
{"id": 1272636549134462976, "conversation_id": "1272636549134462976", "created_at": 1592255172000, "date": "2020-06-15", "time": "17:06:12", "timezone": "-04", "user_id": 98399700, "username": "johnarandia", "name": "🅹🅾🅷🅽 🅰🆁🅰🅽🅳🅸🅰", "place": "", "tweet": "El mundo político se refiere a la aparición de Santos Ramírez en la escena nacional, tras nuestra entrevista, y luego de 11 años.\nSenador Efraín Chambi MAS pic.twitter.com/fuge11t3a4", "mentions": [], "urls": [], "photos": [], "replies_count": 15, "retweets_count": 5, "likes_count": 13, "hashtags": [], "cashtags": [], "link": "https://twitter.com/JohnArandia/status/1272636549134462976", "retweet": false, "quote_url": "", "video": 1, "near": "", "geo": "", "source": "", "user_rt_id": "", "user_rt": "", "retweet_id": "", "reply_to": [{"user_id": "98399700", "username": "JohnArandia"}], "retweet_date": "", "translate": "", "trans_src": "", "trans_dest": ""}
{"id": 1272635512029958146, "conversation_id": "1272635512029958146", "created_at": 1592254925000, "date": "2020-06-15", "time": "17:02:05", "timezone": "-04", "user_id": 98399700, "username": "johnarandia", "name": "🅹🅾🅷🅽 🅰🆁🅰🅽🅳🅸🅰", "place": "", "tweet": "El mundo político se refiere a la aparición de Santos Ramírez en la escena nacional, tras nuestra entrevista, y luego de 11 años.\nVice ministro de Gobierno. pic.twitter.com/ikrBU2trp0", "mentions": [], "urls": [], "photos": [], "replies_count": 4, "retweets_count": 7, "likes_count": 36, "hashtags": [], "cashtags": [], "link": "https://twitter.com/JohnArandia/status/1272635512029958146", "retweet": false, "quote_url": "", "video": 1, "near": "", "geo": "", "source": "", "user_rt_id": "", "user_rt": "", "retweet_id": "", "reply_to": [{"user_id": "98399700", "username": "JohnArandia"}], "retweet_date": "", "translate": "", "trans_src": "", "trans_dest": ""}
{"id": 1272592696201355264, "conversation_id": "1272592696201355264", "created_at": 1592244717000, "date": "2020-06-15", "time": "14:11:57", "timezone": "-04", "user_id": 98399700, "username": "johnarandia", "name": "🅹🅾🅷🅽 🅰🆁🅰🅽🅳🅸🅰", "place": "", "tweet": "Gracias @LaPrensaBo\nSantos Ramírez apunta a García Linera y Quintana de organizar el asesinato de O’connor\n http://www.laprensa.com.bo/nacional/20200615/santos-ramirez-apunta-garcia-linera-y-quintana-de-organizar-el-asesinato-de …", "mentions": ["laprensabo"], "urls": ["http://www.laprensa.com.bo/nacional/20200615/santos-ramirez-apunta-garcia-linera-y-quintana-de-organizar-el-asesinato-de"], "photos": [], "replies_count": 25, "retweets_count": 101, "likes_count": 303, "hashtags": [], "cashtags": [], "link": "https://twitter.com/JohnArandia/status/1272592696201355264", "retweet": false, "quote_url": "", "video": 0, "near": "", "geo": "", "source": "", "user_rt_id": "", "user_rt": "", "retweet_id": "", "reply_to": [{"user_id": "98399700", "username": "JohnArandia"}, {"user_id": "396678006", "username": "LaPrensaBo"}], "retweet_date": "", "translate": "", "trans_src": "", "trans_dest": ""}
{"id": 1272558009533726723, "conversation_id": "1272558009533726723", "created_at": 1592236447000, "date": "2020-06-15", "time": "11:54:07", "timezone": "-04", "user_id": 98399700, "username": "johnarandia", "name": "🅹🅾🅷🅽 🅰🆁🅰🅽🅳🅸🅰", "place": "", "tweet": "Sobre la salida de Evo Morales: \"Como es posible que el capitán abandone el barco , Evo tiene perdón por haber abandonado a los Quechuas, Aymaras ...\" \nSantos Ramírez, el ex hombre fuerte del MAS rompe el silencio 11 años después en #AMFIDES. pic.twitter.com/2HAcXULBrd", "mentions": [], "urls": [], "photos": [], "replies_count": 64, "retweets_count": 94, "likes_count": 226, "hashtags": ["#amfides"], "cashtags": [], "link": "https://twitter.com/JohnArandia/status/1272558009533726723", "retweet": false, "quote_url": "", "video": 1, "near": "", "geo": "", "source": "", "user_rt_id": "", "user_rt": "", "retweet_id": "", "reply_to": [{"user_id": "98399700", "username": "JohnArandia"}], "retweet_date": "", "translate": "", "trans_src": "", "trans_dest": ""}
{"id": 1272557487129071617, "conversation_id": "1272557487129071617", "created_at": 1592236322000, "date": "2020-06-15", "time": "11:52:02", "timezone": "-04", "user_id": 98399700, "username": "johnarandia", "name": "🅹🅾🅷🅽 🅰🆁🅰🅽🅳🅸🅰", "place": "", "tweet": "\"...Si Santos Ramirez fue a la cárcel deberíamos haber ido los tres firmantes: Santos Ramirez, Luis Arce y la Sra. Villarroel gerente del Banco de la Unión...\"\nel ex hombre fuerte del MAS rompe el silencio 11 años después en #AMFIDES. pic.twitter.com/e2fxWEhAOv", "mentions": [], "urls": [], "photos": [], "replies_count": 33, "retweets_count": 184, "likes_count": 345, "hashtags": ["#amfides"], "cashtags": [], "link": "https://twitter.com/JohnArandia/status/1272557487129071617", "retweet": false, "quote_url": "", "video": 1, "near": "", "geo": "", "source": "", "user_rt_id": "", "user_rt": "", "retweet_id": "", "reply_to": [{"user_id": "98399700", "username": "JohnArandia"}], "retweet_date": "", "translate": "", "trans_src": "", "trans_dest": ""}
{"id": 1272557284514770946, "conversation_id": "1272557284514770946", "created_at": 1592236274000, "date": "2020-06-15", "time": "11:51:14", "timezone": "-04", "user_id": 98399700, "username": "johnarandia", "name": "🅹🅾🅷🅽 🅰🆁🅰🅽🅳🅸🅰", "place": "", "tweet": "Muerte del empresario Jorge O'connor (caso Catler): \"Esa es la muerte que organizan Álvaro, Juan Ramón de ese entonces\". Santos Ramírez, el ex hombre fuerte del MAS rompe el silencio 11 años después en #AMFIDES. pic.twitter.com/5gUwAT1ZiV", "mentions": [], "urls": [], "photos": [], "replies_count": 15, "retweets_count": 72, "likes_count": 155, "hashtags": ["#amfides"], "cashtags": [], "link": "https://twitter.com/JohnArandia/status/1272557284514770946", "retweet": false, "quote_url": "", "video": 1, "near": "", "geo": "", "source": "", "user_rt_id": "", "user_rt": "", "retweet_id": "", "reply_to": [{"user_id": "98399700", "username": "JohnArandia"}], "retweet_date": "", "translate": "", "trans_src": "", "trans_dest": ""}
{"id": 1272557171788693504, "conversation_id": "1272557171788693504", "created_at": 1592236247000, "date": "2020-06-15", "time": "11:50:47", "timezone": "-04", "user_id": 98399700, "username": "johnarandia", "name": "🅹🅾🅷🅽 🅰🆁🅰🅽🅳🅸🅰", "place": "", "tweet": "\"Evo lloró cuando me pasó todo, todo va a salir bien, me dijo, pero sus lágrimas fueron una mentira\".\nSantos Ramírez, el ex hombre fuerte del MAS rompe el silencio 11 años después en #AMFIDES. pic.twitter.com/JZxykYxPDl", "mentions": [], "urls": [], "photos": [], "replies_count": 15, "retweets_count": 37, "likes_count": 90, "hashtags": ["#amfides"], "cashtags": [], "link": "https://twitter.com/JohnArandia/status/1272557171788693504", "retweet": false, "quote_url": "", "video": 1, "near": "", "geo": "", "source": "", "user_rt_id": "", "user_rt": "", "retweet_id": "", "reply_to": [{"user_id": "98399700", "username": "JohnArandia"}], "retweet_date": "", "translate": "", "trans_src": "", "trans_dest": ""}
{"id": 1272534445980094464, "conversation_id": "1272534445980094464", "created_at": 1592230829000, "date": "2020-06-15", "time": "10:20:29", "timezone": "-04", "user_id": 98399700, "username": "johnarandia", "name": "🅹🅾🅷🅽 🅰🆁🅰🅽🅳🅸🅰", "place": "", "tweet": "Santos Ramirez, el ex hombre fuerte del MAS rompe el silencio después de 11 años. Caso Catler, política, Evo Morales y más. En minutos en AMFIDES.", "mentions": [], "urls": [], "photos": [], "replies_count": 46, "retweets_count": 82, "likes_count": 527, "hashtags": [], "cashtags": [], "link": "https://twitter.com/JohnArandia/status/1272534445980094464", "retweet": false, "quote_url": "", "video": 0, "near": "", "geo": "", "source": "", "user_rt_id": "", "user_rt": "", "retweet_id": "", "reply_to": [{"user_id": "98399700", "username": "JohnArandia"}], "retweet_date": "", "translate": "", "trans_src": "", "trans_dest": ""}
{"id": 1272533476647079936, "conversation_id": "1272533476647079936", "created_at": 1592230598000, "date": "2020-06-15", "time": "10:16:38", "timezone": "-04", "user_id": 98399700, "username": "johnarandia", "name": "🅹🅾🅷🅽 🅰🆁🅰🅽🅳🅸🅰", "place": "", "tweet": "Estamos en Vivo! https://twitter.com/GrupoFides/status/1272531909638148096 …", "mentions": [], "urls": ["https://twitter.com/GrupoFides/status/1272531909638148096"], "photos": [], "replies_count": 0, "retweets_count": 1, "likes_count": 14, "hashtags": [], "cashtags": [], "link": "https://twitter.com/JohnArandia/status/1272533476647079936", "retweet": false, "quote_url": "https://twitter.com/GrupoFides/status/1272531909638148096", "video": 0, "near": "", "geo": "", "source": "", "user_rt_id": "", "user_rt": "", "retweet_id": "", "reply_to": [{"user_id": "98399700", "username": "JohnArandia"}], "retweet_date": "", "translate": "", "trans_src": "", "trans_dest": ""}
{"id": 1272354567657791488, "conversation_id": "1272354567657791488", "created_at": 1592187942000, "date": "2020-06-14", "time": "22:25:42", "timezone": "-04", "user_id": 98399700, "username": "johnarandia", "name": "🅹🅾🅷🅽 🅰🆁🅰🅽🅳🅸🅰", "place": "", "tweet": "Rebasados! https://twitter.com/MindeGobierno/status/1272353548630659072 …", "mentions": [], "urls": ["https://twitter.com/MindeGobierno/status/1272353548630659072"], "photos": [], "replies_count": 8, "retweets_count": 10, "likes_count": 47, "hashtags": [], "cashtags": [], "link": "https://twitter.com/JohnArandia/status/1272354567657791488", "retweet": false, "quote_url": "https://twitter.com/MindeGobierno/status/1272353548630659072", "video": 0, "near": "", "geo": "", "source": "", "user_rt_id": "", "user_rt": "", "retweet_id": "", "reply_to": [{"user_id": "98399700", "username": "JohnArandia"}], "retweet_date": "", "translate": "", "trans_src": "", "trans_dest": ""}
{"id": 1272301130303889408, "conversation_id": "1272301130303889408", "created_at": 1592175202000, "date": "2020-06-14", "time": "18:53:22", "timezone": "-04", "user_id": 98399700, "username": "johnarandia", "name": "🅹🅾🅷🅽 🅰🆁🅰🅽🅳🅸🅰", "place": "", "tweet": "Policías se retiran de alrededores de la Emb. Mexicana. Primeras indagaciones hablan de rastrillaje, no se clara si es en zona de los cerros circundantes y si hay algún objetivo de hacerlo mirando la embajada.\nRecordemos que  activistas vigilantes se retiraron el pasado viernes pic.twitter.com/Y4tYSyjlIG", "mentions": [], "urls": [], "photos": ["https://pbs.twimg.com/media/EagfH6JXsAAS1wa.jpg"], "replies_count": 19, "retweets_count": 21, "likes_count": 65, "hashtags": [], "cashtags": [], "link": "https://twitter.com/JohnArandia/status/1272301130303889408", "retweet": false, "quote_url": "", "video": 0, "near": "", "geo": "", "source": "", "user_rt_id": "", "user_rt": "", "retweet_id": "", "reply_to": [{"user_id": "98399700", "username": "JohnArandia"}], "retweet_date": "", "translate": "", "trans_src": "", "trans_dest": ""}
{"id": 1272293879203717121, "conversation_id": "1272293879203717121", "created_at": 1592173473000, "date": "2020-06-14", "time": "18:24:33", "timezone": "-04", "user_id": 98399700, "username": "johnarandia", "name": "🅹🅾🅷🅽 🅰🆁🅰🅽🅳🅸🅰", "place": "", "tweet": "Urgente: Movimiento policial alrededor de la embajada de México. Via @claupenaclaros pic.twitter.com/iatcvcLtQz", "mentions": ["claupenaclaros"], "urls": [], "photos": ["https://pbs.twimg.com/media/EagYiAvWsAgwX7q.jpg", "https://pbs.twimg.com/media/EagYiUvXkAAEjOh.jpg", "https://pbs.twimg.com/media/EagYilIX0AgJQYZ.jpg"], "replies_count": 105, "retweets_count": 134, "likes_count": 440, "hashtags": [], "cashtags": [], "link": "https://twitter.com/JohnArandia/status/1272293879203717121", "retweet": false, "quote_url": "", "video": 0, "near": "", "geo": "", "source": "", "user_rt_id": "", "user_rt": "", "retweet_id": "", "reply_to": [{"user_id": "98399700", "username": "JohnArandia"}, {"user_id": "1443873174", "username": "claupenaclaros"}], "retweet_date": "", "translate": "", "trans_src": "", "trans_dest": ""}
{"id": 1272181901692940289, "conversation_id": "1272181901692940289", "created_at": 1592146776000, "date": "2020-06-14", "time": "10:59:36", "timezone": "-04", "user_id": 98399700, "username": "johnarandia", "name": "🅹🅾🅷🅽 🅰🆁🅰🅽🅳🅸🅰", "place": "", "tweet": "El Alto. Algunos pobladores entre la inconsciencia, el riesgo y la necesidad! pic.twitter.com/gH1pO7q1RC", "mentions": [], "urls": [], "photos": [], "replies_count": 57, "retweets_count": 27, "likes_count": 121, "hashtags": [], "cashtags": [], "link": "https://twitter.com/JohnArandia/status/1272181901692940289", "retweet": false, "quote_url": "", "video": 1, "near": "", "geo": "", "source": "", "user_rt_id": "", "user_rt": "", "retweet_id": "", "reply_to": [{"user_id": "98399700", "username": "JohnArandia"}], "retweet_date": "", "translate": "", "trans_src": "", "trans_dest": ""}
{"id": 1271986528135393281, "conversation_id": "1271986528135393281", "created_at": 1592100195000, "date": "2020-06-13", "time": "22:03:15", "timezone": "-04", "user_id": 98399700, "username": "johnarandia", "name": "🅹🅾🅷🅽 🅰🆁🅰🅽🅳🅸🅰", "place": "", "tweet": "Alguien no morirá por CORONAVIRUS, sino por otra cosa: https://elcomercio.pe/mundo/eeuu/coronavirus-usa-estados-unidos-sobreviviente-de-covid-19-recibe-factura-de-un-millon-de-dolares-del-hospital-nndc-noticia/ …", "mentions": [], "urls": ["https://elcomercio.pe/mundo/eeuu/coronavirus-usa-estados-unidos-sobreviviente-de-covid-19-recibe-factura-de-un-millon-de-dolares-del-hospital-nndc-noticia/"], "photos": [], "replies_count": 8, "retweets_count": 14, "likes_count": 41, "hashtags": [], "cashtags": [], "link": "https://twitter.com/JohnArandia/status/1271986528135393281", "retweet": false, "quote_url": "", "video": 0, "near": "", "geo": "", "source": "", "user_rt_id": "", "user_rt": "", "retweet_id": "", "reply_to": [{"user_id": "98399700", "username": "JohnArandia"}], "retweet_date": "", "translate": "", "trans_src": "", "trans_dest": ""}
{"id": 1271960957103886337, "conversation_id": "1271960957103886337", "created_at": 1592094098000, "date": "2020-06-13", "time": "20:21:38", "timezone": "-04", "user_id": 98399700, "username": "johnarandia", "name": "🅹🅾🅷🅽 🅰🆁🅰🅽🅳🅸🅰", "place": "", "tweet": "Venden Ivermectina,sin receta,al doble del precio(600 bs 30 comprimidos)evitan poner el nombre del medicamento a propósito (cuando colocan los nombres de los otros)en la factura.\nEstos actos son catalogados como \"Ejercicio indebido de la profesión\", \nLa farmaciaen Calacoto,La Paz pic.twitter.com/j3TDfUtRFH", "mentions": [], "urls": [], "photos": ["https://pbs.twimg.com/media/EabpvRJWAAUprK5.jpg", "https://pbs.twimg.com/media/EabpvgdXkAAzB3r.jpg", "https://pbs.twimg.com/media/EabpvxpX0AEVqGD.jpg", "https://pbs.twimg.com/media/Eabpv9WWoAA-Ssf.jpg"], "replies_count": 48, "retweets_count": 115, "likes_count": 218, "hashtags": [], "cashtags": [], "link": "https://twitter.com/JohnArandia/status/1271960957103886337", "retweet": false, "quote_url": "", "video": 0, "near": "", "geo": "", "source": "", "user_rt_id": "", "user_rt": "", "retweet_id": "", "reply_to": [{"user_id": "98399700", "username": "JohnArandia"}], "retweet_date": "", "translate": "", "trans_src": "", "trans_dest": ""}
{"id": 1271776549214314496, "conversation_id": "1271776549214314496", "created_at": 1592050132000, "date": "2020-06-13", "time": "08:08:52", "timezone": "-04", "user_id": 98399700, "username": "johnarandia", "name": "🅹🅾🅷🅽 🅰🆁🅰🅽🅳🅸🅰", "place": "", "tweet": "¿Salud o elecciones?\nParticipa en este sondeo de opinión.", "mentions": [], "urls": [], "photos": [], "replies_count": 222, "retweets_count": 67, "likes_count": 141, "hashtags": [], "cashtags": [], "link": "https://twitter.com/JohnArandia/status/1271776549214314496", "retweet": false, "quote_url": "", "video": 0, "near": "", "geo": "", "source": "", "user_rt_id": "", "user_rt": "", "retweet_id": "", "reply_to": [{"user_id": "98399700", "username": "JohnArandia"}], "retweet_date": "", "translate": "", "trans_src": "", "trans_dest": ""}
{"id": 1271773273160892416, "conversation_id": "1271773273160892416", "created_at": 1592049351000, "date": "2020-06-13", "time": "07:55:51", "timezone": "-04", "user_id": 98399700, "username": "johnarandia", "name": "🅹🅾🅷🅽 🅰🆁🅰🅽🅳🅸🅰", "place": "", "tweet": " https://www.paginasiete.bo/nacional/2020/6/13/desde-la-llegada-del-covid-se-registraron-al-menos-10-agresiones-contra-la-prensa-258283.html … text=Desde la llegada del Covid se registraron al menos 10 agresiones contra la prensa - Diario Pagina Siete", "mentions": [], "urls": ["https://www.paginasiete.bo/nacional/2020/6/13/desde-la-llegada-del-covid-se-registraron-al-menos-10-agresiones-contra-la-prensa-258283.html"], "photos": [], "replies_count": 15, "retweets_count": 7, "likes_count": 29, "hashtags": [], "cashtags": [], "link": "https://twitter.com/JohnArandia/status/1271773273160892416", "retweet": false, "quote_url": "", "video": 0, "near": "", "geo": "", "source": "", "user_rt_id": "", "user_rt": "", "retweet_id": "", "reply_to": [{"user_id": "98399700", "username": "JohnArandia"}], "retweet_date": "", "translate": "", "trans_src": "", "trans_dest": ""}
{"id": 1271456920533184517, "conversation_id": "1271456920533184517", "created_at": 1591973927000, "date": "2020-06-12", "time": "10:58:47", "timezone": "-04", "user_id": 98399700, "username": "johnarandia", "name": "🅹🅾🅷🅽 🅰🆁🅰🅽🅳🅸🅰", "place": "", "tweet": "URGENTE: Alcalde de LA PAZ: \"Desde el 23 de Junio la ciudad vuelve a cuarentena rígida con nuevas características\".", "mentions": [], "urls": [], "photos": [], "replies_count": 129, "retweets_count": 112, "likes_count": 501, "hashtags": [], "cashtags": [], "link": "https://twitter.com/JohnArandia/status/1271456920533184517", "retweet": false, "quote_url": "", "video": 0, "near": "", "geo": "", "source": "", "user_rt_id": "", "user_rt": "", "retweet_id": "", "reply_to": [{"user_id": "98399700", "username": "JohnArandia"}], "retweet_date": "", "translate": "", "trans_src": "", "trans_dest": ""}
{"id": 1271403113619079168, "conversation_id": "1271403113619079168", "created_at": 1591961098000, "date": "2020-06-12", "time": "07:24:58", "timezone": "-04", "user_id": 98399700, "username": "johnarandia", "name": "🅹🅾🅷🅽 🅰🆁🅰🅽🅳🅸🅰", "place": "", "tweet": "Anoche : Norte Potosinos apedrean casa de asambleísta, Mirian Vargas Peláez, que votó  en contra de la ratificación del Gobernador de Potosí.\nLa asambleísta terminó renunciando. pic.twitter.com/xPdXDh1NHU", "mentions": [], "urls": [], "photos": [], "replies_count": 46, "retweets_count": 77, "likes_count": 111, "hashtags": [], "cashtags": [], "link": "https://twitter.com/JohnArandia/status/1271403113619079168", "retweet": false, "quote_url": "", "video": 1, "near": "", "geo": "", "source": "", "user_rt_id": "", "user_rt": "", "retweet_id": "", "reply_to": [{"user_id": "98399700", "username": "JohnArandia"}], "retweet_date": "", "translate": "", "trans_src": "", "trans_dest": ""}
{"id": 1271260688460189696, "conversation_id": "1271260688460189696", "created_at": 1591927141000, "date": "2020-06-11", "time": "21:59:01", "timezone": "-04", "user_id": 98399700, "username": "johnarandia", "name": "🅹🅾🅷🅽 🅰🆁🅰🅽🅳🅸🅰", "place": "", "tweet": " pic.twitter.com/P3T0vGKNcs", "mentions": [], "urls": [], "photos": ["https://pbs.twimg.com/media/EaRs27KXYAIOqIP.jpg"], "replies_count": 8, "retweets_count": 4, "likes_count": 60, "hashtags": [], "cashtags": [], "link": "https://twitter.com/JohnArandia/status/1271260688460189696", "retweet": false, "quote_url": "", "video": 0, "near": "", "geo": "", "source": "", "user_rt_id": "", "user_rt": "", "retweet_id": "", "reply_to": [{"user_id": "98399700", "username": "JohnArandia"}], "retweet_date": "", "translate": "", "trans_src": "", "trans_dest": ""}
{"id": 1271118375352229888, "conversation_id": "1270933942410121216", "created_at": 1591893211000, "date": "2020-06-11", "time": "12:33:31", "timezone": "-04", "user_id": 98399700, "username": "johnarandia", "name": "🅹🅾🅷🅽 🅰🆁🅰🅽🅳🅸🅰", "place": "", "tweet": " pic.twitter.com/5WFZlLwtlI", "mentions": ["tuffiare"], "urls": [], "photos": ["https://pbs.twimg.com/media/EaPra9OXYAEAPjc.jpg"], "replies_count": 0, "retweets_count": 0, "likes_count": 6, "hashtags": [], "cashtags": [], "link": "https://twitter.com/JohnArandia/status/1271118375352229888", "retweet": false, "quote_url": "", "video": 0, "near": "", "geo": "", "source": "", "user_rt_id": "", "user_rt": "", "retweet_id": "", "reply_to": [{"user_id": "98399700", "username": "JohnArandia"}, {"user_id": "55369574", "username": "tuffiare"}], "retweet_date": "", "translate": "", "trans_src": "", "trans_dest": ""}
{"id": 1271118086817669120, "conversation_id": "1271118086817669120", "created_at": 1591893142000, "date": "2020-06-11", "time": "12:32:22", "timezone": "-04", "user_id": 98399700, "username": "johnarandia", "name": "🅹🅾🅷🅽 🅰🆁🅰🅽🅳🅸🅰", "place": "", "tweet": "Fallece el Senador Marcelino Arancibia Paredes, Senador por el Departamento de Oruro. pic.twitter.com/yfWc8YkLkr", "mentions": [], "urls": [], "photos": ["https://pbs.twimg.com/media/EaPrKMsXsAY_5qT.jpg"], "replies_count": 11, "retweets_count": 7, "likes_count": 33, "hashtags": [], "cashtags": [], "link": "https://twitter.com/JohnArandia/status/1271118086817669120", "retweet": false, "quote_url": "", "video": 0, "near": "", "geo": "", "source": "", "user_rt_id": "", "user_rt": "", "retweet_id": "", "reply_to": [{"user_id": "98399700", "username": "JohnArandia"}], "retweet_date": "", "translate": "", "trans_src": "", "trans_dest": ""}
{"id": 1271073628101189633, "conversation_id": "1271073628101189633", "created_at": 1591882543000, "date": "2020-06-11", "time": "09:35:43", "timezone": "-04", "user_id": 98399700, "username": "johnarandia", "name": "🅹🅾🅷🅽 🅰🆁🅰🅽🅳🅸🅰", "place": "", "tweet": "AXS,  brillantemente no te dan el servicio que te ofrecen, pero son machos a la hora de cobrar. 100 bs + si te atrasas en el pago; pero cuando reclamas el servicio... nada.\nAhora para obligarte a pagar te bajan al mínimo a velocidad.\nATT bien gracias ! pic.twitter.com/i1i86IHWt1", "mentions": [], "urls": [], "photos": ["https://pbs.twimg.com/media/EaPCumEXQAACJfO.jpg"], "replies_count": 234, "retweets_count": 292, "likes_count": 985, "hashtags": [], "cashtags": [], "link": "https://twitter.com/JohnArandia/status/1271073628101189633", "retweet": false, "quote_url": "", "video": 0, "near": "", "geo": "", "source": "", "user_rt_id": "", "user_rt": "", "retweet_id": "", "reply_to": [{"user_id": "98399700", "username": "JohnArandia"}], "retweet_date": "", "translate": "", "trans_src": "", "trans_dest": ""}
{"id": 1270922062102741001, "conversation_id": "1270922062102741001", "created_at": 1591846406000, "date": "2020-06-10", "time": "23:33:26", "timezone": "-04", "user_id": 98399700, "username": "johnarandia", "name": "🅹🅾🅷🅽 🅰🆁🅰🅽🅳🅸🅰", "place": "", "tweet": "El pasado 28 de Mayo, en la Planta de Bulo Bulo. Luego que un trabajador presentara síntomas del Covid y 3 días después llegara la confirmación positiva, se puso al personal en un área de cuarentena. pic.twitter.com/3WSusi4gcC", "mentions": [], "urls": [], "photos": ["https://pbs.twimg.com/media/EaM43XjWkAA6oFW.jpg", "https://pbs.twimg.com/media/EaM439iXQAAsWVg.jpg"], "replies_count": 2, "retweets_count": 12, "likes_count": 32, "hashtags": [], "cashtags": [], "link": "https://twitter.com/JohnArandia/status/1270922062102741001", "retweet": false, "quote_url": "", "video": 0, "near": "", "geo": "", "source": "", "user_rt_id": "", "user_rt": "", "retweet_id": "", "reply_to": [{"user_id": "98399700", "username": "JohnArandia"}], "retweet_date": "", "translate": "", "trans_src": "", "trans_dest": ""}
{"id": 1270674429807296512, "conversation_id": "1270674429807296512", "created_at": 1591787366000, "date": "2020-06-10", "time": "07:09:26", "timezone": "-04", "user_id": 98399700, "username": "johnarandia", "name": "🅹🅾🅷🅽 🅰🆁🅰🅽🅳🅸🅰", "place": "", "tweet": "🍂 En estos tiempos lo importante no es mantenerse vivos, sino mantenerse humanos.\nQue este sea un buen día para todos.", "mentions": [], "urls": [], "photos": [], "replies_count": 30, "retweets_count": 69, "likes_count": 667, "hashtags": [], "cashtags": [], "link": "https://twitter.com/JohnArandia/status/1270674429807296512", "retweet": false, "quote_url": "", "video": 0, "near": "", "geo": "", "source": "", "user_rt_id": "", "user_rt": "", "retweet_id": "", "reply_to": [{"user_id": "98399700", "username": "JohnArandia"}], "retweet_date": "", "translate": "", "trans_src": "", "trans_dest": ""}
{"id": 1270491973481369600, "conversation_id": "1270491973481369600", "created_at": 1591743865000, "date": "2020-06-09", "time": "19:04:25", "timezone": "-04", "user_id": 98399700, "username": "johnarandia", "name": "🅹🅾🅷🅽 🅰🆁🅰🅽🅳🅸🅰", "place": "", "tweet": "Oruro y la inconsciencia puede más.\nJóvenes que al escuchar la sirena policial escapan de la cancha donde juegan fútbol. pic.twitter.com/wf1sDJa3Nw", "mentions": [], "urls": [], "photos": [], "replies_count": 58, "retweets_count": 71, "likes_count": 173, "hashtags": [], "cashtags": [], "link": "https://twitter.com/JohnArandia/status/1270491973481369600", "retweet": false, "quote_url": "", "video": 1, "near": "", "geo": "", "source": "", "user_rt_id": "", "user_rt": "", "retweet_id": "", "reply_to": [{"user_id": "98399700", "username": "JohnArandia"}], "retweet_date": "", "translate": "", "trans_src": "", "trans_dest": ""}
{"id": 1270317810137403397, "conversation_id": "1270317810137403397", "created_at": 1591702341000, "date": "2020-06-09", "time": "07:32:21", "timezone": "-04", "user_id": 98399700, "username": "johnarandia", "name": "🅹🅾🅷🅽 🅰🆁🅰🅽🅳🅸🅰", "place": "", "tweet": "TSE pide mas presupuesto para las elecciones, los hospitales gritan por equipamiento para salvar vidas. Qué harías tú si en tus manos estuviese la decisión?\nBuen día para todos...", "mentions": [], "urls": [], "photos": [], "replies_count": 623, "retweets_count": 129, "likes_count": 730, "hashtags": [], "cashtags": [], "link": "https://twitter.com/JohnArandia/status/1270317810137403397", "retweet": false, "quote_url": "", "video": 0, "near": "", "geo": "", "source": "", "user_rt_id": "", "user_rt": "", "retweet_id": "", "reply_to": [{"user_id": "98399700", "username": "JohnArandia"}], "retweet_date": "", "translate": "", "trans_src": "", "trans_dest": ""}
{"id": 1270178440931618817, "conversation_id": "1270178440931618817", "created_at": 1591669113000, "date": "2020-06-08", "time": "22:18:33", "timezone": "-04", "user_id": 98399700, "username": "johnarandia", "name": "🅹🅾🅷🅽 🅰🆁🅰🅽🅳🅸🅰", "place": "", "tweet": "Trabajadores de BOA solicitan a lampresidente Añez acciones inmediatas ante el impacto y consecuencias que ha originado la crisis de la pandemia. pic.twitter.com/0k4Mzq8be5", "mentions": [], "urls": [], "photos": ["https://pbs.twimg.com/media/EaCUgEGXsAA5e9I.jpg", "https://pbs.twimg.com/media/EaCUiUGWAAA_J3u.jpg", "https://pbs.twimg.com/media/EaCUjiWXkAApKL0.jpg"], "replies_count": 19, "retweets_count": 23, "likes_count": 72, "hashtags": [], "cashtags": [], "link": "https://twitter.com/JohnArandia/status/1270178440931618817", "retweet": false, "quote_url": "", "video": 0, "near": "", "geo": "", "source": "", "user_rt_id": "", "user_rt": "", "retweet_id": "", "reply_to": [{"user_id": "98399700", "username": "JohnArandia"}], "retweet_date": "", "translate": "", "trans_src": "", "trans_dest": ""}
{"id": 1270133727780274178, "conversation_id": "1270133727780274178", "created_at": 1591658453000, "date": "2020-06-08", "time": "19:20:53", "timezone": "-04", "user_id": 98399700, "username": "johnarandia", "name": "🅹🅾🅷🅽 🅰🆁🅰🅽🅳🅸🅰", "place": "", "tweet": "Empresa The Diferent invita al seminario VIRTUAL\n \"ESCRIBE COMO PERIODISTA\"\n¿CÓMO TRATAR LA INFORMACIÓN Y ESCRIBIR COMO UN PERIODISTA?\nUn Curso, para los que tienen alma de periodistas.\nInteresados al whatsapp: \n https://chat.whatsapp.com/JUpigcLi0lDEsm5qlj1Nz3 … pic.twitter.com/vDNj5GBl6j", "mentions": [], "urls": ["https://chat.whatsapp.com/JUpigcLi0lDEsm5qlj1Nz3"], "photos": [], "replies_count": 8, "retweets_count": 4, "likes_count": 53, "hashtags": [], "cashtags": [], "link": "https://twitter.com/JohnArandia/status/1270133727780274178", "retweet": false, "quote_url": "", "video": 1, "near": "", "geo": "", "source": "", "user_rt_id": "", "user_rt": "", "retweet_id": "", "reply_to": [{"user_id": "98399700", "username": "JohnArandia"}], "retweet_date": "", "translate": "", "trans_src": "", "trans_dest": ""}
{"id": 1270131376763928582, "conversation_id": "1270131376763928582", "created_at": 1591657892000, "date": "2020-06-08", "time": "19:11:32", "timezone": "-04", "user_id": 98399700, "username": "johnarandia", "name": "🅹🅾🅷🅽 🅰🆁🅰🅽🅳🅸🅰", "place": "", "tweet": "Aeropuerto EL TROMPILLO (Santa Cruz) cerrado por 48 hrs.\nHabrá desinfección ya que un bombero dió positivo al Covid. pic.twitter.com/ssTc2o5xMk", "mentions": [], "urls": [], "photos": ["https://pbs.twimg.com/media/EaBpvyhXsAY5l1r.jpg"], "replies_count": 0, "retweets_count": 9, "likes_count": 34, "hashtags": [], "cashtags": [], "link": "https://twitter.com/JohnArandia/status/1270131376763928582", "retweet": false, "quote_url": "", "video": 0, "near": "", "geo": "", "source": "", "user_rt_id": "", "user_rt": "", "retweet_id": "", "reply_to": [{"user_id": "98399700", "username": "JohnArandia"}], "retweet_date": "", "translate": "", "trans_src": "", "trans_dest": ""}
{"id": 1270008228647223297, "conversation_id": "1270008228647223297", "created_at": 1591628531000, "date": "2020-06-08", "time": "11:02:11", "timezone": "-04", "user_id": 98399700, "username": "johnarandia", "name": "🅹🅾🅷🅽 🅰🆁🅰🅽🅳🅸🅰", "place": "", "tweet": "Estamos al Vivo https://twitter.com/GrupoFides/status/1269995812483809280 …", "mentions": [], "urls": ["https://twitter.com/GrupoFides/status/1269995812483809280"], "photos": [], "replies_count": 1, "retweets_count": 0, "likes_count": 9, "hashtags": [], "cashtags": [], "link": "https://twitter.com/JohnArandia/status/1270008228647223297", "retweet": false, "quote_url": "https://twitter.com/GrupoFides/status/1269995812483809280", "video": 0, "near": "", "geo": "", "source": "", "user_rt_id": "", "user_rt": "", "retweet_id": "", "reply_to": [{"user_id": "98399700", "username": "JohnArandia"}], "retweet_date": "", "translate": "", "trans_src": "", "trans_dest": ""}
{"id": 1270004345027911680, "conversation_id": "1270004345027911680", "created_at": 1591627606000, "date": "2020-06-08", "time": "10:46:46", "timezone": "-04", "user_id": 98399700, "username": "johnarandia", "name": "🅹🅾🅷🅽 🅰🆁🅰🅽🅳🅸🅰", "place": "", "tweet": "Viceministro de trabajo Franz Choque no va más . Lo sacan luego de la grabación que circuló el redes sociales. pic.twitter.com/rLWNc57q9C", "mentions": [], "urls": [], "photos": ["https://pbs.twimg.com/media/EZ_2MxNXkAAJy-H.jpg"], "replies_count": 51, "retweets_count": 37, "likes_count": 203, "hashtags": [], "cashtags": [], "link": "https://twitter.com/JohnArandia/status/1270004345027911680", "retweet": false, "quote_url": "", "video": 0, "near": "", "geo": "", "source": "", "user_rt_id": "", "user_rt": "", "retweet_id": "", "reply_to": [{"user_id": "98399700", "username": "JohnArandia"}], "retweet_date": "", "translate": "", "trans_src": "", "trans_dest": ""}
{"id": 1270003345143607298, "conversation_id": "1270003345143607298", "created_at": 1591627367000, "date": "2020-06-08", "time": "10:42:47", "timezone": "-04", "user_id": 98399700, "username": "johnarandia", "name": "🅹🅾🅷🅽 🅰🆁🅰🅽🅳🅸🅰", "place": "", "tweet": "Rafael Quispe oficializa que será el nuevo Director General de Coordinación  con los movimientos sociales  y trabajará por el no retorno de Evo Morales. pic.twitter.com/CuFEMuJgUX", "mentions": [], "urls": [], "photos": ["https://pbs.twimg.com/media/EZ_1PzNWAAAC35z.jpg"], "replies_count": 181, "retweets_count": 115, "likes_count": 1369, "hashtags": [], "cashtags": [], "link": "https://twitter.com/JohnArandia/status/1270003345143607298", "retweet": false, "quote_url": "", "video": 0, "near": "", "geo": "", "source": "", "user_rt_id": "", "user_rt": "", "retweet_id": "", "reply_to": [{"user_id": "98399700", "username": "JohnArandia"}], "retweet_date": "", "translate": "", "trans_src": "", "trans_dest": ""}
{"id": 1269996832450588678, "conversation_id": "1269996832450588678", "created_at": 1591625814000, "date": "2020-06-08", "time": "10:16:54", "timezone": "-04", "user_id": 98399700, "username": "johnarandia", "name": "🅹🅾🅷🅽 🅰🆁🅰🅽🅳🅸🅰", "place": "", "tweet": "Se toma la decisión, se encapsulará el Chapare. Transporte de pasajeros no estará permitido, mas sí el de alimentos.", "mentions": [], "urls": [], "photos": [], "replies_count": 16, "retweets_count": 17, "likes_count": 172, "hashtags": [], "cashtags": [], "link": "https://twitter.com/JohnArandia/status/1269996832450588678", "retweet": false, "quote_url": "", "video": 0, "near": "", "geo": "", "source": "", "user_rt_id": "", "user_rt": "", "retweet_id": "", "reply_to": [{"user_id": "98399700", "username": "JohnArandia"}], "retweet_date": "", "translate": "", "trans_src": "", "trans_dest": ""}
{"id": 1269798218952577027, "conversation_id": "1269798218952577027", "created_at": 1591578461000, "date": "2020-06-07", "time": "21:07:41", "timezone": "-04", "user_id": 98399700, "username": "johnarandia", "name": "🅹🅾🅷🅽 🅰🆁🅰🅽🅳🅸🅰", "place": "", "tweet": "Una profunda pena invade el alma, al ver el Río Yara (Caranavi) en estas condiciones. Ante la pasividad esto se llama Ecocodio. pic.twitter.com/0RfABbovUM", "mentions": [], "urls": [], "photos": ["https://pbs.twimg.com/media/EZ86t6BXQAA-rMx.jpg", "https://pbs.twimg.com/media/EZ86uo0WsAIh1H9.jpg", "https://pbs.twimg.com/media/EZ86va4XkAI-oei.jpg"], "replies_count": 36, "retweets_count": 79, "likes_count": 196, "hashtags": [], "cashtags": [], "link": "https://twitter.com/JohnArandia/status/1269798218952577027", "retweet": false, "quote_url": "", "video": 0, "near": "", "geo": "", "source": "", "user_rt_id": "", "user_rt": "", "retweet_id": "", "reply_to": [{"user_id": "98399700", "username": "JohnArandia"}], "retweet_date": "", "translate": "", "trans_src": "", "trans_dest": ""}
{"id": 1269621946943254528, "conversation_id": "1269621946943254528", "created_at": 1591536435000, "date": "2020-06-07", "time": "09:27:15", "timezone": "-04", "user_id": 98399700, "username": "johnarandia", "name": "🅹🅾🅷🅽 🅰🆁🅰🅽🅳🅸🅰", "place": "", "tweet": "Felicidades a SOCIALES VIP, ya son 19 años! . En el tiempo de vida se nota el compromiso y la pasión . pic.twitter.com/KFuryqSyOy", "mentions": [], "urls": [], "photos": ["https://pbs.twimg.com/media/EZ6abX6WoAEu6H3.jpg"], "replies_count": 7, "retweets_count": 0, "likes_count": 18, "hashtags": [], "cashtags": [], "link": "https://twitter.com/JohnArandia/status/1269621946943254528", "retweet": false, "quote_url": "", "video": 0, "near": "", "geo": "", "source": "", "user_rt_id": "", "user_rt": "", "retweet_id": "", "reply_to": [{"user_id": "98399700", "username": "JohnArandia"}], "retweet_date": "", "translate": "", "trans_src": "", "trans_dest": ""}
{"id": 1269276144911646720, "conversation_id": "1269276144911646720", "created_at": 1591453989000, "date": "2020-06-06", "time": "10:33:09", "timezone": "-04", "user_id": 98399700, "username": "johnarandia", "name": "🅹🅾🅷🅽 🅰🆁🅰🅽🅳🅸🅰", "place": "", "tweet": " pic.twitter.com/oj7ortFvaE", "mentions": [], "urls": [], "photos": ["https://pbs.twimg.com/media/EZ1f63VWAAE4PLe.jpg"], "replies_count": 8, "retweets_count": 2, "likes_count": 67, "hashtags": [], "cashtags": [], "link": "https://twitter.com/JohnArandia/status/1269276144911646720", "retweet": false, "quote_url": "", "video": 0, "near": "", "geo": "", "source": "", "user_rt_id": "", "user_rt": "", "retweet_id": "", "reply_to": [{"user_id": "98399700", "username": "JohnArandia"}], "retweet_date": "", "translate": "", "trans_src": "", "trans_dest": ""}
{"id": 1269072524261941255, "conversation_id": "1269072524261941255", "created_at": 1591405442000, "date": "2020-06-05", "time": "21:04:02", "timezone": "-04", "user_id": 98399700, "username": "johnarandia", "name": "🅹🅾🅷🅽 🅰🆁🅰🅽🅳🅸🅰", "place": "", "tweet": "¿Qué cosas mas podría cortar, la presidente Añez, para obtener más recursos para la lucha contra el Coronavirus?", "mentions": [], "urls": [], "photos": [], "replies_count": 645, "retweets_count": 35, "likes_count": 350, "hashtags": [], "cashtags": [], "link": "https://twitter.com/JohnArandia/status/1269072524261941255", "retweet": false, "quote_url": "", "video": 0, "near": "", "geo": "", "source": "", "user_rt_id": "", "user_rt": "", "retweet_id": "", "reply_to": [{"user_id": "98399700", "username": "JohnArandia"}], "retweet_date": "", "translate": "", "trans_src": "", "trans_dest": ""}
{"id": 1268849613303406592, "conversation_id": "1268709501131259915", "created_at": 1591352296000, "date": "2020-06-05", "time": "06:18:16", "timezone": "-04", "user_id": 98399700, "username": "johnarandia", "name": "🅹🅾🅷🅽 🅰🆁🅰🅽🅳🅸🅰", "place": "", "tweet": "Jajajaja", "mentions": ["zuritalily"], "urls": [], "photos": [], "replies_count": 1, "retweets_count": 1, "likes_count": 7, "hashtags": [], "cashtags": [], "link": "https://twitter.com/JohnArandia/status/1268849613303406592", "retweet": false, "quote_url": "", "video": 0, "near": "", "geo": "", "source": "", "user_rt_id": "", "user_rt": "", "retweet_id": "", "reply_to": [{"user_id": "98399700", "username": "JohnArandia"}, {"user_id": "386069250", "username": "ZuritaLily"}], "retweet_date": "", "translate": "", "trans_src": "", "trans_dest": ""}
{"id": 1268681744171098120, "conversation_id": "1268681744171098120", "created_at": 1591312273000, "date": "2020-06-04", "time": "19:11:13", "timezone": "-04", "user_id": 98399700, "username": "johnarandia", "name": "🅹🅾🅷🅽 🅰🆁🅰🅽🅳🅸🅰", "place": "", "tweet": "Se rumoreaba que la ciudadana china Yapin Le, detenida en el aeropuerto El Alto tenía Covid.\nPresentamos el certificado para tranquilizar a policías, funcionarios judiciales e internas detenidas en el penal de Miraflores donde guarda detención.\nLa ciudadana NO TIENE COVID! pic.twitter.com/zmfhRgfF1Q", "mentions": [], "urls": [], "photos": ["https://pbs.twimg.com/media/EZtDSlNX0AA-vfF.jpg"], "replies_count": 25, "retweets_count": 15, "likes_count": 67, "hashtags": [], "cashtags": [], "link": "https://twitter.com/JohnArandia/status/1268681744171098120", "retweet": false, "quote_url": "", "video": 0, "near": "", "geo": "", "source": "", "user_rt_id": "", "user_rt": "", "retweet_id": "", "reply_to": [{"user_id": "98399700", "username": "JohnArandia"}], "retweet_date": "", "translate": "", "trans_src": "", "trans_dest": ""}
{"id": 1268651617135534081, "conversation_id": "1268651617135534081", "created_at": 1591305090000, "date": "2020-06-04", "time": "17:11:30", "timezone": "-04", "user_id": 98399700, "username": "johnarandia", "name": "🅹🅾🅷🅽 🅰🆁🅰🅽🅳🅸🅰", "place": "", "tweet": "Médicos y personal de salud dan 48 horas al municipio de Huanuni para darles garantías a su trabajo y responder por daños causados. pic.twitter.com/rUnB9ZJLXK", "mentions": [], "urls": [], "photos": ["https://pbs.twimg.com/media/EZsn43XWsAAOm2I.jpg", "https://pbs.twimg.com/media/EZsn6rDXgAIBno1.jpg"], "replies_count": 4, "retweets_count": 18, "likes_count": 106, "hashtags": [], "cashtags": [], "link": "https://twitter.com/JohnArandia/status/1268651617135534081", "retweet": false, "quote_url": "", "video": 0, "near": "", "geo": "", "source": "", "user_rt_id": "", "user_rt": "", "retweet_id": "", "reply_to": [{"user_id": "98399700", "username": "JohnArandia"}], "retweet_date": "", "translate": "", "trans_src": "", "trans_dest": ""}
{"id": 1268555582757363718, "conversation_id": "1268555582757363718", "created_at": 1591282194000, "date": "2020-06-04", "time": "10:49:54", "timezone": "-04", "user_id": 98399700, "username": "johnarandia", "name": "🅹🅾🅷🅽 🅰🆁🅰🅽🅳🅸🅰", "place": "", "tweet": "Un auto que debían desechar era continuamente arreglado, yo tengo un auto y me llama la atención que un cambio de frenos cueste más de 1000 bolivianos\" denuncia Dr. RENÉ SAHONERO , ex director de SEDES LA PAZ en #AMFIDES.\nCalifica sus hallazgos como \"inverosímiles\". pic.twitter.com/cNFHRIj9w6", "mentions": [], "urls": [], "photos": ["https://pbs.twimg.com/media/EZrQk5iXgAAc3CI.jpg"], "replies_count": 28, "retweets_count": 59, "likes_count": 199, "hashtags": ["#amfides"], "cashtags": [], "link": "https://twitter.com/JohnArandia/status/1268555582757363718", "retweet": false, "quote_url": "", "video": 0, "near": "", "geo": "", "source": "", "user_rt_id": "", "user_rt": "", "retweet_id": "", "reply_to": [{"user_id": "98399700", "username": "JohnArandia"}], "retweet_date": "", "translate": "", "trans_src": "", "trans_dest": ""}
{"id": 1268553080406245377, "conversation_id": "1268553080406245377", "created_at": 1591281597000, "date": "2020-06-04", "time": "10:39:57", "timezone": "-04", "user_id": 98399700, "username": "johnarandia", "name": "🅹🅾🅷🅽 🅰🆁🅰🅽🅳🅸🅰", "place": "", "tweet": "Dr. Rene Sahonero, encontró en SEDES LA PAZ planillas de personal desordenadas, cambio de categorías, disposición de dinero de ítems  y cambios presupuesto a discreción y de manera continua. pic.twitter.com/Ds7HtfT0SQ", "mentions": [], "urls": [], "photos": ["https://pbs.twimg.com/media/EZrOTZvWkAIyE6q.jpg"], "replies_count": 12, "retweets_count": 51, "likes_count": 140, "hashtags": [], "cashtags": [], "link": "https://twitter.com/JohnArandia/status/1268553080406245377", "retweet": false, "quote_url": "", "video": 0, "near": "", "geo": "", "source": "", "user_rt_id": "", "user_rt": "", "retweet_id": "", "reply_to": [{"user_id": "98399700", "username": "JohnArandia"}], "retweet_date": "", "translate": "", "trans_src": "", "trans_dest": ""}
{"id": 1268475179870687234, "conversation_id": "1268475179870687234", "created_at": 1591263024000, "date": "2020-06-04", "time": "05:30:24", "timezone": "-04", "user_id": 98399700, "username": "johnarandia", "name": "🅹🅾🅷🅽 🅰🆁🅰🅽🅳🅸🅰", "place": "", "tweet": "El ahora ex director SEDES LA PAZ, René Sahonero, revela que lo sacaron por cambiar al jefe de planificación (que decía ser sobrino del Gobernador) y a quien le pidieron \"no tocar\", porque halló sobreprecios en movilidades e irregularidades en planillas del personal.\n#AMFIDES. pic.twitter.com/5jrlKE40nD", "mentions": [], "urls": [], "photos": ["https://pbs.twimg.com/media/EZqHc_wWoAAJ4Ms.jpg"], "replies_count": 69, "retweets_count": 243, "likes_count": 587, "hashtags": ["#amfides"], "cashtags": [], "link": "https://twitter.com/JohnArandia/status/1268475179870687234", "retweet": false, "quote_url": "", "video": 0, "near": "", "geo": "", "source": "", "user_rt_id": "", "user_rt": "", "retweet_id": "", "reply_to": [{"user_id": "98399700", "username": "JohnArandia"}], "retweet_date": "", "translate": "", "trans_src": "", "trans_dest": ""}
{"id": 1268318865601310720, "conversation_id": "1268318865601310720", "created_at": 1591225756000, "date": "2020-06-03", "time": "19:09:16", "timezone": "-04", "user_id": 98399700, "username": "johnarandia", "name": "🅹🅾🅷🅽 🅰🆁🅰🅽🅳🅸🅰", "place": "", "tweet": "Mi solidaridad y acompañamiento al colega periodista Junior Arias. pic.twitter.com/tyh800pPqH", "mentions": [], "urls": [], "photos": ["https://pbs.twimg.com/media/EZn5RgOXsAQJDa0.jpg"], "replies_count": 194, "retweets_count": 152, "likes_count": 832, "hashtags": [], "cashtags": [], "link": "https://twitter.com/JohnArandia/status/1268318865601310720", "retweet": false, "quote_url": "", "video": 0, "near": "", "geo": "", "source": "", "user_rt_id": "", "user_rt": "", "retweet_id": "", "reply_to": [{"user_id": "98399700", "username": "JohnArandia"}], "retweet_date": "", "translate": "", "trans_src": "", "trans_dest": ""}
{"id": 1268312561663041538, "conversation_id": "1268312561663041538", "created_at": 1591224253000, "date": "2020-06-03", "time": "18:44:13", "timezone": "-04", "user_id": 98399700, "username": "johnarandia", "name": "🅹🅾🅷🅽 🅰🆁🅰🅽🅳🅸🅰", "place": "", "tweet": "Cuánta cantidad de vuelos de Amaszonas ! pic.twitter.com/TlaBjNuxgp", "mentions": [], "urls": [], "photos": ["https://pbs.twimg.com/media/EZnzjK_WkAI6TGP.jpg", "https://pbs.twimg.com/media/EZnzjWDX0AAWfNm.jpg"], "replies_count": 54, "retweets_count": 21, "likes_count": 100, "hashtags": [], "cashtags": [], "link": "https://twitter.com/JohnArandia/status/1268312561663041538", "retweet": false, "quote_url": "", "video": 0, "near": "", "geo": "", "source": "", "user_rt_id": "", "user_rt": "", "retweet_id": "", "reply_to": [{"user_id": "98399700", "username": "JohnArandia"}], "retweet_date": "", "translate": "", "trans_src": "", "trans_dest": ""}
{"id": 1268299371654918144, "conversation_id": "1268299371654918144", "created_at": 1591221108000, "date": "2020-06-03", "time": "17:51:48", "timezone": "-04", "user_id": 98399700, "username": "johnarandia", "name": "🅹🅾🅷🅽 🅰🆁🅰🅽🅳🅸🅰", "place": "", "tweet": "Se confirmo un caso de Covid19 en el Tribunal Electoral  departamental de Oruro.  Sin embargo continúan atendiendo a la población. pic.twitter.com/7cub8twj1C", "mentions": [], "urls": [], "photos": ["https://pbs.twimg.com/media/EZnnjQUWsAE3mRk.jpg"], "replies_count": 11, "retweets_count": 16, "likes_count": 34, "hashtags": [], "cashtags": [], "link": "https://twitter.com/JohnArandia/status/1268299371654918144", "retweet": false, "quote_url": "", "video": 0, "near": "", "geo": "", "source": "", "user_rt_id": "", "user_rt": "", "retweet_id": "", "reply_to": [{"user_id": "98399700", "username": "JohnArandia"}], "retweet_date": "", "translate": "", "trans_src": "", "trans_dest": ""}
{"id": 1268212257210748928, "conversation_id": "1268212257210748928", "created_at": 1591200339000, "date": "2020-06-03", "time": "12:05:39", "timezone": "-04", "user_id": 98399700, "username": "johnarandia", "name": "🅹🅾🅷🅽 🅰🆁🅰🅽🅳🅸🅰", "place": "", "tweet": "Urgente : Cambian al director de Sedes René Sahonero. Gobernador de La Paz posesiona uno nuevo pic.twitter.com/wneQtsOWNn", "mentions": [], "urls": [], "photos": ["https://pbs.twimg.com/media/EZmYUdQWkAEZfHg.jpg"], "replies_count": 51, "retweets_count": 22, "likes_count": 51, "hashtags": [], "cashtags": [], "link": "https://twitter.com/JohnArandia/status/1268212257210748928", "retweet": false, "quote_url": "", "video": 0, "near": "", "geo": "", "source": "", "user_rt_id": "", "user_rt": "", "retweet_id": "", "reply_to": [{"user_id": "98399700", "username": "JohnArandia"}], "retweet_date": "", "translate": "", "trans_src": "", "trans_dest": ""}
{"id": 1267943560910901251, "conversation_id": "1267943560910901251", "created_at": 1591136276000, "date": "2020-06-02", "time": "18:17:56", "timezone": "-04", "user_id": 98399700, "username": "johnarandia", "name": "🅹🅾🅷🅽 🅰🆁🅰🅽🅳🅸🅰", "place": "", "tweet": "Minera San Cristóbal informa de 2 casos de Covid, externos a la planta. Aclara que por ello los trabajadores cumplieron cuarentena. pic.twitter.com/pN7yXpjpoO", "mentions": [], "urls": [], "photos": ["https://pbs.twimg.com/media/EZij8dKX0AABCrr.jpg"], "replies_count": 2, "retweets_count": 6, "likes_count": 30, "hashtags": [], "cashtags": [], "link": "https://twitter.com/JohnArandia/status/1267943560910901251", "retweet": false, "quote_url": "", "video": 0, "near": "", "geo": "", "source": "", "user_rt_id": "", "user_rt": "", "retweet_id": "", "reply_to": [{"user_id": "98399700", "username": "JohnArandia"}], "retweet_date": "", "translate": "", "trans_src": "", "trans_dest": ""}
{"id": 1267914986623361026, "conversation_id": "1267914986623361026", "created_at": 1591129464000, "date": "2020-06-02", "time": "16:24:24", "timezone": "-04", "user_id": 98399700, "username": "johnarandia", "name": "🅹🅾🅷🅽 🅰🆁🅰🅽🅳🅸🅰", "place": "", "tweet": "Gerente de Bolivia TV Andrés Rojas dio positivo en la prueba de #Covid19 y permanece en aislamiento en el Hotel Real Plaza (Hotel Radisson)\nLos equipos periodísticos del canal que viajaron a Beni y Santa Cruz están en cuarentena.⚠️\nFuente: SéptimoSentido pic.twitter.com/dexVrP7qzp", "mentions": [], "urls": [], "photos": ["https://pbs.twimg.com/media/EZiJ9eDWkAAryJO.jpg"], "replies_count": 47, "retweets_count": 60, "likes_count": 142, "hashtags": ["#covid19"], "cashtags": [], "link": "https://twitter.com/JohnArandia/status/1267914986623361026", "retweet": false, "quote_url": "", "video": 0, "near": "", "geo": "", "source": "", "user_rt_id": "", "user_rt": "", "retweet_id": "", "reply_to": [{"user_id": "98399700", "username": "JohnArandia"}], "retweet_date": "", "translate": "", "trans_src": "", "trans_dest": ""}
{"id": 1267888004993036293, "conversation_id": "1267888004993036293", "created_at": 1591123031000, "date": "2020-06-02", "time": "14:37:11", "timezone": "-04", "user_id": 98399700, "username": "johnarandia", "name": "🅹🅾🅷🅽 🅰🆁🅰🅽🅳🅸🅰", "place": "", "tweet": "Secretario General de las Naciones Unidas muestra beneplácito por el acuerdo entre candidatos y TSE para la realización de elecciones en el país. pic.twitter.com/zAPZ2S9VpS", "mentions": [], "urls": [], "photos": ["https://pbs.twimg.com/media/EZhxae1X0AA-I_7.jpg"], "replies_count": 7, "retweets_count": 1, "likes_count": 20, "hashtags": [], "cashtags": [], "link": "https://twitter.com/JohnArandia/status/1267888004993036293", "retweet": false, "quote_url": "", "video": 0, "near": "", "geo": "", "source": "", "user_rt_id": "", "user_rt": "", "retweet_id": "", "reply_to": [{"user_id": "98399700", "username": "JohnArandia"}], "retweet_date": "", "translate": "", "trans_src": "", "trans_dest": ""}
{"id": 1267859688193953795, "conversation_id": "1267859688193953795", "created_at": 1591116280000, "date": "2020-06-02", "time": "12:44:40", "timezone": "-04", "user_id": 98399700, "username": "johnarandia", "name": "🅹🅾🅷🅽 🅰🆁🅰🅽🅳🅸🅰", "place": "", "tweet": "Urgente incendio de Magnitud en Calacoto pic.twitter.com/rFcwOXKsvQ", "mentions": [], "urls": [], "photos": ["https://pbs.twimg.com/media/EZhXqc0WkAAooNx.jpg"], "replies_count": 1, "retweets_count": 8, "likes_count": 35, "hashtags": [], "cashtags": [], "link": "https://twitter.com/JohnArandia/status/1267859688193953795", "retweet": false, "quote_url": "", "video": 0, "near": "", "geo": "", "source": "", "user_rt_id": "", "user_rt": "", "retweet_id": "", "reply_to": [{"user_id": "98399700", "username": "JohnArandia"}], "retweet_date": "", "translate": "", "trans_src": "", "trans_dest": ""}
{"id": 1267850511144927232, "conversation_id": "1267850511144927232", "created_at": 1591114092000, "date": "2020-06-02", "time": "12:08:12", "timezone": "-04", "user_id": 98399700, "username": "johnarandia", "name": "🅹🅾🅷🅽 🅰🆁🅰🅽🅳🅸🅰", "place": "", "tweet": "Filas para Segip... pic.twitter.com/0VNs7MTLfD", "mentions": [], "urls": [], "photos": ["https://pbs.twimg.com/media/EZhPT64XsAMxqo_.jpg"], "replies_count": 6, "retweets_count": 1, "likes_count": 14, "hashtags": [], "cashtags": [], "link": "https://twitter.com/JohnArandia/status/1267850511144927232", "retweet": false, "quote_url": "", "video": 0, "near": "", "geo": "", "source": "", "user_rt_id": "", "user_rt": "", "retweet_id": "", "reply_to": [{"user_id": "98399700", "username": "JohnArandia"}], "retweet_date": "", "translate": "", "trans_src": "", "trans_dest": ""}
{"id": 1267843953774247937, "conversation_id": "1267843953774247937", "created_at": 1591112528000, "date": "2020-06-02", "time": "11:42:08", "timezone": "-04", "user_id": 98399700, "username": "johnarandia", "name": "🅹🅾🅷🅽 🅰🆁🅰🅽🅳🅸🅰", "place": "", "tweet": "Con un acuerdo junto a candidatos el TSE enviará proyecto de ley a la Asamblea Plurinacional para que las elecciones sean hasta el domingo 3 de Septiembre. pic.twitter.com/8DiQgResGW", "mentions": [], "urls": [], "photos": ["https://pbs.twimg.com/media/EZhJWm6WkAMRkK9.jpg"], "replies_count": 51, "retweets_count": 6, "likes_count": 47, "hashtags": [], "cashtags": [], "link": "https://twitter.com/JohnArandia/status/1267843953774247937", "retweet": false, "quote_url": "", "video": 0, "near": "", "geo": "", "source": "", "user_rt_id": "", "user_rt": "", "retweet_id": "", "reply_to": [{"user_id": "98399700", "username": "JohnArandia"}], "retweet_date": "", "translate": "", "trans_src": "", "trans_dest": ""}
{"id": 1267843503335395328, "conversation_id": "1267843503335395328", "created_at": 1591112421000, "date": "2020-06-02", "time": "11:40:21", "timezone": "-04", "user_id": 98399700, "username": "johnarandia", "name": "🅹🅾🅷🅽 🅰🆁🅰🅽🅳🅸🅰", "place": "", "tweet": "Con un acuerdo junto a candidatos el TSE enviará proyecto de ley a la Asamblea Plurinacional para que las elecciones sean hasta el domingo 3 de Septiembre.", "mentions": [], "urls": [], "photos": [], "replies_count": 16, "retweets_count": 2, "likes_count": 30, "hashtags": [], "cashtags": [], "link": "https://twitter.com/JohnArandia/status/1267843503335395328", "retweet": false, "quote_url": "", "video": 0, "near": "", "geo": "", "source": "", "user_rt_id": "", "user_rt": "", "retweet_id": "", "reply_to": [{"user_id": "98399700", "username": "JohnArandia"}], "retweet_date": "", "translate": "", "trans_src": "", "trans_dest": ""}
{"id": 1267828485071896578, "conversation_id": "1267828312207790081", "created_at": 1591108840000, "date": "2020-06-02", "time": "10:40:40", "timezone": "-04", "user_id": 98399700, "username": "johnarandia", "name": "🅹🅾🅷🅽 🅰🆁🅰🅽🅳🅸🅰", "place": "", "tweet": "puede pasarme el link?", "mentions": ["ch3lyto", "grupofides", "noticiasfides"], "urls": [], "photos": [], "replies_count": 1, "retweets_count": 0, "likes_count": 0, "hashtags": [], "cashtags": [], "link": "https://twitter.com/JohnArandia/status/1267828485071896578", "retweet": false, "quote_url": "", "video": 0, "near": "", "geo": "", "source": "", "user_rt_id": "", "user_rt": "", "retweet_id": "", "reply_to": [{"user_id": "98399700", "username": "JohnArandia"}, {"user_id": "60440109", "username": "ch3Lyto"}, {"user_id": "129827792", "username": "GrupoFides"}, {"user_id": "209279715", "username": "noticiasfides"}], "retweet_date": "", "translate": "", "trans_src": "", "trans_dest": ""}
{"id": 1267806372776771589, "conversation_id": "1267806372776771589", "created_at": 1591103568000, "date": "2020-06-02", "time": "09:12:48", "timezone": "-04", "user_id": 98399700, "username": "johnarandia", "name": "🅹🅾🅷🅽 🅰🆁🅰🅽🅳🅸🅰", "place": "", "tweet": "/#_&##'#&!!!! pic.twitter.com/t8Vn99vHJC", "mentions": [], "urls": [], "photos": ["https://pbs.twimg.com/media/EZgnLTfXYAA8rgf.jpg"], "replies_count": 63, "retweets_count": 26, "likes_count": 110, "hashtags": [], "cashtags": [], "link": "https://twitter.com/JohnArandia/status/1267806372776771589", "retweet": false, "quote_url": "", "video": 0, "near": "", "geo": "", "source": "", "user_rt_id": "", "user_rt": "", "retweet_id": "", "reply_to": [{"user_id": "98399700", "username": "JohnArandia"}], "retweet_date": "", "translate": "", "trans_src": "", "trans_dest": ""}
{"id": 1267768884024807424, "conversation_id": "1267768884024807424", "created_at": 1591094630000, "date": "2020-06-02", "time": "06:43:50", "timezone": "-04", "user_id": 98399700, "username": "johnarandia", "name": "🅹🅾🅷🅽 🅰🆁🅰🅽🅳🅸🅰", "place": "", "tweet": "No será Boa, SEDES, Aasana o los pasajeros que mintieron.\nSon todos!  y un protocolo que  NO FUNCIONÓ...FUE VIOLADO!\n1) Cómo mejoraran estos controles ? Y 2) las cifras del COVID cada vez son menos exactas y es que hay gente que está ocultando que tiene el virus. Porqué será? pic.twitter.com/lrmhOCE3O4", "mentions": [], "urls": [], "photos": ["https://pbs.twimg.com/media/EZgFE69X0AAWgdf.jpg"], "replies_count": 81, "retweets_count": 91, "likes_count": 297, "hashtags": [], "cashtags": [], "link": "https://twitter.com/JohnArandia/status/1267768884024807424", "retweet": false, "quote_url": "", "video": 0, "near": "", "geo": "", "source": "", "user_rt_id": "", "user_rt": "", "retweet_id": "", "reply_to": [{"user_id": "98399700", "username": "JohnArandia"}], "retweet_date": "", "translate": "", "trans_src": "", "trans_dest": ""}
{"id": 1267611227636862978, "conversation_id": "1267611227636862978", "created_at": 1591057042000, "date": "2020-06-01", "time": "20:17:22", "timezone": "-04", "user_id": 98399700, "username": "johnarandia", "name": "🅹🅾🅷🅽 🅰🆁🅰🅽🅳🅸🅰", "place": "", "tweet": "Iván Arias/ MINISTRO, René Sahonero / SEDES BOLIVIA : \" LOS PASAJEROS CON COVID que abordaron el vuelo de BOA el 29 de Mayo mintieron y ocultaron su sintomatología.\"", "mentions": [], "urls": [], "photos": [], "replies_count": 48, "retweets_count": 45, "likes_count": 173, "hashtags": [], "cashtags": [], "link": "https://twitter.com/JohnArandia/status/1267611227636862978", "retweet": false, "quote_url": "", "video": 0, "near": "", "geo": "", "source": "", "user_rt_id": "", "user_rt": "", "retweet_id": "", "reply_to": [{"user_id": "98399700", "username": "JohnArandia"}], "retweet_date": "", "translate": "", "trans_src": "", "trans_dest": ""}
{"id": 1267611130937004032, "conversation_id": "1267611130937004032", "created_at": 1591057019000, "date": "2020-06-01", "time": "20:16:59", "timezone": "-04", "user_id": 98399700, "username": "johnarandia", "name": "🅹🅾🅷🅽 🅰🆁🅰🅽🅳🅸🅰", "place": "", "tweet": "Y así comprobamos que en fecha 29 de Mayo el vuelo de BOA 2445 voló de Trinidad a Cochabamba y La Paz con 3 personas contagiadas con COVID. Video #AMFIDES\nVea en: \n https://www.facebook.com/542058842799222/posts/1175424109462689/ … pic.twitter.com/URtIIDhTvM", "mentions": [], "urls": ["https://www.facebook.com/542058842799222/posts/1175424109462689/"], "photos": ["https://pbs.twimg.com/media/EZd1mgOWoAUFsmw.jpg"], "replies_count": 5, "retweets_count": 12, "likes_count": 40, "hashtags": ["#amfides"], "cashtags": [], "link": "https://twitter.com/JohnArandia/status/1267611130937004032", "retweet": false, "quote_url": "", "video": 0, "near": "", "geo": "", "source": "", "user_rt_id": "", "user_rt": "", "retweet_id": "", "reply_to": [{"user_id": "98399700", "username": "JohnArandia"}], "retweet_date": "", "translate": "", "trans_src": "", "trans_dest": ""}
{"id": 1267527579357110278, "conversation_id": "1267527579357110278", "created_at": 1591037099000, "date": "2020-06-01", "time": "14:44:59", "timezone": "-04", "user_id": 98399700, "username": "johnarandia", "name": "🅹🅾🅷🅽 🅰🆁🅰🅽🅳🅸🅰", "place": "", "tweet": "Tres pasajeros de BOA dieron positivo a covid-19\n https://www.radiofides.com/es/2020/06/01/tres-pasajeros-de-boa-dieron-positivo-a-covid-19/ …", "mentions": [], "urls": ["https://www.radiofides.com/es/2020/06/01/tres-pasajeros-de-boa-dieron-positivo-a-covid-19/"], "photos": [], "replies_count": 16, "retweets_count": 25, "likes_count": 62, "hashtags": [], "cashtags": [], "link": "https://twitter.com/JohnArandia/status/1267527579357110278", "retweet": false, "quote_url": "", "video": 0, "near": "", "geo": "", "source": "", "user_rt_id": "", "user_rt": "", "retweet_id": "", "reply_to": [{"user_id": "98399700", "username": "JohnArandia"}], "retweet_date": "", "translate": "", "trans_src": "", "trans_dest": ""}
{"id": 1267460737997430785, "conversation_id": "1267460737997430785", "created_at": 1591021162000, "date": "2020-06-01", "time": "10:19:22", "timezone": "-04", "user_id": 98399700, "username": "johnarandia", "name": "🅹🅾🅷🅽 🅰🆁🅰🅽🅳🅸🅰", "place": "", "tweet": "En vivo https://twitter.com/GrupoFides/status/1267459537633636352 …", "mentions": [], "urls": ["https://twitter.com/GrupoFides/status/1267459537633636352"], "photos": [], "replies_count": 9, "retweets_count": 0, "likes_count": 19, "hashtags": [], "cashtags": [], "link": "https://twitter.com/JohnArandia/status/1267460737997430785", "retweet": false, "quote_url": "https://twitter.com/GrupoFides/status/1267459537633636352", "video": 0, "near": "", "geo": "", "source": "", "user_rt_id": "", "user_rt": "", "retweet_id": "", "reply_to": [{"user_id": "98399700", "username": "JohnArandia"}], "retweet_date": "", "translate": "", "trans_src": "", "trans_dest": ""}
{"id": 1267284222882066433, "conversation_id": "1267284222882066433", "created_at": 1590979078000, "date": "2020-05-31", "time": "22:37:58", "timezone": "-04", "user_id": 98399700, "username": "johnarandia", "name": "🅹🅾🅷🅽 🅰🆁🅰🅽🅳🅸🅰", "place": "", "tweet": "El nuevo gobernador de Oruro es Edson Otzachoque.", "mentions": [], "urls": [], "photos": [], "replies_count": 15, "retweets_count": 4, "likes_count": 47, "hashtags": [], "cashtags": [], "link": "https://twitter.com/JohnArandia/status/1267284222882066433", "retweet": false, "quote_url": "", "video": 0, "near": "", "geo": "", "source": "", "user_rt_id": "", "user_rt": "", "retweet_id": "", "reply_to": [{"user_id": "98399700", "username": "JohnArandia"}], "retweet_date": "", "translate": "", "trans_src": "", "trans_dest": ""}
{"id": 1267213763922530308, "conversation_id": "1267213763922530308", "created_at": 1590962279000, "date": "2020-05-31", "time": "17:57:59", "timezone": "-04", "user_id": 98399700, "username": "johnarandia", "name": "🅹🅾🅷🅽 🅰🆁🅰🅽🅳🅸🅰", "place": "", "tweet": "Urgente : Destituyen al Gobernador De Oruro, Zenón Pizarro. tras votacion de la asamblea departamental.", "mentions": [], "urls": [], "photos": [], "replies_count": 13, "retweets_count": 32, "likes_count": 165, "hashtags": [], "cashtags": [], "link": "https://twitter.com/JohnArandia/status/1267213763922530308", "retweet": false, "quote_url": "", "video": 0, "near": "", "geo": "", "source": "", "user_rt_id": "", "user_rt": "", "retweet_id": "", "reply_to": [{"user_id": "98399700", "username": "JohnArandia"}], "retweet_date": "", "translate": "", "trans_src": "", "trans_dest": ""}
{"id": 1266884979386200066, "conversation_id": "1266884979386200066", "created_at": 1590883891000, "date": "2020-05-30", "time": "20:11:31", "timezone": "-04", "user_id": 98399700, "username": "johnarandia", "name": "🅹🅾🅷🅽 🅰🆁🅰🅽🅳🅸🅰", "place": "", "tweet": "Atención Beni... pic.twitter.com/2ed4av5ahx", "mentions": [], "urls": [], "photos": ["https://pbs.twimg.com/media/EZThK43WoAE_bJm.jpg"], "replies_count": 3, "retweets_count": 36, "likes_count": 53, "hashtags": [], "cashtags": [], "link": "https://twitter.com/JohnArandia/status/1266884979386200066", "retweet": false, "quote_url": "", "video": 0, "near": "", "geo": "", "source": "", "user_rt_id": "", "user_rt": "", "retweet_id": "", "reply_to": [{"user_id": "98399700", "username": "JohnArandia"}], "retweet_date": "", "translate": "", "trans_src": "", "trans_dest": ""}
{"id": 1266871490022125570, "conversation_id": "1266871490022125570", "created_at": 1590880675000, "date": "2020-05-30", "time": "19:17:55", "timezone": "-04", "user_id": 98399700, "username": "johnarandia", "name": "🅹🅾🅷🅽 🅰🆁🅰🅽🅳🅸🅰", "place": "", "tweet": "Presidente Añez despide al ministro racista. pic.twitter.com/kuidEU9UkG", "mentions": [], "urls": [], "photos": ["https://pbs.twimg.com/media/EZTU5v_X0AEOCTU.jpg"], "replies_count": 92, "retweets_count": 25, "likes_count": 297, "hashtags": [], "cashtags": [], "link": "https://twitter.com/JohnArandia/status/1266871490022125570", "retweet": false, "quote_url": "", "video": 0, "near": "", "geo": "", "source": "", "user_rt_id": "", "user_rt": "", "retweet_id": "", "reply_to": [{"user_id": "98399700", "username": "JohnArandia"}], "retweet_date": "", "translate": "", "trans_src": "", "trans_dest": ""}
{"id": 1266017172238860288, "conversation_id": "1266017172238860288", "created_at": 1590676989000, "date": "2020-05-28", "time": "10:43:09", "timezone": "-04", "user_id": 98399700, "username": "johnarandia", "name": "🅹🅾🅷🅽 🅰🆁🅰🅽🅳🅸🅰", "place": "", "tweet": "Estás o no acuerdo con llevar adelante elecciones dentro de 3 meses en el país?", "mentions": [], "urls": [], "photos": [], "replies_count": 399, "retweets_count": 128, "likes_count": 192, "hashtags": [], "cashtags": [], "link": "https://twitter.com/JohnArandia/status/1266017172238860288", "retweet": false, "quote_url": "", "video": 0, "near": "", "geo": "", "source": "", "user_rt_id": "", "user_rt": "", "retweet_id": "", "reply_to": [{"user_id": "98399700", "username": "JohnArandia"}], "retweet_date": "", "translate": "", "trans_src": "", "trans_dest": ""}
{"id": 1266012621246992384, "conversation_id": "1266012621246992384", "created_at": 1590675904000, "date": "2020-05-28", "time": "10:25:04", "timezone": "-04", "user_id": 98399700, "username": "johnarandia", "name": "🅹🅾🅷🅽 🅰🆁🅰🅽🅳🅸🅰", "place": "", "tweet": "Gobierno instruye  que para el pago del IUE para grandes contribuyentes no habrá ampliación, más sí para pequeños contribuyentes (hasta el 31 de Julio). Incluye decreto pic.twitter.com/tKjadPaXpM", "mentions": [], "urls": [], "photos": ["https://pbs.twimg.com/media/EZHHwsbXkAIE08z.jpg"], "replies_count": 16, "retweets_count": 8, "likes_count": 33, "hashtags": [], "cashtags": [], "link": "https://twitter.com/JohnArandia/status/1266012621246992384", "retweet": false, "quote_url": "", "video": 0, "near": "", "geo": "", "source": "", "user_rt_id": "", "user_rt": "", "retweet_id": "", "reply_to": [{"user_id": "98399700", "username": "JohnArandia"}], "retweet_date": "", "translate": "", "trans_src": "", "trans_dest": ""}
{"id": 1266011734927708161, "conversation_id": "1266011734927708161", "created_at": 1590675693000, "date": "2020-05-28", "time": "10:21:33", "timezone": "-04", "user_id": 98399700, "username": "johnarandia", "name": "🅹🅾🅷🅽 🅰🆁🅰🅽🅳🅸🅰", "place": "", "tweet": "En vivo https://twitter.com/GrupoFides/status/1266009507387195392 …", "mentions": [], "urls": ["https://twitter.com/GrupoFides/status/1266009507387195392"], "photos": [], "replies_count": 3, "retweets_count": 4, "likes_count": 16, "hashtags": [], "cashtags": [], "link": "https://twitter.com/JohnArandia/status/1266011734927708161", "retweet": false, "quote_url": "https://twitter.com/GrupoFides/status/1266009507387195392", "video": 0, "near": "", "geo": "", "source": "", "user_rt_id": "", "user_rt": "", "retweet_id": "", "reply_to": [{"user_id": "98399700", "username": "JohnArandia"}], "retweet_date": "", "translate": "", "trans_src": "", "trans_dest": ""}
{"id": 1266008249268088833, "conversation_id": "1266008249268088833", "created_at": 1590674862000, "date": "2020-05-28", "time": "10:07:42", "timezone": "-04", "user_id": 98399700, "username": "johnarandia", "name": "🅹🅾🅷🅽 🅰🆁🅰🅽🅳🅸🅰", "place": "", "tweet": "Urgente: Gobierno instruye  que para el pago del IUE para grandes contribuyentes no habrá ampliación, más sí para pequeños contribuyentes (hasta el 31 de Julio). pic.twitter.com/vERsXWYtwh", "mentions": [], "urls": [], "photos": ["https://pbs.twimg.com/media/EZHDytdWAAIrz0z.jpg"], "replies_count": 8, "retweets_count": 10, "likes_count": 28, "hashtags": [], "cashtags": [], "link": "https://twitter.com/JohnArandia/status/1266008249268088833", "retweet": false, "quote_url": "", "video": 0, "near": "", "geo": "", "source": "", "user_rt_id": "", "user_rt": "", "retweet_id": "", "reply_to": [{"user_id": "98399700", "username": "JohnArandia"}], "retweet_date": "", "translate": "", "trans_src": "", "trans_dest": ""}
{"id": 1265997429066944517, "conversation_id": "1265997429066944517", "created_at": 1590672282000, "date": "2020-05-28", "time": "09:24:42", "timezone": "-04", "user_id": 98399700, "username": "johnarandia", "name": "🅹🅾🅷🅽 🅰🆁🅰🅽🅳🅸🅰", "place": "", "tweet": "Moody’s prevé déficit de 13% e impacto por la crisis política https://www.paginasiete.bo/economia/2020/5/28/moodys-preve-deficit-de-13-impacto-por-la-crisis-politica-256761.html …", "mentions": [], "urls": ["https://www.paginasiete.bo/economia/2020/5/28/moodys-preve-deficit-de-13-impacto-por-la-crisis-politica-256761.html"], "photos": [], "replies_count": 8, "retweets_count": 3, "likes_count": 8, "hashtags": [], "cashtags": [], "link": "https://twitter.com/JohnArandia/status/1265997429066944517", "retweet": false, "quote_url": "", "video": 0, "near": "", "geo": "", "source": "", "user_rt_id": "", "user_rt": "", "retweet_id": "", "reply_to": [{"user_id": "98399700", "username": "JohnArandia"}], "retweet_date": "", "translate": "", "trans_src": "", "trans_dest": ""}
{"id": 1265997250498629632, "conversation_id": "1265997250498629632", "created_at": 1590672240000, "date": "2020-05-28", "time": "09:24:00", "timezone": "-04", "user_id": 98399700, "username": "johnarandia", "name": "🅹🅾🅷🅽 🅰🆁🅰🅽🅳🅸🅰", "place": "", "tweet": " https://www.paginasiete.bo/economia/2020/5/28/moodys-preve-deficit-de-13-impacto-por-la-crisis-politica-256761.html …", "mentions": [], "urls": ["https://www.paginasiete.bo/economia/2020/5/28/moodys-preve-deficit-de-13-impacto-por-la-crisis-politica-256761.html"], "photos": [], "replies_count": 1, "retweets_count": 0, "likes_count": 1, "hashtags": [], "cashtags": [], "link": "https://twitter.com/JohnArandia/status/1265997250498629632", "retweet": false, "quote_url": "", "video": 0, "near": "", "geo": "", "source": "", "user_rt_id": "", "user_rt": "", "retweet_id": "", "reply_to": [{"user_id": "98399700", "username": "JohnArandia"}], "retweet_date": "", "translate": "", "trans_src": "", "trans_dest": ""}
{"id": 1265651567090335745, "conversation_id": "1265651567090335745", "created_at": 1590589822000, "date": "2020-05-27", "time": "10:30:22", "timezone": "-04", "user_id": 98399700, "username": "johnarandia", "name": "🅹🅾🅷🅽 🅰🆁🅰🅽🅳🅸🅰", "place": "", "tweet": "Nuestro programa de hoy al VIVO https://twitter.com/GrupoFides/status/1265650404114591745 …", "mentions": [], "urls": ["https://twitter.com/GrupoFides/status/1265650404114591745"], "photos": [], "replies_count": 10, "retweets_count": 0, "likes_count": 27, "hashtags": [], "cashtags": [], "link": "https://twitter.com/JohnArandia/status/1265651567090335745", "retweet": false, "quote_url": "https://twitter.com/GrupoFides/status/1265650404114591745", "video": 0, "near": "", "geo": "", "source": "", "user_rt_id": "", "user_rt": "", "retweet_id": "", "reply_to": [{"user_id": "98399700", "username": "JohnArandia"}], "retweet_date": "", "translate": "", "trans_src": "", "trans_dest": ""}
